%YAML 1.1
%TAG !u! tag:unity3d.com,2011:
--- !u!1 &156670
GameObject:
  m_ObjectHideFlags: 0
  m_PrefabParentObject: {fileID: 0}
  m_PrefabInternal: {fileID: 100100000}
  serializedVersion: 5
  m_Component:
  - component: {fileID: 400840}
  - component: {fileID: 11461976}
  - component: {fileID: 3310346}
  - component: {fileID: 2339542}
  - component: {fileID: 6411808}
  m_Layer: 0
  m_Name: bridge_01_2_lane_entrance_1_lane
  m_TagString: Untagged
  m_Icon: {fileID: 0}
  m_NavMeshLayer: 0
  m_StaticEditorFlags: 0
  m_IsActive: 1
--- !u!4 &400840
Transform:
  m_ObjectHideFlags: 1
  m_PrefabParentObject: {fileID: 0}
  m_PrefabInternal: {fileID: 100100000}
  m_GameObject: {fileID: 156670}
  m_LocalRotation: {x: 0, y: 0, z: 0, w: 1}
  m_LocalPosition: {x: 0, y: 0, z: 0}
  m_LocalScale: {x: 1, y: 1, z: 1}
  m_Children: []
  m_Father: {fileID: 0}
  m_RootOrder: 0
  m_LocalEulerAnglesHint: {x: 0, y: 0, z: 0}
--- !u!23 &2339542
MeshRenderer:
  m_ObjectHideFlags: 1
  m_PrefabParentObject: {fileID: 0}
  m_PrefabInternal: {fileID: 100100000}
  m_GameObject: {fileID: 156670}
  m_Enabled: 1
  m_CastShadows: 1
  m_ReceiveShadows: 1
  m_MotionVectors: 1
  m_LightProbeUsage: 1
  m_ReflectionProbeUsage: 1
  m_Materials:
  - {fileID: 2100000, guid: 260f8a3c104a5e04d8f8bc0d61b51664, type: 2}
  - {fileID: 2100000, guid: 1fd58c4a17091f1468b602e202ceb920, type: 2}
  - {fileID: 2100000, guid: 6a3338396b2fada41a83d8a902a4c877, type: 2}
  m_StaticBatchInfo:
    firstSubMesh: 0
    subMeshCount: 0
  m_StaticBatchRoot: {fileID: 0}
  m_ProbeAnchor: {fileID: 0}
  m_LightProbeVolumeOverride: {fileID: 0}
  m_ScaleInLightmap: 1
  m_PreserveUVs: 0
  m_IgnoreNormalsForChartDetection: 0
  m_ImportantGI: 0
  m_SelectedEditorRenderState: 3
  m_MinimumChartSize: 4
  m_AutoUVMaxDistance: 0.5
  m_AutoUVMaxAngle: 89
  m_LightmapParameters: {fileID: 0}
  m_SortingLayerID: 0
  m_SortingLayer: 0
  m_SortingOrder: 0
--- !u!33 &3310346
MeshFilter:
  m_ObjectHideFlags: 1
  m_PrefabParentObject: {fileID: 0}
  m_PrefabInternal: {fileID: 100100000}
  m_GameObject: {fileID: 156670}
  m_Mesh: {fileID: 4300000, guid: e8671424a1b18004f801febbcaeb8de9, type: 2}
--- !u!64 &6411808
MeshCollider:
  m_ObjectHideFlags: 1
  m_PrefabParentObject: {fileID: 0}
  m_PrefabInternal: {fileID: 100100000}
  m_GameObject: {fileID: 156670}
  m_Material: {fileID: 0}
  m_IsTrigger: 0
  m_Enabled: 1
  serializedVersion: 2
  m_Convex: 0
  m_InflateMesh: 0
  m_SkinWidth: 0.01
  m_Mesh: {fileID: 4300000, guid: e8671424a1b18004f801febbcaeb8de9, type: 2}
--- !u!114 &11461976
MonoBehaviour:
  m_ObjectHideFlags: 1
  m_PrefabParentObject: {fileID: 0}
  m_PrefabInternal: {fileID: 100100000}
  m_GameObject: {fileID: 156670}
  m_Enabled: 1
  m_EditorHideFlags: 0
  m_Script: {fileID: -2039104457, guid: f56d46228aee4734f9114056c53bb57e, type: 3}
  m_Name: 
  m_EditorClassIdentifier: 
  crossingElements:
  - centerPoint: {x: -0.016299963, y: 0, z: -9.820649}
    tmpCenterPoint: {x: -0.016299963, y: 0, z: -9.820649}
    stageCenterPoint: {x: -0.016299963, y: 0, z: 0}
    tmpStageCenterPoint: {x: -0.016299963, y: 0, z: 0}
    blendData: []
    controlPointV3: {x: -0.004985354, y: 0, z: -1.8206568}
    controlPoint: {x: -0.004985354, y: -1.8206568}
    blendDistance: 0
    extendBounds: 0
    blendCornerPoints:
    - {x: -0.011755, y: -9.7921095, z: 0}
    - {x: -0.011755, y: -9.7921095, z: 0}
    - {x: -0.011755, y: -9.7921095, z: 0}
    - {x: -0.011755, y: -9.7921095, z: 0}
    blendCornerPointInts: d2000000cf000000d3000000d5000000d7000000d9000000dc000000de000000e000000002010000040100008c0000008a00000088000000870000008500000083000000810000007e0000008e000000
    blendCornerPointWeights:
    - 0
    - 0
    - 0
    - 0
    - 0
    - 0
    - 0
    - 0
    - 0
    - 0
    - 0
    - 0
    - 0
    - 0
    - 0
    - 0
    - 0
    - 0
    - 0
    - 0
    blendCornerPointsTransformed:
    - {x: 332.39023, y: 552.70483, z: 0}
    - {x: 332.39023, y: 552.70483, z: 0}
    - {x: 332.39023, y: 552.70483, z: 0}
    - {x: 332.39023, y: 552.70483, z: 0}
    blendRatio: 1
    curveStrength: 0
    roadShapeVecs:
    - {x: 0.0045056343, y: -0.63967}
    - {x: -2.637055, y: -0.54269254}
    - {x: -3.9370296, y: -0.360315}
    - {x: -4.047124, y: 0.013607501}
    - {x: -4.0471077, y: 0.3414925}
    - {x: -3.9369779, y: 0.68686754}
    - {x: -3.7949598, y: 0.70295}
    - {x: -3.6544955, y: 0.68686754}
    - {x: -3.5040367, y: 0.0094}
    - {x: 3.5042, y: 0.0099275}
    - {x: 3.6550632, y: 0.6882125}
    - {x: 3.7902207, y: 0.70456}
    - {x: 3.9370303, y: 0.68686754}
    - {x: 4.047124, y: 0.3414925}
    - {x: 4.0471096, y: 0.013607501}
    - {x: 3.9369783, y: -0.360315}
    - {x: 2.636983, y: -0.54269254}
    - {x: 0.0045056343, y: -0.63967}
    roadShapeVecsString: 0, -0.64;-2.64, -0.54;-3.94, -0.36;-4.05, 0.01;-4.05, 0.34;-3.94,
      0.69;-3.79, 0.7;-3.65, 0.69;-3.5, 0.01;3.5, 0.01;3.66, 0.69;3.79, 0.7;3.94,
      0.69;4.05, 0.34;4.05, 0.01;3.94, -0.36;2.64, -0.54;0, -0.64;
    roadShapeMatchCount: 18
    roadShapeUVY:
    - 0
    - 0.1091
    - 0.187
    - 0.2039
    - 0.2215
    - 0.2382
    - 0.2448
    - 0.2505
    - 0.276
    - 0.7242
    - 0.7446
    - 0.7539
    - 0.761
    - 0.7799
    - 0.796
    - 0.8145
    - 0.8934
    - 1
    roadShapeUVY2: []
    hardEdge: 000000000000000001010000000000000000
    roadShapeMaterialInts: 000000000000000000000000000000000000000000000000000000000000000000000000000000000000000000000000000000000000000000000000000000000000000000000000
    sidewalkLeftVecs: []
    sidewalkLeftUVY: []
    sidewalkLeftMaterialInts: 
    sidewalkRightVecs: []
    sidewalkRightUVY: []
    sidewalkRightMaterialInts: 
    connectionVecs: []
    connectionVecInts: 7c000000bd000000bf000000c0000000c1000000c2000000c3000000c4000000c50000007a00000078000000760000007500000073000000710000006f0000006c0000007c000000
    fullConnectionVecInts: d2000000cf000000d3000000d5000000d7000000d9000000dc000000de000000e000000002010000040100008c0000008a00000088000000870000008500000083000000810000007e0000008e000000
    sidewalkLeftConnectionVecInts: 
    sidewalkRightConnectionVecInts: 
    doConnectionTri: 010101010101010101010101010101010101
    outerVecInts: 
    rotationPriority: 0
    centerPointAngle: 1000
    connectedRoad: {fileID: 0}
    connectedMarker: -1
    connectedRoadGO: {fileID: 0}
    includeLeftSidewalk: 1
    includeRightSidewalk: 1
    roadMaterial: {fileID: 2100000, guid: a303be852f4e00a45834595c3ecc01ad, type: 2}
    roadMaterials:
    - {fileID: 2100000, guid: a303be852f4e00a45834595c3ecc01ad, type: 2}
    centerPointPercentage: 0.5
    leftIndent: -1
    rightIndent: -1
    leftSurrounding: -1
    rightSurrounding: -1
    leftIndentV3: {x: 0, y: 0, z: 0}
    leftSurroundingV3: {x: 0, y: 0, z: 0}
    rightIndentV3: {x: 0, y: 0, z: 0}
    rightSurroundingV3: {x: 0, y: 0, z: 0}
    leftCornerInt: -1
    rightCornerInt: -1
    leftIndentInt: 0
    rightIndentInt: 0
    leftInt: 3
    rightInt: 13
    leftIntFull: 3
    rightIntFull: 15
    alignmentHandleVec: {x: -0.014885637, y: 0, z: -8.82065}
    additionalIndentDistance: 0
    connectionAngle: 0
    alignmentHandleVecRotationGizmo: {x: 0, y: 0, z: 0}
    roadType: 1447879021.327027
    roadTypeTimestamp: 0
  - centerPoint: {x: -7.591303, y: 0, z: 8.039384}
    tmpCenterPoint: {x: -7.591303, y: 0, z: 8.039384}
    stageCenterPoint: {x: -7.591303, y: 0, z: 0}
    tmpStageCenterPoint: {x: -7.591303, y: 0, z: 0}
    blendData: []
    controlPointV3: {x: -3.2304869, y: 0, z: 1.3324261}
    controlPoint: {x: -3.2304869, y: 1.3324261}
    blendDistance: 0
    extendBounds: 0
    blendCornerPoints:
    - {x: -7.539863, y: 8.07283, z: 0}
    - {x: -7.539863, y: 8.07283, z: 0}
    - {x: -7.539863, y: 8.07283, z: 0}
    - {x: -7.539863, y: 8.07283, z: 0}
    blendCornerPointInts: 6b0000005f0000005e00000060000000610000006300000066000000680000006a0000007c0000007d00000042000000430000004400000045000000470000004600000041000000400000003f000000
    blendCornerPointWeights:
    - 0
    - 0
    - 0
    - 0
    - 0
    - 0
    - 0
    - 0
    - 0
    - 0
    - 0
    - 0
    - 0
    - 0
    - 0
    - 0
    - 0
    - 0
    - 0
    - 0
    blendCornerPointsTransformed:
    - {x: 140.13133, y: 96.455635, z: 0}
    - {x: 140.13133, y: 96.455635, z: 0}
    - {x: 140.13133, y: 96.455635, z: 0}
    - {x: 140.13133, y: 96.455635, z: 0}
    blendRatio: 1
    curveStrength: 0
    roadShapeVecs:
    - {x: -0.06135702, y: -0.6456225}
    - {x: -1.0313379, y: -0.54308504}
    - {x: -2.4923527, y: -0.3605975}
    - {x: -2.602465, y: 0.013555001}
    - {x: -2.602465, y: 0.34164}
    - {x: -2.4923527, y: 0.68722504}
    - {x: -2.3455443, y: 0.7049275}
    - {x: -2.2098713, y: 0.68722504}
    - {x: -2.0589426, y: 0.0106925005}
    - {x: 2.058944, y: 0.0106925005}
    - {x: 2.20987, y: 0.68722504}
    - {x: 2.3503373, y: 0.7033175}
    - {x: 2.4923537, y: 0.68722504}
    - {x: 2.602465, y: 0.34164}
    - {x: 2.602465, y: 0.013555001}
    - {x: 2.4923537, y: -0.3605975}
    - {x: 1.0423229, y: -0.54308504}
    - {x: -0.06135702, y: -0.6456225}
    roadShapeVecsString: -0.06, -0.65;-1.03, -0.54;-2.49, -0.36;-2.6, 0.01;-2.6, 0.34;-2.49,
      0.69;-2.35, 0.7;-2.21, 0.69;-2.06, 0.01;2.06, 0.01;2.21, 0.69;2.35, 0.7;2.49,
      0.69;2.6, 0.34;2.6, 0.01;2.49, -0.36;1.04, -0.54;-0.06, -0.65;
    roadShapeMatchCount: 18
    roadShapeUVY:
    - 0.0009
    - 0.8934
    - 0.8145
    - 0.796
    - 0.7799
    - 0.761
    - 0.7539
    - 0.7446
    - 0.7243
    - 0.2759
    - 0.2505
    - 0.2448
    - 0.2382
    - 0.2215
    - 0.2039
    - 0.187
    - 0.1091
    - 1
    roadShapeUVY2: []
    hardEdge: 000000000000000001010000000000000000
    roadShapeMaterialInts: 000000000000000000000000000000000000000000000000000000000000000000000000000000000000000000000000000000000000000000000000000000000000000000000000
    sidewalkLeftVecs: []
    sidewalkLeftUVY: []
    sidewalkLeftMaterialInts: 
    sidewalkRightVecs: []
    sidewalkRightUVY: []
    sidewalkRightMaterialInts: 
    connectionVecs: []
    connectionVecInts: 3f0000005800000057000000590000005a0000005c0000005f000000610000006300000042000000430000004400000045000000470000004600000041000000400000003f000000
    fullConnectionVecInts: 6b0000005f0000005e00000060000000610000006300000066000000680000006a0000007c0000007d00000042000000430000004400000045000000470000004600000041000000400000003f000000
    sidewalkLeftConnectionVecInts: 
    sidewalkRightConnectionVecInts: 
    doConnectionTri: 010101010101010101010101010101010101
    outerVecInts: 
    rotationPriority: 0
    centerPointAngle: 1000
    connectedRoad: {fileID: 0}
    connectedMarker: -1
    connectedRoadGO: {fileID: 0}
    includeLeftSidewalk: 1
    includeRightSidewalk: 1
    roadMaterial: {fileID: 2100000, guid: f29225c4eda3ba840826ade513e85fd6, type: 2}
    roadMaterials:
    - {fileID: 2100000, guid: f29225c4eda3ba840826ade513e85fd6, type: 2}
    centerPointPercentage: 0.5
    leftIndent: -1
    rightIndent: -1
    leftSurrounding: -1
    rightSurrounding: -1
    leftIndentV3: {x: 0, y: 0, z: 0}
    leftSurroundingV3: {x: 0, y: 0, z: 0}
    rightIndentV3: {x: 0, y: 0, z: 0}
    rightSurroundingV3: {x: 0, y: 0, z: 0}
    leftCornerInt: -1
    rightCornerInt: -1
    leftIndentInt: 0
    rightIndentInt: 0
    leftInt: 3
    rightInt: 13
    leftIntFull: 4
    rightIntFull: 16
    alignmentHandleVec: {x: 0, y: 0, z: 0}
    additionalIndentDistance: 0
    connectionAngle: 0
    alignmentHandleVecRotationGizmo: {x: 0, y: 0, z: 0}
    roadType: 1447879054.0869007
    roadTypeTimestamp: 0
  - centerPoint: {x: -0.016299963, y: 0, z: 9.77061}
    tmpCenterPoint: {x: -0.016299963, y: 0, z: 9.77061}
    stageCenterPoint: {x: -0.016299963, y: 0, z: 0}
    tmpStageCenterPoint: {x: -0.016299963, y: 0, z: 0}
    blendData: []
    controlPointV3: {x: -0.016299963, y: 0, z: 1.7706099}
    controlPoint: {x: -0.016299963, y: 1.7706099}
    blendDistance: 0
    extendBounds: 0
    blendCornerPoints:
    - {x: -0.0122725, y: 9.77061, z: 0}
    - {x: -0.0122725, y: 9.77061, z: 0}
    - {x: -0.0122725, y: 9.77061, z: 0}
    - {x: -0.0122725, y: 9.77061, z: 0}
    blendCornerPointInts: ce000000c7000000c6000000cc000000cd000000c8000000c9000000ca000000cb000000130100001401000000010000fe000000fc000000fb000000f9000000f7000000f6000000f5000000f4000000
    blendCornerPointWeights:
    - 0
    - 0
    - 0
    - 0
    - 0
    - 0
    - 0
    - 0
    - 0
    - 0
    - 0
    - 0
    - 0
    - 0
    - 0
    - 0
    - 0
    - 0
    - 0
    - 0
    blendCornerPointsTransformed:
    - {x: 332.377, y: 53.096367, z: 0}
    - {x: 332.377, y: 53.096367, z: 0}
    - {x: 332.377, y: 53.096367, z: 0}
    - {x: 332.377, y: 53.096367, z: 0}
    blendRatio: 1
    curveStrength: 0
    roadShapeVecs:
    - {x: -0.0040273666, y: -0.6456225}
    - {x: -2.6370196, y: -0.54308504}
    - {x: -3.9370072, y: -0.3605975}
    - {x: -4.04712, y: 0.013555001}
    - {x: -4.04712, y: 0.34164}
    - {x: -3.9370072, y: 0.68722504}
    - {x: -3.7901974, y: 0.7049275}
    - {x: -3.6545222, y: 0.68722504}
    - {x: -3.5035973, y: 0.0106925005}
    - {x: 3.5036001, y: 0.0106925005}
    - {x: 3.6545248, y: 0.68722504}
    - {x: 3.7949905, y: 0.7033175}
    - {x: 3.937008, y: 0.68722504}
    - {x: 4.04712, y: 0.34164}
    - {x: 4.04712, y: 0.013555001}
    - {x: 3.937008, y: -0.3605975}
    - {x: 2.637023, y: -0.54308504}
    - {x: -0.0040273666, y: -0.6456225}
    roadShapeVecsString: 0, -0.65;-2.64, -0.54;-3.94, -0.36;-4.05, 0.01;-4.05, 0.34;-3.94,
      0.69;-3.79, 0.7;-3.65, 0.69;-3.5, 0.01;3.5, 0.01;3.65, 0.69;3.79, 0.7;3.94,
      0.69;4.05, 0.34;4.05, 0.01;3.94, -0.36;2.64, -0.54;0, -0.65;
    roadShapeMatchCount: 18
    roadShapeUVY:
    - 0
    - 0.1091
    - 0.187
    - 0.2039
    - 0.2215
    - 0.2382
    - 0.2448
    - 0.2505
    - 0.276
    - 0.7242
    - 0.7446
    - 0.7539
    - 0.761
    - 0.7799
    - 0.796
    - 0.8145
    - 0.8934
    - 1
    roadShapeUVY2: []
    hardEdge: 000000000000000001010000000000000000
    roadShapeMaterialInts: 000000000000000000000000000000000000000000000000000000000000000000000000000000000000000000000000000000000000000000000000000000000000000000000000
    sidewalkLeftVecs: []
    sidewalkLeftUVY: []
    sidewalkLeftMaterialInts: 
    sidewalkRightVecs: []
    sidewalkRightUVY: []
    sidewalkRightMaterialInts: 
    connectionVecs: []
    connectionVecInts: bc000000b5000000b4000000ba000000bb000000b6000000b7000000b8000000b9000000de000000dc000000da000000d9000000d7000000d5000000d4000000d3000000bc000000
    fullConnectionVecInts: ce000000c7000000c6000000cc000000cd000000c8000000c9000000ca000000cb000000130100001401000000010000fe000000fc000000fb000000f9000000f7000000f6000000f5000000f4000000
    sidewalkLeftConnectionVecInts: 
    sidewalkRightConnectionVecInts: 
    doConnectionTri: 010101010101010101010101010101010101
    outerVecInts: 
    rotationPriority: 0
    centerPointAngle: 1000
    connectedRoad: {fileID: 0}
    connectedMarker: -1
    connectedRoadGO: {fileID: 0}
    includeLeftSidewalk: 1
    includeRightSidewalk: 1
    roadMaterial: {fileID: 2100000, guid: a303be852f4e00a45834595c3ecc01ad, type: 2}
    roadMaterials:
    - {fileID: 2100000, guid: a303be852f4e00a45834595c3ecc01ad, type: 2}
    centerPointPercentage: 0.5
    leftIndent: -1
    rightIndent: -1
    leftSurrounding: -1
    rightSurrounding: -1
    leftIndentV3: {x: 0, y: 0, z: 0}
    leftSurroundingV3: {x: 0, y: 0, z: 0}
    rightIndentV3: {x: 0, y: 0, z: 0}
    rightSurroundingV3: {x: 0, y: 0, z: 0}
    leftCornerInt: -1
    rightCornerInt: -1
    leftIndentInt: 0
    rightIndentInt: 0
    leftInt: 4
    rightInt: 14
    leftIntFull: 4
    rightIntFull: 16
    alignmentHandleVec: {x: 0, y: 0, z: 0}
    additionalIndentDistance: 0
    connectionAngle: 0
    alignmentHandleVecRotationGizmo: {x: 0, y: 0, z: 0}
    roadType: 1447879021.327027
    roadTypeTimestamp: 0
  sidewalkControlElements: []
  meshVecs:
  - {x: -2.50337, y: -0.54308504, z: -7.369363}
  - {x: -1.7185601, y: -0.6428725, z: -4.303305}
  - {x: -2.8145125, y: -0.54308504, z: -4.43477}
  - {x: -1.39956, y: -0.6428725, z: -7.369363}
  - {x: -3.953355, y: -0.3605975, z: -7.3693123}
  - {x: -4.2542224, y: -0.3605975, z: -4.60747}
  - {x: -4.063465, y: 0.013555001, z: -7.3693123}
  - {x: -4.36355, y: 0.013555001, z: -4.6205826}
  - {x: -4.063465, y: 0.34164, z: -7.3693123}
  - {x: -4.36355, y: 0.34164, z: -4.6205826}
  - {x: -3.953355, y: 0.68722504, z: -7.3693123}
  - {x: -4.2542224, y: 0.68722504, z: -4.60747}
  - {x: -4.1132126, y: 0.7033175, z: -4.5905547}
  - {x: -3.811335, y: 0.7033175, z: -7.3693123}
  - {x: -3.9737477, y: 0.68722504, z: -4.5738254}
  - {x: -3.6708698, y: 0.68722504, z: -7.3693123}
  - {x: -3.8241124, y: 0.0100175, z: -4.5558753}
  - {x: -3.5201626, y: 0.0100175, z: -7.3693123}
  - {x: -3.345895, y: -0.54308504, z: -2.2340026}
  - {x: -4.7561073, y: -0.3605975, z: -2.57147}
  - {x: -4.3348126, y: 0.0100175, z: -2.4706526}
  - {x: -4.4813824, y: 0.68722504, z: -2.5057275}
  - {x: -4.61799, y: 0.7033175, z: -2.5384176}
  - {x: -4.7561073, y: 0.68722504, z: -2.57147}
  - {x: -4.8631973, y: 0.34164, z: -2.5970976}
  - {x: -4.8631973, y: 0.013555001, z: -2.5970976}
  - {x: -4.193355, y: -0.54308504, z: -0.13020751}
  - {x: -3.1536, y: -0.6428725, z: 0.240345}
  - {x: -2.2723925, y: -0.6428725, z: -1.9771127}
  - {x: -5.559238, y: -0.3605975, z: -0.616985}
  - {x: -5.1511827, y: 0.0100175, z: -0.47156247}
  - {x: -5.293145, y: 0.68722504, z: -0.522155}
  - {x: -5.4254603, y: 0.7033175, z: -0.56931}
  - {x: -5.559238, y: 0.68722504, z: -0.616985}
  - {x: -5.6629577, y: 0.013555001, z: -0.65395004}
  - {x: -5.6629577, y: 0.34164, z: -0.65395004}
  - {x: -4.1682124, y: -0.6428725, z: 2.4544475}
  - {x: -5.1792827, y: -0.54308504, z: 2.0115774}
  - {x: -6.507482, y: -0.3605975, z: 1.429795}
  - {x: -6.11069, y: 0.0100175, z: 1.6035999}
  - {x: -6.2487326, y: 0.68722504, z: 1.543135}
  - {x: -6.3773975, y: 0.7033175, z: 1.4867775}
  - {x: -6.507482, y: 0.68722504, z: 1.429795}
  - {x: -6.6083426, y: 0.013555001, z: 1.3856176}
  - {x: -6.6083426, y: 0.34164, z: 1.3856176}
  - {x: -5.235125, y: -0.6428725, z: 4.3591}
  - {x: -6.2287803, y: -0.54308504, z: 3.8784199}
  - {x: -7.534097, y: -0.3605975, z: 3.24697}
  - {x: -7.144138, y: 0.0100175, z: 3.4356153}
  - {x: -7.279805, y: 0.68722504, z: 3.3699849}
  - {x: -7.4062524, y: 0.7033175, z: 3.308815}
  - {x: -7.534097, y: 0.68722504, z: 3.24697}
  - {x: -7.63322, y: 0.013555001, z: 3.1990201}
  - {x: -7.63322, y: 0.34164, z: 3.1990201}
  - {x: -6.3413625, y: -0.6428725, z: 6.1646276}
  - {x: -7.3250527, y: -0.54308504, z: 5.6638775}
  - {x: -8.617286, y: -0.3605975, z: 5.00606}
  - {x: -8.231235, y: 0.0100175, z: 5.202583}
  - {x: -8.365542, y: 0.68722504, z: 5.1342125}
  - {x: -8.490721, y: 0.7033175, z: 5.0704875}
  - {x: -8.617286, y: 0.68722504, z: 5.00606}
  - {x: -8.715415, y: 0.013555001, z: 4.9561076}
  - {x: -8.715415, y: 0.34164, z: 4.9561076}
  - {x: -7.539863, y: -0.6456225, z: 8.07283}
  - {x: -8.465156, y: -0.54308504, z: 7.471213}
  - {x: -9.680816, y: -0.3605975, z: 6.680795}
  - {x: -9.31746, y: 0.0106925005, z: 6.9170504}
  - {x: -9.443991, y: 0.68722504, z: 6.834778}
  - {x: -9.561752, y: 0.7033175, z: 6.758208}
  - {x: -9.680816, y: 0.68722504, z: 6.680795}
  - {x: -9.77313, y: 0.013555001, z: 6.6207747}
  - {x: -9.77313, y: 0.34164, z: 6.6207747}
  - {x: -0.75561, y: -0.54308504, z: -4.187795}
  - {x: -0.4297075, y: -0.54308504, z: -7.369363}
  - {x: -1.2680125, y: -0.54308504, z: -1.7181549}
  - {x: -2.07942, y: -0.54308504, z: 0.566505}
  - {x: -0.86380255, y: -0.3605975, z: 1.0563949}
  - {x: 0.091725, y: -0.3605975, z: -1.411375}
  - {x: -1.941585, y: -0.3605975, z: 3.4297626}
  - {x: -3.2798474, y: -0.54308504, z: 2.843575}
  - {x: -3.0468576, y: -0.3605975, z: 5.417678}
  - {x: -4.3620653, y: -0.54308504, z: 4.781445}
  - {x: -2.947735, y: 0.013555001, z: 5.4656277}
  - {x: -1.840725, y: 0.013555001, z: 3.47394}
  - {x: -4.17503, y: -0.3605975, z: 7.2674026}
  - {x: -5.4770527, y: -0.54308504, z: 6.604605}
  - {x: -4.0769024, y: 0.013555001, z: 7.3173556}
  - {x: -5.5017877, y: -0.3605975, z: 9.397967}
  - {x: -6.7266603, y: -0.54308504, z: 8.601568}
  - {x: -5.409475, y: 0.013555001, z: 9.457993}
  - {x: -5.409475, y: 0.34164, z: 9.457993}
  - {x: -4.0769024, y: 0.34164, z: 7.3173556}
  - {x: -5.5017877, y: 0.68722504, z: 9.397967}
  - {x: -4.17503, y: 0.68722504, z: 7.2674026}
  - {x: -4.3058653, y: 0.7049275, z: 7.200803}
  - {x: -5.62487, y: 0.7049275, z: 9.3179455}
  - {x: -4.4265428, y: 0.6878975, z: 7.1393723}
  - {x: -5.738615, y: 0.68722504, z: 9.243991}
  - {x: -4.5610003, y: 0.010282501, z: 7.070925}
  - {x: -5.8651476, y: 0.0106925005, z: 9.161717}
  - {x: -3.1147726, y: 0.0101499995, z: -4.47152}
  - {x: -3.144865, y: 0.010282501, z: -7.369363}
  - {x: -3.12574, y: 0.0101499995, z: -2.167675}
  - {x: -3.1263502, y: 0.0101499995, z: 0.23796251}
  - {x: -3.1234052, y: 0.0101499995, z: 2.8638475}
  - {x: -3.1115377, y: 0.0101499995, z: 4.8785224}
  - {x: -3.4704225, y: 0.0098425, z: 4.8712025}
  - {x: -3.4727876, y: 0.0098425, z: 5.358783}
  - {x: 2.62072, y: -0.54269254, z: -9.795497}
  - {x: 3.9207075, y: -0.3605975, z: -7.3692627}
  - {x: 2.62072, y: -0.54308504, z: -7.3692627}
  - {x: 3.9207075, y: -0.360315, z: -9.801865}
  - {x: 4.0308204, y: 0.013555001, z: -7.3692627}
  - {x: 4.0308204, y: 0.013607501, z: -9.814925}
  - {x: 4.0308204, y: 0.34164, z: -7.3692627}
  - {x: 4.0308204, y: 0.3414925, z: -9.826373}
  - {x: 3.9207075, y: 0.68722504, z: -7.3692627}
  - {x: 3.9207075, y: 0.68686754, z: -9.838435}
  - {x: 3.7738976, y: 0.70456, z: -9.83905}
  - {x: 3.7738976, y: 0.7049275, z: -7.3692627}
  - {x: 3.6387403, y: 0.6882125, z: -9.838481}
  - {x: 3.6384828, y: 0.6878975, z: -7.3692627}
  - {x: 3.48791, y: 0.0099275, z: -9.8147955}
  - {x: 3.4876049, y: 0.010282501, z: -7.3692627}
  - {x: -0.011755, y: -0.63967, z: -9.7921095}
  - {x: -0.0120125, y: -0.6428725, z: -7.3692627}
  - {x: 3.9207075, y: 0.68722504, z: -4.920818}
  - {x: 3.7738976, y: 0.7049275, z: -4.920818}
  - {x: 3.6384828, y: 0.6878975, z: -4.920818}
  - {x: 3.4876049, y: 0.010282501, z: -4.920818}
  - {x: 3.9207075, y: 0.68722504, z: -2.4723725}
  - {x: 3.7738976, y: 0.7049275, z: -2.4723725}
  - {x: 3.6384828, y: 0.6878975, z: -2.4723725}
  - {x: 3.4876049, y: 0.010282501, z: -2.4723725}
  - {x: 4.0308204, y: 0.34164, z: -4.920818}
  - {x: 4.0308204, y: 0.013555001, z: -4.920818}
  - {x: 3.9207075, y: -0.3605975, z: -4.920818}
  - {x: 2.62072, y: -0.54308504, z: -4.920818}
  - {x: -0.0120125, y: -0.6428725, z: -4.920818}
  - {x: 3.9207075, y: -0.3605975, z: -2.4723725}
  - {x: 2.62072, y: -0.54308504, z: -2.4723725}
  - {x: 4.0308204, y: 0.013555001, z: -2.4723725}
  - {x: 4.0308204, y: 0.34164, z: -2.4723725}
  - {x: 0.03779, y: -0.6428725, z: -2.47419}
  - {x: 3.9207075, y: -0.3605975, z: -0.023665002}
  - {x: 2.62072, y: -0.54308504, z: -0.023665002}
  - {x: 4.0308204, y: 0.013555001, z: -0.023665002}
  - {x: 4.0308204, y: 0.34164, z: -0.023665002}
  - {x: 3.9207075, y: 0.68722504, z: -0.023665002}
  - {x: 3.7738976, y: 0.7049275, z: -0.023665002}
  - {x: 3.6384828, y: 0.6878975, z: -0.023665002}
  - {x: 3.4876049, y: 0.010282501, z: -0.023665002}
  - {x: -0.0120125, y: -0.6428725, z: -0.023665002}
  - {x: 3.9207075, y: -0.3605975, z: 2.4250426}
  - {x: 2.62072, y: -0.54308504, z: 2.4250426}
  - {x: 3.9207075, y: 0.68722504, z: 2.4250426}
  - {x: 3.7738976, y: 0.7049275, z: 2.4250426}
  - {x: 3.6384828, y: 0.6878975, z: 2.4250426}
  - {x: 3.4876049, y: 0.010282501, z: 2.4250426}
  - {x: 4.0308204, y: 0.34164, z: 2.4250426}
  - {x: 4.0308204, y: 0.013555001, z: 2.4250426}
  - {x: -0.0120125, y: -0.6428725, z: 2.4250426}
  - {x: 3.9207075, y: -0.3605975, z: 4.8734875}
  - {x: 2.62072, y: -0.54308504, z: 4.8734875}
  - {x: 3.9207075, y: 0.68722504, z: 4.8734875}
  - {x: 3.7738976, y: 0.7049275, z: 4.8734875}
  - {x: 3.6384828, y: 0.6878975, z: 4.8734875}
  - {x: 3.4876049, y: 0.010282501, z: 4.8734875}
  - {x: 4.0308204, y: 0.34164, z: 4.8734875}
  - {x: 4.0308204, y: 0.013555001, z: 4.8734875}
  - {x: -0.0120125, y: -0.6428725, z: 4.8734875}
  - {x: 3.9207075, y: -0.3605975, z: 7.321935}
  - {x: 2.62072, y: -0.54308504, z: 7.321935}
  - {x: 3.9207075, y: 0.68722504, z: 7.321935}
  - {x: 3.7738976, y: 0.7049275, z: 7.321935}
  - {x: 3.6384828, y: 0.6878975, z: 7.321935}
  - {x: 3.4876049, y: 0.010282501, z: 7.321935}
  - {x: 4.0308204, y: 0.013555001, z: 7.321935}
  - {x: 4.0308204, y: 0.34164, z: 7.321935}
  - {x: -0.0120125, y: -0.6428725, z: 7.321935}
  - {x: 3.9207075, y: -0.3605975, z: 9.77061}
  - {x: 2.62072, y: -0.54308504, z: 9.77061}
  - {x: 3.9207075, y: 0.68722504, z: 9.77061}
  - {x: 3.7738976, y: 0.7049275, z: 9.77061}
  - {x: 3.6382225, y: 0.68722504, z: 9.77061}
  - {x: 3.4872975, y: 0.0106925005, z: 9.77061}
  - {x: 4.0308204, y: 0.013555001, z: 9.77061}
  - {x: 4.0308204, y: 0.34164, z: 9.77061}
  - {x: -0.0122725, y: -0.6456225, z: 9.77061}
  - {x: -2.6533225, y: -0.54269254, z: -9.795497}
  - {x: -2.6533225, y: -0.54308504, z: -7.3692627}
  - {x: -3.9533074, y: -0.360315, z: -9.801865}
  - {x: -4.0634203, y: 0.013607501, z: -9.814925}
  - {x: -4.0634203, y: 0.3414925, z: -9.826373}
  - {x: -3.9533074, y: 0.68686754, z: -9.838435}
  - {x: -3.81129, y: 0.70295, z: -9.838996}
  - {x: -3.6708248, y: 0.68686754, z: -9.838435}
  - {x: -3.5203323, y: 0.0094, z: -9.814775}
  - {x: -2.6533225, y: -0.54308504, z: -4.920818}
  - {x: -3.9533074, y: -0.3605975, z: -4.920818}
  - {x: -2.6533225, y: -0.54308504, z: -2.4723725}
  - {x: -3.9533074, y: -0.3605975, z: -2.4723725}
  - {x: -2.6533225, y: -0.54308504, z: -0.023665002}
  - {x: -3.9533074, y: -0.3605975, z: -0.023665002}
  - {x: -2.6533225, y: -0.54308504, z: 2.4250426}
  - {x: -3.9533074, y: -0.3605975, z: 2.4250426}
  - {x: -2.6533225, y: -0.54308504, z: 4.8734875}
  - {x: -3.9533074, y: -0.3605975, z: 4.8734875}
  - {x: -2.6533225, y: -0.54308504, z: 7.321935}
  - {x: -3.9533074, y: -0.3605975, z: 7.321935}
  - {x: -4.0634203, y: 0.013555001, z: 7.321935}
  - {x: -2.6533225, y: -0.54308504, z: 9.77061}
  - {x: -3.9533074, y: -0.3605975, z: 9.77061}
  - {x: -4.0634203, y: 0.013555001, z: 9.77061}
  - {x: -4.0634203, y: 0.34164, z: 7.321935}
  - {x: -4.0634203, y: 0.34164, z: 9.77061}
  - {x: -3.9533074, y: 0.68722504, z: 7.321935}
  - {x: -3.9533074, y: 0.68722504, z: 9.77061}
  - {x: -3.81129, y: 0.7033175, z: 9.77061}
  - {x: -3.81129, y: 0.7033175, z: 7.321935}
  - {x: -3.6708248, y: 0.68722504, z: 9.77061}
  - {x: -3.6708248, y: 0.68722504, z: 7.321935}
  - {x: -3.5199, y: 0.0106925005, z: 9.77061}
  - {x: -3.5201175, y: 0.0100175, z: 7.321935}
  - {x: -4.453275, y: 0.8309925, z: 6.9628625}
  - {x: -4.3408575, y: 0.939135, z: 7.0043}
  - {x: -4.3101554, y: 0.926835, z: 6.9343753}
  - {x: -4.48877, y: 0.84229004, z: 7.031508}
  - {x: -4.2057476, y: 0.98239005, z: 7.0069222}
  - {x: -4.17955, y: 0.96966755, z: 6.9357905}
  - {x: -4.0764227, y: 0.99975747, z: 7.031193}
  - {x: -4.0547276, y: 0.990695, z: 6.9584427}
  - {x: -3.94966, y: 0.99975747, z: 7.0650597}
  - {x: -3.9326274, y: 0.99069995, z: 6.9914804}
  - {x: -3.8254602, y: 0.98243755, z: 7.1085176}
  - {x: -3.8129826, y: 0.9735525, z: 7.033723}
  - {x: -3.707045, y: 0.939135, z: 7.1736274}
  - {x: -3.699125, y: 0.93079007, z: 7.0976152}
  - {x: -3.594875, y: 0.8437775, z: 7.270318}
  - {x: -3.5913475, y: 0.836075, z: 7.193133}
  - {x: -4.3102503, y: 0.0179225, z: 6.934733}
  - {x: -4.1795173, y: 0.0179225, z: 6.93547}
  - {x: -4.0548325, y: 0.021695001, z: 6.9588327}
  - {x: -3.9326274, y: 0.021695001, z: 6.9914804}
  - {x: -3.8129025, y: 0.021695001, z: 7.033423}
  - {x: -3.6992226, y: 0.022512501, z: 7.097983}
  - {x: -3.5158277, y: 0.7067725, z: 7.262095}
  - {x: -3.5160978, y: 0.712765, z: 7.3401527}
  - {x: -3.4919527, y: 0.5985825, z: 7.30234}
  - {x: -3.49077, y: 0.60340255, z: 7.3807855}
  - {x: -3.4921901, y: 0.5000625, z: 7.3022776}
  - {x: -3.49077, y: 0.503815, z: 7.3807855}
  - {x: -3.4919498, y: 0.023330001, z: 7.3023424}
  - {x: -3.48917, y: 0.02191, z: 7.374798}
  - {x: -3.5897877, y: 0.01732, z: 7.192615}
  - {x: -3.5135849, y: 0.01732, z: 7.2624927}
  - {x: -4.63003, y: 0.02191, z: 7.0700073}
  - {x: -4.5918326, y: 0.4962925, z: 7.0085}
  - {x: -4.5964627, y: 0.0195575, z: 7.02603}
  - {x: -4.6316576, y: 0.503815, z: 7.07599}
  - {x: -4.5752254, y: 0.0135475, z: 7.000057}
  - {x: -4.5741076, y: 0.5948125, z: 6.9997673}
  - {x: -4.544035, y: 0.70212, z: 6.9874024}
  - {x: -4.6134, y: 0.60340255, z: 7.0674005}
  - {x: -4.582395, y: 0.711875, z: 7.055285}
  - {x: -4.543675, y: 0.0135475, z: 6.988093}
  - {x: -4.45364, y: 0.0135475, z: 6.962533}
  - {x: -4.0548325, y: 0.023330001, z: 6.9588327}
  - {x: -3.9326274, y: 0.023330001, z: 6.9914804}
  - {x: -3.5011075, y: 0.503815, z: 7.377867}
  - {x: -3.5011475, y: 0.02191, z: 7.378013}
  - {x: -3.5025299, y: 0.6009025, z: 7.377643}
  - {x: -3.5244148, y: 0.7103, z: 7.33793}
  - {x: -3.60149, y: 0.84010756, z: 7.2685523}
  - {x: -3.7071998, y: 0.92975503, z: 7.1738877}
  - {x: -3.8323877, y: 0.9725775, z: 7.1061525}
  - {x: -3.9521325, y: 0.988835, z: 7.0643973}
  - {x: -4.075298, y: 0.98934746, z: 7.031495}
  - {x: -4.205625, y: 0.96743745, z: 7.006463}
  - {x: -4.34075, y: 0.924135, z: 7.003895}
  - {x: -4.477735, y: 0.8338375, z: 7.0344553}
  - {x: -4.5711703, y: 0.705785, z: 7.0582824}
  - {x: -4.6003103, y: 0.5993725, z: 7.0682273}
  - {x: -4.6134653, y: 0.503815, z: 7.072623}
  - {x: -4.6154723, y: 0.02191, z: 7.066845}
  - {x: -4.07406, y: 0.01732, z: 7.031195}
  - {x: -3.9510624, y: 0.01732, z: 7.0651155}
  - {x: -3.8262298, y: 0.01732, z: 7.1079726}
  - {x: -3.7089698, y: 0.01732, z: 7.17522}
  - {x: -3.6010575, y: 0.01732, z: 7.2695503}
  - {x: -3.52443, y: 0.01732, z: 7.338615}
  - {x: -4.2043576, y: 0.01732, z: 7.004838}
  - {x: -4.339795, y: 0.01732, z: 7.00563}
  - {x: -4.4799128, y: 0.01732, z: 7.03581}
  - {x: -4.5728874, y: 0.01732, z: 7.0595675}
  fullMeshVecs:
  - {x: -2.50337, y: -0.54308504, z: -7.369363}
  - {x: -1.7185601, y: -0.6428725, z: -4.303305}
  - {x: -2.8145125, y: -0.54308504, z: -4.43477}
  - {x: -1.39956, y: -0.6428725, z: -7.369363}
  - {x: -3.953355, y: -0.3605975, z: -7.3693123}
  - {x: -4.2542224, y: -0.3605975, z: -4.60747}
  - {x: -4.063465, y: 0.013555001, z: -7.3693123}
  - {x: -4.36355, y: 0.013555001, z: -4.6205826}
  - {x: -4.063465, y: 0.34164, z: -7.3693123}
  - {x: -4.36355, y: 0.34164, z: -4.6205826}
  - {x: -3.953355, y: 0.68722504, z: -7.3693123}
  - {x: -4.2542224, y: 0.68722504, z: -4.60747}
  - {x: -4.1132126, y: 0.7033175, z: -4.5905547}
  - {x: -3.811335, y: 0.7033175, z: -7.3693123}
  - {x: -3.9737477, y: 0.68722504, z: -4.5738254}
  - {x: -3.6708698, y: 0.68722504, z: -7.3693123}
  - {x: -3.8241124, y: 0.0100175, z: -4.5558753}
  - {x: -3.5201626, y: 0.0100175, z: -7.3693123}
  - {x: -3.345895, y: -0.54308504, z: -2.2340026}
  - {x: -4.7561073, y: -0.3605975, z: -2.57147}
  - {x: -4.3348126, y: 0.0100175, z: -2.4706526}
  - {x: -4.4813824, y: 0.68722504, z: -2.5057275}
  - {x: -4.61799, y: 0.7033175, z: -2.5384176}
  - {x: -4.7561073, y: 0.68722504, z: -2.57147}
  - {x: -4.8631973, y: 0.34164, z: -2.5970976}
  - {x: -4.8631973, y: 0.013555001, z: -2.5970976}
  - {x: -4.193355, y: -0.54308504, z: -0.13020751}
  - {x: -3.1536, y: -0.6428725, z: 0.240345}
  - {x: -2.2723925, y: -0.6428725, z: -1.9771127}
  - {x: -5.559238, y: -0.3605975, z: -0.616985}
  - {x: -5.1511827, y: 0.0100175, z: -0.47156247}
  - {x: -5.293145, y: 0.68722504, z: -0.522155}
  - {x: -5.4254603, y: 0.7033175, z: -0.56931}
  - {x: -5.559238, y: 0.68722504, z: -0.616985}
  - {x: -5.6629577, y: 0.013555001, z: -0.65395004}
  - {x: -5.6629577, y: 0.34164, z: -0.65395004}
  - {x: -4.1682124, y: -0.6428725, z: 2.4544475}
  - {x: -5.1792827, y: -0.54308504, z: 2.0115774}
  - {x: -6.507482, y: -0.3605975, z: 1.429795}
  - {x: -6.11069, y: 0.0100175, z: 1.6035999}
  - {x: -6.2487326, y: 0.68722504, z: 1.543135}
  - {x: -6.3773975, y: 0.7033175, z: 1.4867775}
  - {x: -6.507482, y: 0.68722504, z: 1.429795}
  - {x: -6.6083426, y: 0.013555001, z: 1.3856176}
  - {x: -6.6083426, y: 0.34164, z: 1.3856176}
  - {x: -5.235125, y: -0.6428725, z: 4.3591}
  - {x: -6.2287803, y: -0.54308504, z: 3.8784199}
  - {x: -7.534097, y: -0.3605975, z: 3.24697}
  - {x: -7.144138, y: 0.0100175, z: 3.4356153}
  - {x: -7.279805, y: 0.68722504, z: 3.3699849}
  - {x: -7.4062524, y: 0.7033175, z: 3.308815}
  - {x: -7.534097, y: 0.68722504, z: 3.24697}
  - {x: -7.63322, y: 0.013555001, z: 3.1990201}
  - {x: -7.63322, y: 0.34164, z: 3.1990201}
  - {x: -6.3413625, y: -0.6428725, z: 6.1646276}
  - {x: -7.3250527, y: -0.54308504, z: 5.6638775}
  - {x: -8.617286, y: -0.3605975, z: 5.00606}
  - {x: -8.231235, y: 0.0100175, z: 5.202583}
  - {x: -8.365542, y: 0.68722504, z: 5.1342125}
  - {x: -8.490721, y: 0.7033175, z: 5.0704875}
  - {x: -8.617286, y: 0.68722504, z: 5.00606}
  - {x: -8.715415, y: 0.013555001, z: 4.9561076}
  - {x: -8.715415, y: 0.34164, z: 4.9561076}
  - {x: -7.539863, y: -0.6456225, z: 8.07283}
  - {x: -8.465156, y: -0.54308504, z: 7.471213}
  - {x: -9.680816, y: -0.3605975, z: 6.680795}
  - {x: -9.31746, y: 0.0106925005, z: 6.9170504}
  - {x: -9.443991, y: 0.68722504, z: 6.834778}
  - {x: -9.561752, y: 0.7033175, z: 6.758208}
  - {x: -9.680816, y: 0.68722504, z: 6.680795}
  - {x: -9.77313, y: 0.013555001, z: 6.6207747}
  - {x: -9.77313, y: 0.34164, z: 6.6207747}
  - {x: -1.39956, y: -0.6428725, z: -7.369363}
  - {x: -0.75561, y: -0.54308504, z: -4.187795}
  - {x: -1.7185601, y: -0.6428725, z: -4.303305}
  - {x: -0.4297075, y: -0.54308504, z: -7.369363}
  - {x: -1.2680125, y: -0.54308504, z: -1.7181549}
  - {x: -2.2723925, y: -0.6428725, z: -1.9771127}
  - {x: -2.07942, y: -0.54308504, z: 0.566505}
  - {x: -0.86380255, y: -0.3605975, z: 1.0563949}
  - {x: 0.091725, y: -0.3605975, z: -1.411375}
  - {x: -3.1536, y: -0.6428725, z: 0.240345}
  - {x: -1.941585, y: -0.3605975, z: 3.4297626}
  - {x: -3.2798474, y: -0.54308504, z: 2.843575}
  - {x: -4.1682124, y: -0.6428725, z: 2.4544475}
  - {x: -3.0468576, y: -0.3605975, z: 5.417678}
  - {x: -4.3620653, y: -0.54308504, z: 4.781445}
  - {x: -2.947735, y: 0.013555001, z: 5.4656277}
  - {x: -1.840725, y: 0.013555001, z: 3.47394}
  - {x: -5.235125, y: -0.6428725, z: 4.3591}
  - {x: -4.17503, y: -0.3605975, z: 7.2674026}
  - {x: -5.4770527, y: -0.54308504, z: 6.604605}
  - {x: -4.0769024, y: 0.013555001, z: 7.3173556}
  - {x: -6.3413625, y: -0.6428725, z: 6.1646276}
  - {x: -5.5017877, y: -0.3605975, z: 9.397967}
  - {x: -6.7266603, y: -0.54308504, z: 8.601568}
  - {x: -5.409475, y: 0.013555001, z: 9.457993}
  - {x: -5.409475, y: 0.34164, z: 9.457993}
  - {x: -4.0769024, y: 0.34164, z: 7.3173556}
  - {x: -5.5017877, y: 0.68722504, z: 9.397967}
  - {x: -4.17503, y: 0.68722504, z: 7.2674026}
  - {x: -4.3058653, y: 0.7049275, z: 7.200803}
  - {x: -5.62487, y: 0.7049275, z: 9.3179455}
  - {x: -4.4265428, y: 0.6878975, z: 7.1393723}
  - {x: -5.738615, y: 0.68722504, z: 9.243991}
  - {x: -4.5610003, y: 0.010282501, z: 7.070925}
  - {x: -5.8651476, y: 0.0106925005, z: 9.161717}
  - {x: -7.539863, y: -0.6456225, z: 8.07283}
  - {x: -3.1147726, y: 0.0101499995, z: -4.47152}
  - {x: -3.5201626, y: 0.0100175, z: -7.3693123}
  - {x: -3.8241124, y: 0.0100175, z: -4.5558753}
  - {x: -3.144865, y: 0.010282501, z: -7.369363}
  - {x: -3.12574, y: 0.0101499995, z: -2.167675}
  - {x: -4.3348126, y: 0.0100175, z: -2.4706526}
  - {x: -3.1263502, y: 0.0101499995, z: 0.23796251}
  - {x: -5.1511827, y: 0.0100175, z: -0.47156247}
  - {x: -3.1234052, y: 0.0101499995, z: 2.8638475}
  - {x: -6.11069, y: 0.0100175, z: 1.6035999}
  - {x: -3.1115377, y: 0.0101499995, z: 4.8785224}
  - {x: -7.144138, y: 0.0100175, z: 3.4356153}
  - {x: -3.4704225, y: 0.0098425, z: 4.8712025}
  - {x: -3.4727876, y: 0.0098425, z: 5.358783}
  - {x: -4.5610003, y: 0.010282501, z: 7.070925}
  - {x: -8.231235, y: 0.0100175, z: 5.202583}
  - {x: -5.8651476, y: 0.0106925005, z: 9.161717}
  - {x: -9.31746, y: 0.0106925005, z: 6.9170504}
  - {x: 2.62072, y: -0.54269254, z: -9.795497}
  - {x: 3.9207075, y: -0.3605975, z: -7.3692627}
  - {x: 2.62072, y: -0.54308504, z: -7.3692627}
  - {x: 3.9207075, y: -0.360315, z: -9.801865}
  - {x: 4.0308204, y: 0.013555001, z: -7.3692627}
  - {x: 4.0308204, y: 0.013607501, z: -9.814925}
  - {x: 4.0308204, y: 0.34164, z: -7.3692627}
  - {x: 4.0308204, y: 0.3414925, z: -9.826373}
  - {x: 3.9207075, y: 0.68722504, z: -7.3692627}
  - {x: 3.9207075, y: 0.68686754, z: -9.838435}
  - {x: 3.7738976, y: 0.70456, z: -9.83905}
  - {x: 3.7738976, y: 0.7049275, z: -7.3692627}
  - {x: 3.6387403, y: 0.6882125, z: -9.838481}
  - {x: 3.6384828, y: 0.6878975, z: -7.3692627}
  - {x: 3.48791, y: 0.0099275, z: -9.8147955}
  - {x: 3.4876049, y: 0.010282501, z: -7.3692627}
  - {x: -0.011755, y: -0.63967, z: -9.7921095}
  - {x: -0.0120125, y: -0.6428725, z: -7.3692627}
  - {x: 3.9207075, y: 0.68722504, z: -4.920818}
  - {x: 3.7738976, y: 0.7049275, z: -4.920818}
  - {x: 3.6384828, y: 0.6878975, z: -4.920818}
  - {x: 3.4876049, y: 0.010282501, z: -4.920818}
  - {x: 3.9207075, y: 0.68722504, z: -2.4723725}
  - {x: 3.7738976, y: 0.7049275, z: -2.4723725}
  - {x: 3.6384828, y: 0.6878975, z: -2.4723725}
  - {x: 3.4876049, y: 0.010282501, z: -2.4723725}
  - {x: 4.0308204, y: 0.34164, z: -4.920818}
  - {x: 4.0308204, y: 0.013555001, z: -4.920818}
  - {x: 3.9207075, y: -0.3605975, z: -4.920818}
  - {x: 2.62072, y: -0.54308504, z: -4.920818}
  - {x: -0.0120125, y: -0.6428725, z: -4.920818}
  - {x: 3.9207075, y: -0.3605975, z: -2.4723725}
  - {x: 2.62072, y: -0.54308504, z: -2.4723725}
  - {x: 4.0308204, y: 0.013555001, z: -2.4723725}
  - {x: 4.0308204, y: 0.34164, z: -2.4723725}
  - {x: 0.03779, y: -0.6428725, z: -2.47419}
  - {x: 3.9207075, y: -0.3605975, z: -0.023665002}
  - {x: 2.62072, y: -0.54308504, z: -0.023665002}
  - {x: 4.0308204, y: 0.013555001, z: -0.023665002}
  - {x: 4.0308204, y: 0.34164, z: -0.023665002}
  - {x: 3.9207075, y: 0.68722504, z: -0.023665002}
  - {x: 3.7738976, y: 0.7049275, z: -0.023665002}
  - {x: 3.6384828, y: 0.6878975, z: -0.023665002}
  - {x: 3.4876049, y: 0.010282501, z: -0.023665002}
  - {x: -0.0120125, y: -0.6428725, z: -0.023665002}
  - {x: 3.9207075, y: -0.3605975, z: 2.4250426}
  - {x: 2.62072, y: -0.54308504, z: 2.4250426}
  - {x: 3.9207075, y: 0.68722504, z: 2.4250426}
  - {x: 3.7738976, y: 0.7049275, z: 2.4250426}
  - {x: 3.6384828, y: 0.6878975, z: 2.4250426}
  - {x: 3.4876049, y: 0.010282501, z: 2.4250426}
  - {x: 4.0308204, y: 0.34164, z: 2.4250426}
  - {x: 4.0308204, y: 0.013555001, z: 2.4250426}
  - {x: -0.0120125, y: -0.6428725, z: 2.4250426}
  - {x: 3.9207075, y: -0.3605975, z: 4.8734875}
  - {x: 2.62072, y: -0.54308504, z: 4.8734875}
  - {x: 3.9207075, y: 0.68722504, z: 4.8734875}
  - {x: 3.7738976, y: 0.7049275, z: 4.8734875}
  - {x: 3.6384828, y: 0.6878975, z: 4.8734875}
  - {x: 3.4876049, y: 0.010282501, z: 4.8734875}
  - {x: 4.0308204, y: 0.34164, z: 4.8734875}
  - {x: 4.0308204, y: 0.013555001, z: 4.8734875}
  - {x: -0.0120125, y: -0.6428725, z: 4.8734875}
  - {x: 3.9207075, y: -0.3605975, z: 7.321935}
  - {x: 2.62072, y: -0.54308504, z: 7.321935}
  - {x: 3.9207075, y: 0.68722504, z: 7.321935}
  - {x: 3.7738976, y: 0.7049275, z: 7.321935}
  - {x: 3.6384828, y: 0.6878975, z: 7.321935}
  - {x: 3.4876049, y: 0.010282501, z: 7.321935}
  - {x: 4.0308204, y: 0.013555001, z: 7.321935}
  - {x: 4.0308204, y: 0.34164, z: 7.321935}
  - {x: -0.0120125, y: -0.6428725, z: 7.321935}
  - {x: 3.9207075, y: -0.3605975, z: 9.77061}
  - {x: 2.62072, y: -0.54308504, z: 9.77061}
  - {x: 3.9207075, y: 0.68722504, z: 9.77061}
  - {x: 3.7738976, y: 0.7049275, z: 9.77061}
  - {x: 3.6382225, y: 0.68722504, z: 9.77061}
  - {x: 3.4872975, y: 0.0106925005, z: 9.77061}
  - {x: 4.0308204, y: 0.013555001, z: 9.77061}
  - {x: 4.0308204, y: 0.34164, z: 9.77061}
  - {x: -0.0122725, y: -0.6456225, z: 9.77061}
  - {x: -2.6533225, y: -0.54269254, z: -9.795497}
  - {x: -0.0120125, y: -0.6428725, z: -7.3692627}
  - {x: -2.6533225, y: -0.54308504, z: -7.3692627}
  - {x: -0.011755, y: -0.63967, z: -9.7921095}
  - {x: -3.9533074, y: -0.360315, z: -9.801865}
  - {x: -3.953355, y: -0.3605975, z: -7.3693123}
  - {x: -4.0634203, y: 0.013607501, z: -9.814925}
  - {x: -4.063465, y: 0.013555001, z: -7.3693123}
  - {x: -4.0634203, y: 0.3414925, z: -9.826373}
  - {x: -4.063465, y: 0.34164, z: -7.3693123}
  - {x: -3.9533074, y: 0.68686754, z: -9.838435}
  - {x: -3.953355, y: 0.68722504, z: -7.3693123}
  - {x: -3.811335, y: 0.7033175, z: -7.3693123}
  - {x: -3.81129, y: 0.70295, z: -9.838996}
  - {x: -3.6708698, y: 0.68722504, z: -7.3693123}
  - {x: -3.6708248, y: 0.68686754, z: -9.838435}
  - {x: -3.5201626, y: 0.0100175, z: -7.3693123}
  - {x: -3.5203323, y: 0.0094, z: -9.814775}
  - {x: -2.6533225, y: -0.54308504, z: -4.920818}
  - {x: -3.9533074, y: -0.3605975, z: -4.920818}
  - {x: -2.6533225, y: -0.54308504, z: -2.4723725}
  - {x: 0.03779, y: -0.6428725, z: -2.47419}
  - {x: -0.0120125, y: -0.6428725, z: -4.920818}
  - {x: -3.9533074, y: -0.3605975, z: -2.4723725}
  - {x: -0.0120125, y: -0.6428725, z: -0.023665002}
  - {x: -2.6533225, y: -0.54308504, z: -0.023665002}
  - {x: -3.9533074, y: -0.3605975, z: -0.023665002}
  - {x: -0.0120125, y: -0.6428725, z: 2.4250426}
  - {x: -2.6533225, y: -0.54308504, z: 2.4250426}
  - {x: -3.9533074, y: -0.3605975, z: 2.4250426}
  - {x: -0.0120125, y: -0.6428725, z: 4.8734875}
  - {x: -2.6533225, y: -0.54308504, z: 4.8734875}
  - {x: -3.9533074, y: -0.3605975, z: 4.8734875}
  - {x: -0.0120125, y: -0.6428725, z: 7.321935}
  - {x: -2.6533225, y: -0.54308504, z: 7.321935}
  - {x: -3.9533074, y: -0.3605975, z: 7.321935}
  - {x: -4.0634203, y: 0.013555001, z: 7.321935}
  - {x: -0.0122725, y: -0.6456225, z: 9.77061}
  - {x: -2.6533225, y: -0.54308504, z: 9.77061}
  - {x: -3.9533074, y: -0.3605975, z: 9.77061}
  - {x: -4.0634203, y: 0.013555001, z: 9.77061}
  - {x: -4.0634203, y: 0.34164, z: 7.321935}
  - {x: -4.0634203, y: 0.34164, z: 9.77061}
  - {x: -3.9533074, y: 0.68722504, z: 7.321935}
  - {x: -3.9533074, y: 0.68722504, z: 9.77061}
  - {x: -3.81129, y: 0.7033175, z: 9.77061}
  - {x: -3.81129, y: 0.7033175, z: 7.321935}
  - {x: -3.6708248, y: 0.68722504, z: 9.77061}
  - {x: -3.6708248, y: 0.68722504, z: 7.321935}
  - {x: -3.5199, y: 0.0106925005, z: 9.77061}
  - {x: -3.5201175, y: 0.0100175, z: 7.321935}
  - {x: -3.5203323, y: 0.0094, z: -9.814775}
  - {x: -3.5201626, y: 0.0100175, z: -7.3693123}
  - {x: 3.48791, y: 0.0099275, z: -9.8147955}
  - {x: -3.144865, y: 0.010282501, z: -7.369363}
  - {x: 3.4876049, y: 0.010282501, z: -7.3692627}
  - {x: -3.1147726, y: 0.0101499995, z: -4.47152}
  - {x: 3.4876049, y: 0.010282501, z: -4.920818}
  - {x: 3.4876049, y: 0.010282501, z: -2.4723725}
  - {x: -3.12574, y: 0.0101499995, z: -2.167675}
  - {x: 3.4876049, y: 0.010282501, z: -0.023665002}
  - {x: -3.1263502, y: 0.0101499995, z: 0.23796251}
  - {x: 3.4876049, y: 0.010282501, z: 2.4250426}
  - {x: -3.1234052, y: 0.0101499995, z: 2.8638475}
  - {x: 3.4876049, y: 0.010282501, z: 4.8734875}
  - {x: -3.1115377, y: 0.0101499995, z: 4.8785224}
  - {x: 3.4876049, y: 0.010282501, z: 7.321935}
  - {x: -3.5201175, y: 0.0100175, z: 7.321935}
  - {x: 3.4872975, y: 0.0106925005, z: 9.77061}
  - {x: -3.5199, y: 0.0106925005, z: 9.77061}
  - {x: -3.4727876, y: 0.0098425, z: 5.358783}
  - {x: -3.4704225, y: 0.0098425, z: 4.8712025}
  - {x: -4.5610003, y: 0.010282501, z: 7.070925}
  - {x: -3.5201175, y: 0.0100175, z: 7.321935}
  - {x: -3.4727876, y: 0.0098425, z: 5.358783}
  - {x: -4.453275, y: 0.8309925, z: 6.9628625}
  - {x: -4.3408575, y: 0.939135, z: 7.0043}
  - {x: -4.3101554, y: 0.926835, z: 6.9343753}
  - {x: -4.48877, y: 0.84229004, z: 7.031508}
  - {x: -4.2057476, y: 0.98239005, z: 7.0069222}
  - {x: -4.17955, y: 0.96966755, z: 6.9357905}
  - {x: -4.0764227, y: 0.99975747, z: 7.031193}
  - {x: -4.0547276, y: 0.990695, z: 6.9584427}
  - {x: -3.94966, y: 0.99975747, z: 7.0650597}
  - {x: -3.9326274, y: 0.99069995, z: 6.9914804}
  - {x: -3.8254602, y: 0.98243755, z: 7.1085176}
  - {x: -3.8129826, y: 0.9735525, z: 7.033723}
  - {x: -3.707045, y: 0.939135, z: 7.1736274}
  - {x: -3.699125, y: 0.93079007, z: 7.0976152}
  - {x: -3.594875, y: 0.8437775, z: 7.270318}
  - {x: -3.5913475, y: 0.836075, z: 7.193133}
  - {x: -4.3102503, y: 0.0179225, z: 6.934733}
  - {x: -4.1795173, y: 0.0179225, z: 6.93547}
  - {x: -4.0548325, y: 0.021695001, z: 6.9588327}
  - {x: -3.9326274, y: 0.021695001, z: 6.9914804}
  - {x: -3.8129025, y: 0.021695001, z: 7.033423}
  - {x: -3.6992226, y: 0.022512501, z: 7.097983}
  - {x: -3.5158277, y: 0.7067725, z: 7.262095}
  - {x: -3.5160978, y: 0.712765, z: 7.3401527}
  - {x: -3.4919527, y: 0.5985825, z: 7.30234}
  - {x: -3.49077, y: 0.60340255, z: 7.3807855}
  - {x: -3.4921901, y: 0.5000625, z: 7.3022776}
  - {x: -3.49077, y: 0.503815, z: 7.3807855}
  - {x: -3.4919498, y: 0.023330001, z: 7.3023424}
  - {x: -3.48917, y: 0.02191, z: 7.374798}
  - {x: -3.5897877, y: 0.01732, z: 7.192615}
  - {x: -3.5135849, y: 0.01732, z: 7.2624927}
  - {x: -4.63003, y: 0.02191, z: 7.0700073}
  - {x: -4.5918326, y: 0.4962925, z: 7.0085}
  - {x: -4.5964627, y: 0.0195575, z: 7.02603}
  - {x: -4.6316576, y: 0.503815, z: 7.07599}
  - {x: -4.5752254, y: 0.0135475, z: 7.000057}
  - {x: -4.5741076, y: 0.5948125, z: 6.9997673}
  - {x: -4.544035, y: 0.70212, z: 6.9874024}
  - {x: -4.6134, y: 0.60340255, z: 7.0674005}
  - {x: -4.582395, y: 0.711875, z: 7.055285}
  - {x: -4.543675, y: 0.0135475, z: 6.988093}
  - {x: -4.45364, y: 0.0135475, z: 6.962533}
  - {x: -4.0548325, y: 0.023330001, z: 6.9588327}
  - {x: -3.9326274, y: 0.021695001, z: 6.9914804}
  - {x: -3.9326274, y: 0.023330001, z: 6.9914804}
  - {x: -4.0548325, y: 0.021695001, z: 6.9588327}
  - {x: -3.8129025, y: 0.021695001, z: 7.033423}
  - {x: -3.48917, y: 0.02191, z: 7.374798}
  - {x: -3.5011075, y: 0.503815, z: 7.377867}
  - {x: -3.5011475, y: 0.02191, z: 7.378013}
  - {x: -3.49077, y: 0.503815, z: 7.3807855}
  - {x: -3.5025299, y: 0.6009025, z: 7.377643}
  - {x: -3.49077, y: 0.60340255, z: 7.3807855}
  - {x: -3.5244148, y: 0.7103, z: 7.33793}
  - {x: -3.5160978, y: 0.712765, z: 7.3401527}
  - {x: -3.594875, y: 0.8437775, z: 7.270318}
  - {x: -3.60149, y: 0.84010756, z: 7.2685523}
  - {x: -3.707045, y: 0.939135, z: 7.1736274}
  - {x: -3.7071998, y: 0.92975503, z: 7.1738877}
  - {x: -3.8254602, y: 0.98243755, z: 7.1085176}
  - {x: -3.8323877, y: 0.9725775, z: 7.1061525}
  - {x: -3.94966, y: 0.99975747, z: 7.0650597}
  - {x: -3.9521325, y: 0.988835, z: 7.0643973}
  - {x: -4.0764227, y: 0.99975747, z: 7.031193}
  - {x: -4.075298, y: 0.98934746, z: 7.031495}
  - {x: -4.2057476, y: 0.98239005, z: 7.0069222}
  - {x: -4.205625, y: 0.96743745, z: 7.006463}
  - {x: -4.3408575, y: 0.939135, z: 7.0043}
  - {x: -4.34075, y: 0.924135, z: 7.003895}
  - {x: -4.48877, y: 0.84229004, z: 7.031508}
  - {x: -4.477735, y: 0.8338375, z: 7.0344553}
  - {x: -4.5711703, y: 0.705785, z: 7.0582824}
  - {x: -4.582395, y: 0.711875, z: 7.055285}
  - {x: -4.6003103, y: 0.5993725, z: 7.0682273}
  - {x: -4.6134, y: 0.60340255, z: 7.0674005}
  - {x: -4.6134653, y: 0.503815, z: 7.072623}
  - {x: -4.6316576, y: 0.503815, z: 7.07599}
  - {x: -4.6154723, y: 0.02191, z: 7.066845}
  - {x: -4.63003, y: 0.02191, z: 7.0700073}
  - {x: -4.07406, y: 0.01732, z: 7.031195}
  - {x: -3.9510624, y: 0.01732, z: 7.0651155}
  - {x: -3.8262298, y: 0.01732, z: 7.1079726}
  - {x: -3.7089698, y: 0.01732, z: 7.17522}
  - {x: -3.6010575, y: 0.01732, z: 7.2695503}
  - {x: -3.52443, y: 0.01732, z: 7.338615}
  - {x: -4.2043576, y: 0.01732, z: 7.004838}
  - {x: -4.339795, y: 0.01732, z: 7.00563}
  - {x: -4.4799128, y: 0.01732, z: 7.03581}
  - {x: -4.5728874, y: 0.01732, z: 7.0595675}
  tmpMeshVecs:
  - {x: -2.50337, y: -0.54308504, z: -7.369363}
  - {x: -1.7185601, y: -0.6428725, z: -4.303305}
  - {x: -2.8145125, y: -0.54308504, z: -4.43477}
  - {x: -1.39956, y: -0.6428725, z: -7.369363}
  - {x: -3.953355, y: -0.3605975, z: -7.3693123}
  - {x: -4.2542224, y: -0.3605975, z: -4.60747}
  - {x: -4.063465, y: 0.013555001, z: -7.3693123}
  - {x: -4.36355, y: 0.013555001, z: -4.6205826}
  - {x: -4.063465, y: 0.34164, z: -7.3693123}
  - {x: -4.36355, y: 0.34164, z: -4.6205826}
  - {x: -3.953355, y: 0.68722504, z: -7.3693123}
  - {x: -4.2542224, y: 0.68722504, z: -4.60747}
  - {x: -4.1132126, y: 0.7033175, z: -4.5905547}
  - {x: -3.811335, y: 0.7033175, z: -7.3693123}
  - {x: -3.9737477, y: 0.68722504, z: -4.5738254}
  - {x: -3.6708698, y: 0.68722504, z: -7.3693123}
  - {x: -3.8241124, y: 0.0100175, z: -4.5558753}
  - {x: -3.5201626, y: 0.0100175, z: -7.3693123}
  - {x: -3.345895, y: -0.54308504, z: -2.2340026}
  - {x: -4.7561073, y: -0.3605975, z: -2.57147}
  - {x: -4.3348126, y: 0.0100175, z: -2.4706526}
  - {x: -4.4813824, y: 0.68722504, z: -2.5057275}
  - {x: -4.61799, y: 0.7033175, z: -2.5384176}
  - {x: -4.7561073, y: 0.68722504, z: -2.57147}
  - {x: -4.8631973, y: 0.34164, z: -2.5970976}
  - {x: -4.8631973, y: 0.013555001, z: -2.5970976}
  - {x: -4.193355, y: -0.54308504, z: -0.13020751}
  - {x: -3.1536, y: -0.6428725, z: 0.240345}
  - {x: -2.2723925, y: -0.6428725, z: -1.9771127}
  - {x: -5.559238, y: -0.3605975, z: -0.616985}
  - {x: -5.1511827, y: 0.0100175, z: -0.47156247}
  - {x: -5.293145, y: 0.68722504, z: -0.522155}
  - {x: -5.4254603, y: 0.7033175, z: -0.56931}
  - {x: -5.559238, y: 0.68722504, z: -0.616985}
  - {x: -5.6629577, y: 0.013555001, z: -0.65395004}
  - {x: -5.6629577, y: 0.34164, z: -0.65395004}
  - {x: -4.1682124, y: -0.6428725, z: 2.4544475}
  - {x: -5.1792827, y: -0.54308504, z: 2.0115774}
  - {x: -6.507482, y: -0.3605975, z: 1.429795}
  - {x: -6.11069, y: 0.0100175, z: 1.6035999}
  - {x: -6.2487326, y: 0.68722504, z: 1.543135}
  - {x: -6.3773975, y: 0.7033175, z: 1.4867775}
  - {x: -6.507482, y: 0.68722504, z: 1.429795}
  - {x: -6.6083426, y: 0.013555001, z: 1.3856176}
  - {x: -6.6083426, y: 0.34164, z: 1.3856176}
  - {x: -5.235125, y: -0.6428725, z: 4.3591}
  - {x: -6.2287803, y: -0.54308504, z: 3.8784199}
  - {x: -7.534097, y: -0.3605975, z: 3.24697}
  - {x: -7.144138, y: 0.0100175, z: 3.4356153}
  - {x: -7.279805, y: 0.68722504, z: 3.3699849}
  - {x: -7.4062524, y: 0.7033175, z: 3.308815}
  - {x: -7.534097, y: 0.68722504, z: 3.24697}
  - {x: -7.63322, y: 0.013555001, z: 3.1990201}
  - {x: -7.63322, y: 0.34164, z: 3.1990201}
  - {x: -6.3413625, y: -0.6428725, z: 6.1646276}
  - {x: -7.3250527, y: -0.54308504, z: 5.6638775}
  - {x: -8.617286, y: -0.3605975, z: 5.00606}
  - {x: -8.231235, y: 0.0100175, z: 5.202583}
  - {x: -8.365542, y: 0.68722504, z: 5.1342125}
  - {x: -8.490721, y: 0.7033175, z: 5.0704875}
  - {x: -8.617286, y: 0.68722504, z: 5.00606}
  - {x: -8.715415, y: 0.013555001, z: 4.9561076}
  - {x: -8.715415, y: 0.34164, z: 4.9561076}
  - {x: -7.539863, y: -0.6456225, z: 8.07283}
  - {x: -8.465156, y: -0.54308504, z: 7.471213}
  - {x: -9.680816, y: -0.3605975, z: 6.680795}
  - {x: -9.31746, y: 0.0106925005, z: 6.9170504}
  - {x: -9.443991, y: 0.68722504, z: 6.834778}
  - {x: -9.561752, y: 0.7033175, z: 6.758208}
  - {x: -9.680816, y: 0.68722504, z: 6.680795}
  - {x: -9.77313, y: 0.013555001, z: 6.6207747}
  - {x: -9.77313, y: 0.34164, z: 6.6207747}
  - {x: -0.75561, y: -0.54308504, z: -4.187795}
  - {x: -0.4297075, y: -0.54308504, z: -7.369363}
  - {x: -1.2680125, y: -0.54308504, z: -1.7181549}
  - {x: -2.07942, y: -0.54308504, z: 0.566505}
  - {x: -0.86380255, y: -0.3605975, z: 1.0563949}
  - {x: 0.091725, y: -0.3605975, z: -1.411375}
  - {x: -1.941585, y: -0.3605975, z: 3.4297626}
  - {x: -3.2798474, y: -0.54308504, z: 2.843575}
  - {x: -3.0468576, y: -0.3605975, z: 5.417678}
  - {x: -4.3620653, y: -0.54308504, z: 4.781445}
  - {x: -2.947735, y: 0.013555001, z: 5.4656277}
  - {x: -1.840725, y: 0.013555001, z: 3.47394}
  - {x: -4.17503, y: -0.3605975, z: 7.2674026}
  - {x: -5.4770527, y: -0.54308504, z: 6.604605}
  - {x: -4.0769024, y: 0.013555001, z: 7.3173556}
  - {x: -5.5017877, y: -0.3605975, z: 9.397967}
  - {x: -6.7266603, y: -0.54308504, z: 8.601568}
  - {x: -5.409475, y: 0.013555001, z: 9.457993}
  - {x: -5.409475, y: 0.34164, z: 9.457993}
  - {x: -4.0769024, y: 0.34164, z: 7.3173556}
  - {x: -5.5017877, y: 0.68722504, z: 9.397967}
  - {x: -4.17503, y: 0.68722504, z: 7.2674026}
  - {x: -4.3058653, y: 0.7049275, z: 7.200803}
  - {x: -5.62487, y: 0.7049275, z: 9.3179455}
  - {x: -4.4265428, y: 0.6878975, z: 7.1393723}
  - {x: -5.738615, y: 0.68722504, z: 9.243991}
  - {x: -4.5610003, y: 0.010282501, z: 7.070925}
  - {x: -5.8651476, y: 0.0106925005, z: 9.161717}
  - {x: -3.1147726, y: 0.0101499995, z: -4.47152}
  - {x: -3.144865, y: 0.010282501, z: -7.369363}
  - {x: -3.12574, y: 0.0101499995, z: -2.167675}
  - {x: -3.1263502, y: 0.0101499995, z: 0.23796251}
  - {x: -3.1234052, y: 0.0101499995, z: 2.8638475}
  - {x: -3.1115377, y: 0.0101499995, z: 4.8785224}
  - {x: -3.4704225, y: 0.0098425, z: 4.8712025}
  - {x: -3.4727876, y: 0.0098425, z: 5.358783}
  - {x: 2.62072, y: -0.54269254, z: -9.795497}
  - {x: 3.9207075, y: -0.3605975, z: -7.3692627}
  - {x: 2.62072, y: -0.54308504, z: -7.3692627}
  - {x: 3.9207075, y: -0.360315, z: -9.801865}
  - {x: 4.0308204, y: 0.013555001, z: -7.3692627}
  - {x: 4.0308204, y: 0.013607501, z: -9.814925}
  - {x: 4.0308204, y: 0.34164, z: -7.3692627}
  - {x: 4.0308204, y: 0.3414925, z: -9.826373}
  - {x: 3.9207075, y: 0.68722504, z: -7.3692627}
  - {x: 3.9207075, y: 0.68686754, z: -9.838435}
  - {x: 3.7738976, y: 0.70456, z: -9.83905}
  - {x: 3.7738976, y: 0.7049275, z: -7.3692627}
  - {x: 3.6387403, y: 0.6882125, z: -9.838481}
  - {x: 3.6384828, y: 0.6878975, z: -7.3692627}
  - {x: 3.48791, y: 0.0099275, z: -9.8147955}
  - {x: 3.4876049, y: 0.010282501, z: -7.3692627}
  - {x: -0.011755, y: -0.63967, z: -9.7921095}
  - {x: -0.0120125, y: -0.6428725, z: -7.3692627}
  - {x: 3.9207075, y: 0.68722504, z: -4.920818}
  - {x: 3.7738976, y: 0.7049275, z: -4.920818}
  - {x: 3.6384828, y: 0.6878975, z: -4.920818}
  - {x: 3.4876049, y: 0.010282501, z: -4.920818}
  - {x: 3.9207075, y: 0.68722504, z: -2.4723725}
  - {x: 3.7738976, y: 0.7049275, z: -2.4723725}
  - {x: 3.6384828, y: 0.6878975, z: -2.4723725}
  - {x: 3.4876049, y: 0.010282501, z: -2.4723725}
  - {x: 4.0308204, y: 0.34164, z: -4.920818}
  - {x: 4.0308204, y: 0.013555001, z: -4.920818}
  - {x: 3.9207075, y: -0.3605975, z: -4.920818}
  - {x: 2.62072, y: -0.54308504, z: -4.920818}
  - {x: -0.0120125, y: -0.6428725, z: -4.920818}
  - {x: 3.9207075, y: -0.3605975, z: -2.4723725}
  - {x: 2.62072, y: -0.54308504, z: -2.4723725}
  - {x: 4.0308204, y: 0.013555001, z: -2.4723725}
  - {x: 4.0308204, y: 0.34164, z: -2.4723725}
  - {x: 0.03779, y: -0.6428725, z: -2.47419}
  - {x: 3.9207075, y: -0.3605975, z: -0.023665002}
  - {x: 2.62072, y: -0.54308504, z: -0.023665002}
  - {x: 4.0308204, y: 0.013555001, z: -0.023665002}
  - {x: 4.0308204, y: 0.34164, z: -0.023665002}
  - {x: 3.9207075, y: 0.68722504, z: -0.023665002}
  - {x: 3.7738976, y: 0.7049275, z: -0.023665002}
  - {x: 3.6384828, y: 0.6878975, z: -0.023665002}
  - {x: 3.4876049, y: 0.010282501, z: -0.023665002}
  - {x: -0.0120125, y: -0.6428725, z: -0.023665002}
  - {x: 3.9207075, y: -0.3605975, z: 2.4250426}
  - {x: 2.62072, y: -0.54308504, z: 2.4250426}
  - {x: 3.9207075, y: 0.68722504, z: 2.4250426}
  - {x: 3.7738976, y: 0.7049275, z: 2.4250426}
  - {x: 3.6384828, y: 0.6878975, z: 2.4250426}
  - {x: 3.4876049, y: 0.010282501, z: 2.4250426}
  - {x: 4.0308204, y: 0.34164, z: 2.4250426}
  - {x: 4.0308204, y: 0.013555001, z: 2.4250426}
  - {x: -0.0120125, y: -0.6428725, z: 2.4250426}
  - {x: 3.9207075, y: -0.3605975, z: 4.8734875}
  - {x: 2.62072, y: -0.54308504, z: 4.8734875}
  - {x: 3.9207075, y: 0.68722504, z: 4.8734875}
  - {x: 3.7738976, y: 0.7049275, z: 4.8734875}
  - {x: 3.6384828, y: 0.6878975, z: 4.8734875}
  - {x: 3.4876049, y: 0.010282501, z: 4.8734875}
  - {x: 4.0308204, y: 0.34164, z: 4.8734875}
  - {x: 4.0308204, y: 0.013555001, z: 4.8734875}
  - {x: -0.0120125, y: -0.6428725, z: 4.8734875}
  - {x: 3.9207075, y: -0.3605975, z: 7.321935}
  - {x: 2.62072, y: -0.54308504, z: 7.321935}
  - {x: 3.9207075, y: 0.68722504, z: 7.321935}
  - {x: 3.7738976, y: 0.7049275, z: 7.321935}
  - {x: 3.6384828, y: 0.6878975, z: 7.321935}
  - {x: 3.4876049, y: 0.010282501, z: 7.321935}
  - {x: 4.0308204, y: 0.013555001, z: 7.321935}
  - {x: 4.0308204, y: 0.34164, z: 7.321935}
  - {x: -0.0120125, y: -0.6428725, z: 7.321935}
  - {x: 3.9207075, y: -0.3605975, z: 9.77061}
  - {x: 2.62072, y: -0.54308504, z: 9.77061}
  - {x: 3.9207075, y: 0.68722504, z: 9.77061}
  - {x: 3.7738976, y: 0.7049275, z: 9.77061}
  - {x: 3.6382225, y: 0.68722504, z: 9.77061}
  - {x: 3.4872975, y: 0.0106925005, z: 9.77061}
  - {x: 4.0308204, y: 0.013555001, z: 9.77061}
  - {x: 4.0308204, y: 0.34164, z: 9.77061}
  - {x: -0.0122725, y: -0.6456225, z: 9.77061}
  - {x: -2.6533225, y: -0.54269254, z: -9.795497}
  - {x: -2.6533225, y: -0.54308504, z: -7.3692627}
  - {x: -3.9533074, y: -0.360315, z: -9.801865}
  - {x: -4.0634203, y: 0.013607501, z: -9.814925}
  - {x: -4.0634203, y: 0.3414925, z: -9.826373}
  - {x: -3.9533074, y: 0.68686754, z: -9.838435}
  - {x: -3.81129, y: 0.70295, z: -9.838996}
  - {x: -3.6708248, y: 0.68686754, z: -9.838435}
  - {x: -3.5203323, y: 0.0094, z: -9.814775}
  - {x: -2.6533225, y: -0.54308504, z: -4.920818}
  - {x: -3.9533074, y: -0.3605975, z: -4.920818}
  - {x: -2.6533225, y: -0.54308504, z: -2.4723725}
  - {x: -3.9533074, y: -0.3605975, z: -2.4723725}
  - {x: -2.6533225, y: -0.54308504, z: -0.023665002}
  - {x: -3.9533074, y: -0.3605975, z: -0.023665002}
  - {x: -2.6533225, y: -0.54308504, z: 2.4250426}
  - {x: -3.9533074, y: -0.3605975, z: 2.4250426}
  - {x: -2.6533225, y: -0.54308504, z: 4.8734875}
  - {x: -3.9533074, y: -0.3605975, z: 4.8734875}
  - {x: -2.6533225, y: -0.54308504, z: 7.321935}
  - {x: -3.9533074, y: -0.3605975, z: 7.321935}
  - {x: -4.0634203, y: 0.013555001, z: 7.321935}
  - {x: -2.6533225, y: -0.54308504, z: 9.77061}
  - {x: -3.9533074, y: -0.3605975, z: 9.77061}
  - {x: -4.0634203, y: 0.013555001, z: 9.77061}
  - {x: -4.0634203, y: 0.34164, z: 7.321935}
  - {x: -4.0634203, y: 0.34164, z: 9.77061}
  - {x: -3.9533074, y: 0.68722504, z: 7.321935}
  - {x: -3.9533074, y: 0.68722504, z: 9.77061}
  - {x: -3.81129, y: 0.7033175, z: 9.77061}
  - {x: -3.81129, y: 0.7033175, z: 7.321935}
  - {x: -3.6708248, y: 0.68722504, z: 9.77061}
  - {x: -3.6708248, y: 0.68722504, z: 7.321935}
  - {x: -3.5199, y: 0.0106925005, z: 9.77061}
  - {x: -3.5201175, y: 0.0100175, z: 7.321935}
  - {x: -4.453275, y: 0.8309925, z: 6.9628625}
  - {x: -4.3408575, y: 0.939135, z: 7.0043}
  - {x: -4.3101554, y: 0.926835, z: 6.9343753}
  - {x: -4.48877, y: 0.84229004, z: 7.031508}
  - {x: -4.2057476, y: 0.98239005, z: 7.0069222}
  - {x: -4.17955, y: 0.96966755, z: 6.9357905}
  - {x: -4.0764227, y: 0.99975747, z: 7.031193}
  - {x: -4.0547276, y: 0.990695, z: 6.9584427}
  - {x: -3.94966, y: 0.99975747, z: 7.0650597}
  - {x: -3.9326274, y: 0.99069995, z: 6.9914804}
  - {x: -3.8254602, y: 0.98243755, z: 7.1085176}
  - {x: -3.8129826, y: 0.9735525, z: 7.033723}
  - {x: -3.707045, y: 0.939135, z: 7.1736274}
  - {x: -3.699125, y: 0.93079007, z: 7.0976152}
  - {x: -3.594875, y: 0.8437775, z: 7.270318}
  - {x: -3.5913475, y: 0.836075, z: 7.193133}
  - {x: -4.3102503, y: 0.0179225, z: 6.934733}
  - {x: -4.1795173, y: 0.0179225, z: 6.93547}
  - {x: -4.0548325, y: 0.021695001, z: 6.9588327}
  - {x: -3.9326274, y: 0.021695001, z: 6.9914804}
  - {x: -3.8129025, y: 0.021695001, z: 7.033423}
  - {x: -3.6992226, y: 0.022512501, z: 7.097983}
  - {x: -3.5158277, y: 0.7067725, z: 7.262095}
  - {x: -3.5160978, y: 0.712765, z: 7.3401527}
  - {x: -3.4919527, y: 0.5985825, z: 7.30234}
  - {x: -3.49077, y: 0.60340255, z: 7.3807855}
  - {x: -3.4921901, y: 0.5000625, z: 7.3022776}
  - {x: -3.49077, y: 0.503815, z: 7.3807855}
  - {x: -3.4919498, y: 0.023330001, z: 7.3023424}
  - {x: -3.48917, y: 0.02191, z: 7.374798}
  - {x: -3.5897877, y: 0.01732, z: 7.192615}
  - {x: -3.5135849, y: 0.01732, z: 7.2624927}
  - {x: -4.63003, y: 0.02191, z: 7.0700073}
  - {x: -4.5918326, y: 0.4962925, z: 7.0085}
  - {x: -4.5964627, y: 0.0195575, z: 7.02603}
  - {x: -4.6316576, y: 0.503815, z: 7.07599}
  - {x: -4.5752254, y: 0.0135475, z: 7.000057}
  - {x: -4.5741076, y: 0.5948125, z: 6.9997673}
  - {x: -4.544035, y: 0.70212, z: 6.9874024}
  - {x: -4.6134, y: 0.60340255, z: 7.0674005}
  - {x: -4.582395, y: 0.711875, z: 7.055285}
  - {x: -4.543675, y: 0.0135475, z: 6.988093}
  - {x: -4.45364, y: 0.0135475, z: 6.962533}
  - {x: -4.0548325, y: 0.023330001, z: 6.9588327}
  - {x: -3.9326274, y: 0.023330001, z: 6.9914804}
  - {x: -3.5011075, y: 0.503815, z: 7.377867}
  - {x: -3.5011475, y: 0.02191, z: 7.378013}
  - {x: -3.5025299, y: 0.6009025, z: 7.377643}
  - {x: -3.5244148, y: 0.7103, z: 7.33793}
  - {x: -3.60149, y: 0.84010756, z: 7.2685523}
  - {x: -3.7071998, y: 0.92975503, z: 7.1738877}
  - {x: -3.8323877, y: 0.9725775, z: 7.1061525}
  - {x: -3.9521325, y: 0.988835, z: 7.0643973}
  - {x: -4.075298, y: 0.98934746, z: 7.031495}
  - {x: -4.205625, y: 0.96743745, z: 7.006463}
  - {x: -4.34075, y: 0.924135, z: 7.003895}
  - {x: -4.477735, y: 0.8338375, z: 7.0344553}
  - {x: -4.5711703, y: 0.705785, z: 7.0582824}
  - {x: -4.6003103, y: 0.5993725, z: 7.0682273}
  - {x: -4.6134653, y: 0.503815, z: 7.072623}
  - {x: -4.6154723, y: 0.02191, z: 7.066845}
  - {x: -4.07406, y: 0.01732, z: 7.031195}
  - {x: -3.9510624, y: 0.01732, z: 7.0651155}
  - {x: -3.8262298, y: 0.01732, z: 7.1079726}
  - {x: -3.7089698, y: 0.01732, z: 7.17522}
  - {x: -3.6010575, y: 0.01732, z: 7.2695503}
  - {x: -3.52443, y: 0.01732, z: 7.338615}
  - {x: -4.2043576, y: 0.01732, z: 7.004838}
  - {x: -4.339795, y: 0.01732, z: 7.00563}
  - {x: -4.4799128, y: 0.01732, z: 7.03581}
  - {x: -4.5728874, y: 0.01732, z: 7.0595675}
  tmpFullMeshVecs:
  - {x: -2.50337, y: -0.54308504, z: -7.369363}
  - {x: -1.7185601, y: -0.6428725, z: -4.303305}
  - {x: -2.8145125, y: -0.54308504, z: -4.43477}
  - {x: -1.39956, y: -0.6428725, z: -7.369363}
  - {x: -3.953355, y: -0.3605975, z: -7.3693123}
  - {x: -4.2542224, y: -0.3605975, z: -4.60747}
  - {x: -4.063465, y: 0.013555001, z: -7.3693123}
  - {x: -4.36355, y: 0.013555001, z: -4.6205826}
  - {x: -4.063465, y: 0.34164, z: -7.3693123}
  - {x: -4.36355, y: 0.34164, z: -4.6205826}
  - {x: -3.953355, y: 0.68722504, z: -7.3693123}
  - {x: -4.2542224, y: 0.68722504, z: -4.60747}
  - {x: -4.1132126, y: 0.7033175, z: -4.5905547}
  - {x: -3.811335, y: 0.7033175, z: -7.3693123}
  - {x: -3.9737477, y: 0.68722504, z: -4.5738254}
  - {x: -3.6708698, y: 0.68722504, z: -7.3693123}
  - {x: -3.8241124, y: 0.0100175, z: -4.5558753}
  - {x: -3.5201626, y: 0.0100175, z: -7.3693123}
  - {x: -3.345895, y: -0.54308504, z: -2.2340026}
  - {x: -4.7561073, y: -0.3605975, z: -2.57147}
  - {x: -4.3348126, y: 0.0100175, z: -2.4706526}
  - {x: -4.4813824, y: 0.68722504, z: -2.5057275}
  - {x: -4.61799, y: 0.7033175, z: -2.5384176}
  - {x: -4.7561073, y: 0.68722504, z: -2.57147}
  - {x: -4.8631973, y: 0.34164, z: -2.5970976}
  - {x: -4.8631973, y: 0.013555001, z: -2.5970976}
  - {x: -4.193355, y: -0.54308504, z: -0.13020751}
  - {x: -3.1536, y: -0.6428725, z: 0.240345}
  - {x: -2.2723925, y: -0.6428725, z: -1.9771127}
  - {x: -5.559238, y: -0.3605975, z: -0.616985}
  - {x: -5.1511827, y: 0.0100175, z: -0.47156247}
  - {x: -5.293145, y: 0.68722504, z: -0.522155}
  - {x: -5.4254603, y: 0.7033175, z: -0.56931}
  - {x: -5.559238, y: 0.68722504, z: -0.616985}
  - {x: -5.6629577, y: 0.013555001, z: -0.65395004}
  - {x: -5.6629577, y: 0.34164, z: -0.65395004}
  - {x: -4.1682124, y: -0.6428725, z: 2.4544475}
  - {x: -5.1792827, y: -0.54308504, z: 2.0115774}
  - {x: -6.507482, y: -0.3605975, z: 1.429795}
  - {x: -6.11069, y: 0.0100175, z: 1.6035999}
  - {x: -6.2487326, y: 0.68722504, z: 1.543135}
  - {x: -6.3773975, y: 0.7033175, z: 1.4867775}
  - {x: -6.507482, y: 0.68722504, z: 1.429795}
  - {x: -6.6083426, y: 0.013555001, z: 1.3856176}
  - {x: -6.6083426, y: 0.34164, z: 1.3856176}
  - {x: -5.235125, y: -0.6428725, z: 4.3591}
  - {x: -6.2287803, y: -0.54308504, z: 3.8784199}
  - {x: -7.534097, y: -0.3605975, z: 3.24697}
  - {x: -7.144138, y: 0.0100175, z: 3.4356153}
  - {x: -7.279805, y: 0.68722504, z: 3.3699849}
  - {x: -7.4062524, y: 0.7033175, z: 3.308815}
  - {x: -7.534097, y: 0.68722504, z: 3.24697}
  - {x: -7.63322, y: 0.013555001, z: 3.1990201}
  - {x: -7.63322, y: 0.34164, z: 3.1990201}
  - {x: -6.3413625, y: -0.6428725, z: 6.1646276}
  - {x: -7.3250527, y: -0.54308504, z: 5.6638775}
  - {x: -8.617286, y: -0.3605975, z: 5.00606}
  - {x: -8.231235, y: 0.0100175, z: 5.202583}
  - {x: -8.365542, y: 0.68722504, z: 5.1342125}
  - {x: -8.490721, y: 0.7033175, z: 5.0704875}
  - {x: -8.617286, y: 0.68722504, z: 5.00606}
  - {x: -8.715415, y: 0.013555001, z: 4.9561076}
  - {x: -8.715415, y: 0.34164, z: 4.9561076}
  - {x: -7.539863, y: -0.6456225, z: 8.07283}
  - {x: -8.465156, y: -0.54308504, z: 7.471213}
  - {x: -9.680816, y: -0.3605975, z: 6.680795}
  - {x: -9.31746, y: 0.0106925005, z: 6.9170504}
  - {x: -9.443991, y: 0.68722504, z: 6.834778}
  - {x: -9.561752, y: 0.7033175, z: 6.758208}
  - {x: -9.680816, y: 0.68722504, z: 6.680795}
  - {x: -9.77313, y: 0.013555001, z: 6.6207747}
  - {x: -9.77313, y: 0.34164, z: 6.6207747}
  - {x: -1.39956, y: -0.6428725, z: -7.369363}
  - {x: -0.75561, y: -0.54308504, z: -4.187795}
  - {x: -1.7185601, y: -0.6428725, z: -4.303305}
  - {x: -0.4297075, y: -0.54308504, z: -7.369363}
  - {x: -1.2680125, y: -0.54308504, z: -1.7181549}
  - {x: -2.2723925, y: -0.6428725, z: -1.9771127}
  - {x: -2.07942, y: -0.54308504, z: 0.566505}
  - {x: -0.86380255, y: -0.3605975, z: 1.0563949}
  - {x: 0.091725, y: -0.3605975, z: -1.411375}
  - {x: -3.1536, y: -0.6428725, z: 0.240345}
  - {x: -1.941585, y: -0.3605975, z: 3.4297626}
  - {x: -3.2798474, y: -0.54308504, z: 2.843575}
  - {x: -4.1682124, y: -0.6428725, z: 2.4544475}
  - {x: -3.0468576, y: -0.3605975, z: 5.417678}
  - {x: -4.3620653, y: -0.54308504, z: 4.781445}
  - {x: -2.947735, y: 0.013555001, z: 5.4656277}
  - {x: -1.840725, y: 0.013555001, z: 3.47394}
  - {x: -5.235125, y: -0.6428725, z: 4.3591}
  - {x: -4.17503, y: -0.3605975, z: 7.2674026}
  - {x: -5.4770527, y: -0.54308504, z: 6.604605}
  - {x: -4.0769024, y: 0.013555001, z: 7.3173556}
  - {x: -6.3413625, y: -0.6428725, z: 6.1646276}
  - {x: -5.5017877, y: -0.3605975, z: 9.397967}
  - {x: -6.7266603, y: -0.54308504, z: 8.601568}
  - {x: -5.409475, y: 0.013555001, z: 9.457993}
  - {x: -5.409475, y: 0.34164, z: 9.457993}
  - {x: -4.0769024, y: 0.34164, z: 7.3173556}
  - {x: -5.5017877, y: 0.68722504, z: 9.397967}
  - {x: -4.17503, y: 0.68722504, z: 7.2674026}
  - {x: -4.3058653, y: 0.7049275, z: 7.200803}
  - {x: -5.62487, y: 0.7049275, z: 9.3179455}
  - {x: -4.4265428, y: 0.6878975, z: 7.1393723}
  - {x: -5.738615, y: 0.68722504, z: 9.243991}
  - {x: -4.5610003, y: 0.010282501, z: 7.070925}
  - {x: -5.8651476, y: 0.0106925005, z: 9.161717}
  - {x: -7.539863, y: -0.6456225, z: 8.07283}
  - {x: -3.1147726, y: 0.0101499995, z: -4.47152}
  - {x: -3.5201626, y: 0.0100175, z: -7.3693123}
  - {x: -3.8241124, y: 0.0100175, z: -4.5558753}
  - {x: -3.144865, y: 0.010282501, z: -7.369363}
  - {x: -3.12574, y: 0.0101499995, z: -2.167675}
  - {x: -4.3348126, y: 0.0100175, z: -2.4706526}
  - {x: -3.1263502, y: 0.0101499995, z: 0.23796251}
  - {x: -5.1511827, y: 0.0100175, z: -0.47156247}
  - {x: -3.1234052, y: 0.0101499995, z: 2.8638475}
  - {x: -6.11069, y: 0.0100175, z: 1.6035999}
  - {x: -3.1115377, y: 0.0101499995, z: 4.8785224}
  - {x: -7.144138, y: 0.0100175, z: 3.4356153}
  - {x: -3.4704225, y: 0.0098425, z: 4.8712025}
  - {x: -3.4727876, y: 0.0098425, z: 5.358783}
  - {x: -4.5610003, y: 0.010282501, z: 7.070925}
  - {x: -8.231235, y: 0.0100175, z: 5.202583}
  - {x: -5.8651476, y: 0.0106925005, z: 9.161717}
  - {x: -9.31746, y: 0.0106925005, z: 6.9170504}
  - {x: 2.62072, y: -0.54269254, z: -9.795497}
  - {x: 3.9207075, y: -0.3605975, z: -7.3692627}
  - {x: 2.62072, y: -0.54308504, z: -7.3692627}
  - {x: 3.9207075, y: -0.360315, z: -9.801865}
  - {x: 4.0308204, y: 0.013555001, z: -7.3692627}
  - {x: 4.0308204, y: 0.013607501, z: -9.814925}
  - {x: 4.0308204, y: 0.34164, z: -7.3692627}
  - {x: 4.0308204, y: 0.3414925, z: -9.826373}
  - {x: 3.9207075, y: 0.68722504, z: -7.3692627}
  - {x: 3.9207075, y: 0.68686754, z: -9.838435}
  - {x: 3.7738976, y: 0.70456, z: -9.83905}
  - {x: 3.7738976, y: 0.7049275, z: -7.3692627}
  - {x: 3.6387403, y: 0.6882125, z: -9.838481}
  - {x: 3.6384828, y: 0.6878975, z: -7.3692627}
  - {x: 3.48791, y: 0.0099275, z: -9.8147955}
  - {x: 3.4876049, y: 0.010282501, z: -7.3692627}
  - {x: -0.011755, y: -0.63967, z: -9.7921095}
  - {x: -0.0120125, y: -0.6428725, z: -7.3692627}
  - {x: 3.9207075, y: 0.68722504, z: -4.920818}
  - {x: 3.7738976, y: 0.7049275, z: -4.920818}
  - {x: 3.6384828, y: 0.6878975, z: -4.920818}
  - {x: 3.4876049, y: 0.010282501, z: -4.920818}
  - {x: 3.9207075, y: 0.68722504, z: -2.4723725}
  - {x: 3.7738976, y: 0.7049275, z: -2.4723725}
  - {x: 3.6384828, y: 0.6878975, z: -2.4723725}
  - {x: 3.4876049, y: 0.010282501, z: -2.4723725}
  - {x: 4.0308204, y: 0.34164, z: -4.920818}
  - {x: 4.0308204, y: 0.013555001, z: -4.920818}
  - {x: 3.9207075, y: -0.3605975, z: -4.920818}
  - {x: 2.62072, y: -0.54308504, z: -4.920818}
  - {x: -0.0120125, y: -0.6428725, z: -4.920818}
  - {x: 3.9207075, y: -0.3605975, z: -2.4723725}
  - {x: 2.62072, y: -0.54308504, z: -2.4723725}
  - {x: 4.0308204, y: 0.013555001, z: -2.4723725}
  - {x: 4.0308204, y: 0.34164, z: -2.4723725}
  - {x: 0.03779, y: -0.6428725, z: -2.47419}
  - {x: 3.9207075, y: -0.3605975, z: -0.023665002}
  - {x: 2.62072, y: -0.54308504, z: -0.023665002}
  - {x: 4.0308204, y: 0.013555001, z: -0.023665002}
  - {x: 4.0308204, y: 0.34164, z: -0.023665002}
  - {x: 3.9207075, y: 0.68722504, z: -0.023665002}
  - {x: 3.7738976, y: 0.7049275, z: -0.023665002}
  - {x: 3.6384828, y: 0.6878975, z: -0.023665002}
  - {x: 3.4876049, y: 0.010282501, z: -0.023665002}
  - {x: -0.0120125, y: -0.6428725, z: -0.023665002}
  - {x: 3.9207075, y: -0.3605975, z: 2.4250426}
  - {x: 2.62072, y: -0.54308504, z: 2.4250426}
  - {x: 3.9207075, y: 0.68722504, z: 2.4250426}
  - {x: 3.7738976, y: 0.7049275, z: 2.4250426}
  - {x: 3.6384828, y: 0.6878975, z: 2.4250426}
  - {x: 3.4876049, y: 0.010282501, z: 2.4250426}
  - {x: 4.0308204, y: 0.34164, z: 2.4250426}
  - {x: 4.0308204, y: 0.013555001, z: 2.4250426}
  - {x: -0.0120125, y: -0.6428725, z: 2.4250426}
  - {x: 3.9207075, y: -0.3605975, z: 4.8734875}
  - {x: 2.62072, y: -0.54308504, z: 4.8734875}
  - {x: 3.9207075, y: 0.68722504, z: 4.8734875}
  - {x: 3.7738976, y: 0.7049275, z: 4.8734875}
  - {x: 3.6384828, y: 0.6878975, z: 4.8734875}
  - {x: 3.4876049, y: 0.010282501, z: 4.8734875}
  - {x: 4.0308204, y: 0.34164, z: 4.8734875}
  - {x: 4.0308204, y: 0.013555001, z: 4.8734875}
  - {x: -0.0120125, y: -0.6428725, z: 4.8734875}
  - {x: 3.9207075, y: -0.3605975, z: 7.321935}
  - {x: 2.62072, y: -0.54308504, z: 7.321935}
  - {x: 3.9207075, y: 0.68722504, z: 7.321935}
  - {x: 3.7738976, y: 0.7049275, z: 7.321935}
  - {x: 3.6384828, y: 0.6878975, z: 7.321935}
  - {x: 3.4876049, y: 0.010282501, z: 7.321935}
  - {x: 4.0308204, y: 0.013555001, z: 7.321935}
  - {x: 4.0308204, y: 0.34164, z: 7.321935}
  - {x: -0.0120125, y: -0.6428725, z: 7.321935}
  - {x: 3.9207075, y: -0.3605975, z: 9.77061}
  - {x: 2.62072, y: -0.54308504, z: 9.77061}
  - {x: 3.9207075, y: 0.68722504, z: 9.77061}
  - {x: 3.7738976, y: 0.7049275, z: 9.77061}
  - {x: 3.6382225, y: 0.68722504, z: 9.77061}
  - {x: 3.4872975, y: 0.0106925005, z: 9.77061}
  - {x: 4.0308204, y: 0.013555001, z: 9.77061}
  - {x: 4.0308204, y: 0.34164, z: 9.77061}
  - {x: -0.0122725, y: -0.6456225, z: 9.77061}
  - {x: -2.6533225, y: -0.54269254, z: -9.795497}
  - {x: -0.0120125, y: -0.6428725, z: -7.3692627}
  - {x: -2.6533225, y: -0.54308504, z: -7.3692627}
  - {x: -0.011755, y: -0.63967, z: -9.7921095}
  - {x: -3.9533074, y: -0.360315, z: -9.801865}
  - {x: -3.953355, y: -0.3605975, z: -7.3693123}
  - {x: -4.0634203, y: 0.013607501, z: -9.814925}
  - {x: -4.063465, y: 0.013555001, z: -7.3693123}
  - {x: -4.0634203, y: 0.3414925, z: -9.826373}
  - {x: -4.063465, y: 0.34164, z: -7.3693123}
  - {x: -3.9533074, y: 0.68686754, z: -9.838435}
  - {x: -3.953355, y: 0.68722504, z: -7.3693123}
  - {x: -3.811335, y: 0.7033175, z: -7.3693123}
  - {x: -3.81129, y: 0.70295, z: -9.838996}
  - {x: -3.6708698, y: 0.68722504, z: -7.3693123}
  - {x: -3.6708248, y: 0.68686754, z: -9.838435}
  - {x: -3.5201626, y: 0.0100175, z: -7.3693123}
  - {x: -3.5203323, y: 0.0094, z: -9.814775}
  - {x: -2.6533225, y: -0.54308504, z: -4.920818}
  - {x: -3.9533074, y: -0.3605975, z: -4.920818}
  - {x: -2.6533225, y: -0.54308504, z: -2.4723725}
  - {x: 0.03779, y: -0.6428725, z: -2.47419}
  - {x: -0.0120125, y: -0.6428725, z: -4.920818}
  - {x: -3.9533074, y: -0.3605975, z: -2.4723725}
  - {x: -0.0120125, y: -0.6428725, z: -0.023665002}
  - {x: -2.6533225, y: -0.54308504, z: -0.023665002}
  - {x: -3.9533074, y: -0.3605975, z: -0.023665002}
  - {x: -0.0120125, y: -0.6428725, z: 2.4250426}
  - {x: -2.6533225, y: -0.54308504, z: 2.4250426}
  - {x: -3.9533074, y: -0.3605975, z: 2.4250426}
  - {x: -0.0120125, y: -0.6428725, z: 4.8734875}
  - {x: -2.6533225, y: -0.54308504, z: 4.8734875}
  - {x: -3.9533074, y: -0.3605975, z: 4.8734875}
  - {x: -0.0120125, y: -0.6428725, z: 7.321935}
  - {x: -2.6533225, y: -0.54308504, z: 7.321935}
  - {x: -3.9533074, y: -0.3605975, z: 7.321935}
  - {x: -4.0634203, y: 0.013555001, z: 7.321935}
  - {x: -0.0122725, y: -0.6456225, z: 9.77061}
  - {x: -2.6533225, y: -0.54308504, z: 9.77061}
  - {x: -3.9533074, y: -0.3605975, z: 9.77061}
  - {x: -4.0634203, y: 0.013555001, z: 9.77061}
  - {x: -4.0634203, y: 0.34164, z: 7.321935}
  - {x: -4.0634203, y: 0.34164, z: 9.77061}
  - {x: -3.9533074, y: 0.68722504, z: 7.321935}
  - {x: -3.9533074, y: 0.68722504, z: 9.77061}
  - {x: -3.81129, y: 0.7033175, z: 9.77061}
  - {x: -3.81129, y: 0.7033175, z: 7.321935}
  - {x: -3.6708248, y: 0.68722504, z: 9.77061}
  - {x: -3.6708248, y: 0.68722504, z: 7.321935}
  - {x: -3.5199, y: 0.0106925005, z: 9.77061}
  - {x: -3.5201175, y: 0.0100175, z: 7.321935}
  - {x: -3.5203323, y: 0.0094, z: -9.814775}
  - {x: -3.5201626, y: 0.0100175, z: -7.3693123}
  - {x: 3.48791, y: 0.0099275, z: -9.8147955}
  - {x: -3.144865, y: 0.010282501, z: -7.369363}
  - {x: 3.4876049, y: 0.010282501, z: -7.3692627}
  - {x: -3.1147726, y: 0.0101499995, z: -4.47152}
  - {x: 3.4876049, y: 0.010282501, z: -4.920818}
  - {x: 3.4876049, y: 0.010282501, z: -2.4723725}
  - {x: -3.12574, y: 0.0101499995, z: -2.167675}
  - {x: 3.4876049, y: 0.010282501, z: -0.023665002}
  - {x: -3.1263502, y: 0.0101499995, z: 0.23796251}
  - {x: 3.4876049, y: 0.010282501, z: 2.4250426}
  - {x: -3.1234052, y: 0.0101499995, z: 2.8638475}
  - {x: 3.4876049, y: 0.010282501, z: 4.8734875}
  - {x: -3.1115377, y: 0.0101499995, z: 4.8785224}
  - {x: 3.4876049, y: 0.010282501, z: 7.321935}
  - {x: -3.5201175, y: 0.0100175, z: 7.321935}
  - {x: 3.4872975, y: 0.0106925005, z: 9.77061}
  - {x: -3.5199, y: 0.0106925005, z: 9.77061}
  - {x: -3.4727876, y: 0.0098425, z: 5.358783}
  - {x: -3.4704225, y: 0.0098425, z: 4.8712025}
  - {x: -4.5610003, y: 0.010282501, z: 7.070925}
  - {x: -3.5201175, y: 0.0100175, z: 7.321935}
  - {x: -3.4727876, y: 0.0098425, z: 5.358783}
  - {x: -4.453275, y: 0.8309925, z: 6.9628625}
  - {x: -4.3408575, y: 0.939135, z: 7.0043}
  - {x: -4.3101554, y: 0.926835, z: 6.9343753}
  - {x: -4.48877, y: 0.84229004, z: 7.031508}
  - {x: -4.2057476, y: 0.98239005, z: 7.0069222}
  - {x: -4.17955, y: 0.96966755, z: 6.9357905}
  - {x: -4.0764227, y: 0.99975747, z: 7.031193}
  - {x: -4.0547276, y: 0.990695, z: 6.9584427}
  - {x: -3.94966, y: 0.99975747, z: 7.0650597}
  - {x: -3.9326274, y: 0.99069995, z: 6.9914804}
  - {x: -3.8254602, y: 0.98243755, z: 7.1085176}
  - {x: -3.8129826, y: 0.9735525, z: 7.033723}
  - {x: -3.707045, y: 0.939135, z: 7.1736274}
  - {x: -3.699125, y: 0.93079007, z: 7.0976152}
  - {x: -3.594875, y: 0.8437775, z: 7.270318}
  - {x: -3.5913475, y: 0.836075, z: 7.193133}
  - {x: -4.3102503, y: 0.0179225, z: 6.934733}
  - {x: -4.1795173, y: 0.0179225, z: 6.93547}
  - {x: -4.0548325, y: 0.021695001, z: 6.9588327}
  - {x: -3.9326274, y: 0.021695001, z: 6.9914804}
  - {x: -3.8129025, y: 0.021695001, z: 7.033423}
  - {x: -3.6992226, y: 0.022512501, z: 7.097983}
  - {x: -3.5158277, y: 0.7067725, z: 7.262095}
  - {x: -3.5160978, y: 0.712765, z: 7.3401527}
  - {x: -3.4919527, y: 0.5985825, z: 7.30234}
  - {x: -3.49077, y: 0.60340255, z: 7.3807855}
  - {x: -3.4921901, y: 0.5000625, z: 7.3022776}
  - {x: -3.49077, y: 0.503815, z: 7.3807855}
  - {x: -3.4919498, y: 0.023330001, z: 7.3023424}
  - {x: -3.48917, y: 0.02191, z: 7.374798}
  - {x: -3.5897877, y: 0.01732, z: 7.192615}
  - {x: -3.5135849, y: 0.01732, z: 7.2624927}
  - {x: -4.63003, y: 0.02191, z: 7.0700073}
  - {x: -4.5918326, y: 0.4962925, z: 7.0085}
  - {x: -4.5964627, y: 0.0195575, z: 7.02603}
  - {x: -4.6316576, y: 0.503815, z: 7.07599}
  - {x: -4.5752254, y: 0.0135475, z: 7.000057}
  - {x: -4.5741076, y: 0.5948125, z: 6.9997673}
  - {x: -4.544035, y: 0.70212, z: 6.9874024}
  - {x: -4.6134, y: 0.60340255, z: 7.0674005}
  - {x: -4.582395, y: 0.711875, z: 7.055285}
  - {x: -4.543675, y: 0.0135475, z: 6.988093}
  - {x: -4.45364, y: 0.0135475, z: 6.962533}
  - {x: -4.0548325, y: 0.023330001, z: 6.9588327}
  - {x: -3.9326274, y: 0.021695001, z: 6.9914804}
  - {x: -3.9326274, y: 0.023330001, z: 6.9914804}
  - {x: -4.0548325, y: 0.021695001, z: 6.9588327}
  - {x: -3.8129025, y: 0.021695001, z: 7.033423}
  - {x: -3.48917, y: 0.02191, z: 7.374798}
  - {x: -3.5011075, y: 0.503815, z: 7.377867}
  - {x: -3.5011475, y: 0.02191, z: 7.378013}
  - {x: -3.49077, y: 0.503815, z: 7.3807855}
  - {x: -3.5025299, y: 0.6009025, z: 7.377643}
  - {x: -3.49077, y: 0.60340255, z: 7.3807855}
  - {x: -3.5244148, y: 0.7103, z: 7.33793}
  - {x: -3.5160978, y: 0.712765, z: 7.3401527}
  - {x: -3.594875, y: 0.8437775, z: 7.270318}
  - {x: -3.60149, y: 0.84010756, z: 7.2685523}
  - {x: -3.707045, y: 0.939135, z: 7.1736274}
  - {x: -3.7071998, y: 0.92975503, z: 7.1738877}
  - {x: -3.8254602, y: 0.98243755, z: 7.1085176}
  - {x: -3.8323877, y: 0.9725775, z: 7.1061525}
  - {x: -3.94966, y: 0.99975747, z: 7.0650597}
  - {x: -3.9521325, y: 0.988835, z: 7.0643973}
  - {x: -4.0764227, y: 0.99975747, z: 7.031193}
  - {x: -4.075298, y: 0.98934746, z: 7.031495}
  - {x: -4.2057476, y: 0.98239005, z: 7.0069222}
  - {x: -4.205625, y: 0.96743745, z: 7.006463}
  - {x: -4.3408575, y: 0.939135, z: 7.0043}
  - {x: -4.34075, y: 0.924135, z: 7.003895}
  - {x: -4.48877, y: 0.84229004, z: 7.031508}
  - {x: -4.477735, y: 0.8338375, z: 7.0344553}
  - {x: -4.5711703, y: 0.705785, z: 7.0582824}
  - {x: -4.582395, y: 0.711875, z: 7.055285}
  - {x: -4.6003103, y: 0.5993725, z: 7.0682273}
  - {x: -4.6134, y: 0.60340255, z: 7.0674005}
  - {x: -4.6134653, y: 0.503815, z: 7.072623}
  - {x: -4.6316576, y: 0.503815, z: 7.07599}
  - {x: -4.6154723, y: 0.02191, z: 7.066845}
  - {x: -4.63003, y: 0.02191, z: 7.0700073}
  - {x: -4.07406, y: 0.01732, z: 7.031195}
  - {x: -3.9510624, y: 0.01732, z: 7.0651155}
  - {x: -3.8262298, y: 0.01732, z: 7.1079726}
  - {x: -3.7089698, y: 0.01732, z: 7.17522}
  - {x: -3.6010575, y: 0.01732, z: 7.2695503}
  - {x: -3.52443, y: 0.01732, z: 7.338615}
  - {x: -4.2043576, y: 0.01732, z: 7.004838}
  - {x: -4.339795, y: 0.01732, z: 7.00563}
  - {x: -4.4799128, y: 0.01732, z: 7.03581}
  - {x: -4.5728874, y: 0.01732, z: 7.0595675}
  tCrossingTmpFullMeshVecs: []
  outerVecInts: 
  surfaceVecs:
  - {x: -4.0634203, y: 0, z: -9.814925}
  - {x: -9.77313, y: 0, z: 6.6207747}
  - {x: -5.409475, y: 0, z: 9.457993}
  - {x: -4.0634203, y: 0, z: 9.77061}
  - {x: 4.0308204, y: 0, z: 9.77061}
  - {x: 4.0308204, y: 0, z: -9.826373}
  surfaceVecType: 010000000200000001000000020000000100000002000000
  surfaceConnectionInt: 000000000100000001000000020000000200000000000000
  tCrossingBlendData: []
  indentVecs: []
  sourcePrefab: {fileID: 0}
  prefabId: 1
  prioritySegments: 
  minNodeDistance: 3
  nodeWithinRange: -1
  sourceObject: {fileID: 100004, guid: c29c4b7c8addf674488eb9dc461bf441, type: 3}
  meshInstance: 0
  selectedConnection: -1
  QDOOOQOOQQQQD: []
  deformTerrain: 1
  isRoundabout: 0
  isERCrossing: 0
  isIConnector: 0
  roundaboutScript: {fileID: 0}
  crossingsScript: {fileID: 0}
  isCustomPrefab: 1
  customPrefabVersion: 1
  recalculateNormals: 0
  planarUVs: 0
  planarTiling: 1
  lastVecRoadIndex: 0
  isSceneObject: 1
  surfaceObject: {fileID: 0}
  surfaceMeshVecs: []
  tmpSurfaceMeshVecs: []
  tmpSurfaceVecsTCrossings: []
  surfaceInts: 
  leftBottomCorner: {x: 0, y: 0, z: 0}
  leftTopCorner: {x: 0, y: 0, z: 0}
  rightBottomCorner: {x: 0, y: 0, z: 0}
  rightTopCorner: {x: 0, y: 0, z: 0}
  tCrossing: 0
  tStraightBending: 1
  tCrossingLeftRight: 1
  tMainRoadWidth: 0
  tConnectionRoadWidth: 0
  bottomLeftSidewalkWidth: 0
  bottomLeftSidewalkOuterOffset: 0
  bottomLeftSidewalkCurbDepth: 0
  bottomRightSidewalkWidth: 0
  bottomRightSidewalkOuterOffset: 0
  bottomRightSidewalkCurbDepth: 0
  topLeftSidewalkWidth: 0
  topLeftSidewalkOuterOffset: 0
  topLeftSidewalkCurbDepth: 0
  topRightSidewalkWidth: 0
  topRightSidewalkOuterOffset: 0
  topRightSidewalkCurbDepth: 0
  testVec: {x: 0, y: 0, z: 0}
  surfaceSurroundingInts: 
  rotationPriorityElement: -1
  cornerPos: {x: 0, y: 0, z: 0}
  mainCorner: {x: 0, y: 0, z: 0}
  connectedCorner: {x: 0, y: 0, z: 0}
  mainVecOuter: {x: 0, y: 0, z: 0}
  connectionVecOuter: {x: 0, y: 0, z: 0}
  indentTopVec: {x: 0, y: 0, z: 0}
  indentRightVec: {x: 0, y: 0, z: 0}
  mainIndent: {x: 0, y: 0, z: 0}
  connectionIndent: {x: 0, y: 0, z: 0}
  selectedRotationConnection: 0
  bottomVec: {x: 0, y: 0, z: 0}
  rightVec: {x: 0, y: 0, z: 0}
  bottomIndent: {x: 0, y: 0, z: 0}
  rightIndent: {x: 0, y: 0, z: 0}
  sAngle: 90
  baseScript: {fileID: 0}
  QDQDQOOQQDQOQQ: 0
  tp1: {x: 0, y: 0, z: 0}
  tp2: {x: 0, y: 0, z: 0}
  doTerrainDeformation: 0
  includeOuterVertices: 1
  surroundingDistance: 0
  surfaceMesh: {fileID: 0}
  debugVecs1: []
  debugVecs2: []
  lightmapAdjusted: 0
--- !u!1001 &100100000
Prefab:
  m_ObjectHideFlags: 1
  serializedVersion: 2
  m_Modification:
    m_TransformParent: {fileID: 0}
    m_Modifications:
    - target: {fileID: 0}
      propertyPath: prefabId
      value: 1
      objectReference: {fileID: 0}
    m_RemovedComponents: []
  m_ParentPrefab: {fileID: 0}
  m_RootGameObject: {fileID: 156670}
  m_IsPrefabParent: 1
