%YAML 1.1
%TAG !u! tag:unity3d.com,2011:
--- !u!1 &117192
GameObject:
  m_ObjectHideFlags: 0
  m_PrefabParentObject: {fileID: 0}
  m_PrefabInternal: {fileID: 100100000}
  serializedVersion: 5
  m_Component:
  - component: {fileID: 428930}
  - component: {fileID: 11430710}
  - component: {fileID: 3300616}
  - component: {fileID: 2352076}
  - component: {fileID: 6467614}
  m_Layer: 0
  m_Name: single lane dirt crossing prefab
  m_TagString: Untagged
  m_Icon: {fileID: 0}
  m_NavMeshLayer: 0
  m_StaticEditorFlags: 0
  m_IsActive: 1
--- !u!4 &428930
Transform:
  m_ObjectHideFlags: 1
  m_PrefabParentObject: {fileID: 0}
  m_PrefabInternal: {fileID: 100100000}
  m_GameObject: {fileID: 117192}
  m_LocalRotation: {x: 0, y: 0, z: 0, w: 1}
  m_LocalPosition: {x: 0, y: 0, z: 0}
  m_LocalScale: {x: 1, y: 1, z: 1}
  m_Children: []
  m_Father: {fileID: 0}
  m_RootOrder: 0
  m_LocalEulerAnglesHint: {x: 0, y: 0, z: 0}
--- !u!23 &2352076
MeshRenderer:
  m_ObjectHideFlags: 1
  m_PrefabParentObject: {fileID: 0}
  m_PrefabInternal: {fileID: 100100000}
  m_GameObject: {fileID: 117192}
  m_Enabled: 1
  m_CastShadows: 1
  m_ReceiveShadows: 1
  m_MotionVectors: 1
  m_LightProbeUsage: 0
  m_ReflectionProbeUsage: 1
  m_Materials:
  - {fileID: 2100000, guid: 5bee64c5c553b2848acb02e6499acf83, type: 2}
  m_StaticBatchInfo:
    firstSubMesh: 0
    subMeshCount: 0
  m_StaticBatchRoot: {fileID: 0}
  m_ProbeAnchor: {fileID: 0}
  m_LightProbeVolumeOverride: {fileID: 0}
  m_ScaleInLightmap: 1
  m_PreserveUVs: 0
  m_IgnoreNormalsForChartDetection: 0
  m_ImportantGI: 0
  m_SelectedEditorRenderState: 3
  m_MinimumChartSize: 4
  m_AutoUVMaxDistance: 0.5
  m_AutoUVMaxAngle: 89
  m_LightmapParameters: {fileID: 0}
  m_SortingLayerID: 0
  m_SortingLayer: 0
  m_SortingOrder: 0
--- !u!33 &3300616
MeshFilter:
  m_ObjectHideFlags: 1
  m_PrefabParentObject: {fileID: 0}
  m_PrefabInternal: {fileID: 100100000}
  m_GameObject: {fileID: 117192}
  m_Mesh: {fileID: 4300000, guid: dc9c9a569333dcc4eb9c2e62797485fa, type: 2}
--- !u!64 &6467614
MeshCollider:
  m_ObjectHideFlags: 1
  m_PrefabParentObject: {fileID: 0}
  m_PrefabInternal: {fileID: 100100000}
  m_GameObject: {fileID: 117192}
  m_Material: {fileID: 0}
  m_IsTrigger: 0
  m_Enabled: 1
  serializedVersion: 2
  m_Convex: 0
  m_InflateMesh: 0
  m_SkinWidth: 0.01
  m_Mesh: {fileID: 4300000, guid: dc9c9a569333dcc4eb9c2e62797485fa, type: 2}
--- !u!114 &11430710
MonoBehaviour:
  m_ObjectHideFlags: 1
  m_PrefabParentObject: {fileID: 0}
  m_PrefabInternal: {fileID: 100100000}
  m_GameObject: {fileID: 117192}
  m_Enabled: 1
  m_EditorHideFlags: 0
  m_Script: {fileID: -2039104457, guid: f56d46228aee4734f9114056c53bb57e, type: 3}
  m_Name: 
  m_EditorClassIdentifier: 
  crossingElements:
  - centerPoint: {x: -0.09415001, y: 0, z: -3.01105}
    tmpCenterPoint: {x: -0.09415001, y: 0, z: -3.01105}
    stageCenterPoint: {x: -0.09415001, y: 0, z: 0}
    tmpStageCenterPoint: {x: -0.09415001, y: 0, z: 0}
    blendData: []
    controlPointV3: {x: -0.099380925, y: 0, z: 4.988949}
    controlPoint: {x: -0.099380925, y: 4.988949}
    blendDistance: 0
    extendBounds: 0
    blendCornerPoints:
    - {x: -1.5472, y: -3.012, z: 0}
    - {x: -1.5472, y: -3.012, z: 0}
    - {x: 1.3589, y: -3.0101, z: 0}
    - {x: 1.3589, y: -3.0101, z: 0}
    blendCornerPointInts: 0000000002000000250000000c0000002400000009000000
    blendCornerPointWeights:
    - 0
    - 0
    - 0
    - 0
    - 0
    - 0
    blendCornerPointsTransformed:
    - {x: 302.26895, y: 481.26944, z: 0}
    - {x: 302.26895, y: 481.26944, z: 0}
    - {x: 518.89825, y: 481.12778, z: 0}
    - {x: 518.89825, y: 481.12778, z: 0}
    blendRatio: 1
    curveStrength: 0
    roadShapeVecs:
    - {x: -1.4530501, y: 0}
    - {x: -1.4085501, y: 0.0372}
    - {x: 1.4134505, y: 0.0372}
    - {x: 1.4530501, y: 0}
    roadShapeVecsString: -1.5, 0;-1.4, 0;1.4, 0;1.5, 0;
    roadShapeMatchCount: 4
    roadShapeUVY:
    - 0
    - 0.01976625
    - 0.98148406
    - 1
    roadShapeUVY2: []
    hardEdge: 
    roadShapeMaterialInts: 00000000000000000000000000000000
    sidewalkLeftVecs: []
    sidewalkLeftUVY: []
    sidewalkLeftMaterialInts: 
    sidewalkRightVecs: []
    sidewalkRightUVY: []
    sidewalkRightMaterialInts: 
    connectionVecs: []
    connectionVecInts: 00000000020000000c00000009000000
    fullConnectionVecInts: 0000000002000000250000000c0000002400000009000000
    sidewalkLeftConnectionVecInts: 
    sidewalkRightConnectionVecInts: 
    doConnectionTri: 
    outerVecInts: 
    rotationPriority: 0
    centerPointAngle: 1000
    connectedRoad: {fileID: 0}
    connectedMarker: -1
    connectedRoadGO: {fileID: 0}
    includeLeftSidewalk: 1
    includeRightSidewalk: 1
    roadMaterial: {fileID: 2100000, guid: 457721ffb8c406d439987407c3c4d818, type: 2}
    roadMaterials:
    - {fileID: 2100000, guid: 457721ffb8c406d439987407c3c4d818, type: 2}
    centerPointPercentage: 0.5
    leftIndent: -1
    rightIndent: -1
    leftSurrounding: -1
    rightSurrounding: -1
    leftIndentV3: {x: 0, y: 0, z: 0}
    leftSurroundingV3: {x: 0, y: 0, z: 0}
    rightIndentV3: {x: 0, y: 0, z: 0}
    rightSurroundingV3: {x: 0, y: 0, z: 0}
    leftCornerInt: -1
    rightCornerInt: -1
    leftIndentInt: 8
    rightIndentInt: 7
    leftInt: 0
    rightInt: 0
    leftIntFull: 0
    rightIntFull: 0
    alignmentHandleVec: {x: -0.0961116, y: 0, z: -0.011050463}
    additionalIndentDistance: 0
    connectionAngle: 0
    alignmentHandleVecRotationGizmo: {x: 0, y: 0, z: 0}
    roadType: 0
    roadTypeTimestamp: 0
  - centerPoint: {x: -3.1106, y: 0, z: -0.0076000094}
    tmpCenterPoint: {x: -3.1106, y: 0, z: -0.0076000094}
    stageCenterPoint: {x: -3.1106, y: 0, z: 0}
    tmpStageCenterPoint: {x: -3.1106, y: 0, z: 0}
    blendData: []
    controlPointV3: {x: 4.8894, y: 0, z: -0.0076000094}
    controlPoint: {x: 4.8894, y: -0.0076000094}
    blendDistance: 0
    extendBounds: 0
    blendCornerPoints:
    - {x: -3.1106, y: 1.6112, z: 0}
    - {x: -3.1106, y: 1.6112, z: 0}
    - {x: -3.1106, y: -1.6264, z: 0}
    - {x: -3.1106, y: -1.6264, z: 0}
    blendCornerPointInts: 0f00000022000000
    blendCornerPointWeights:
    - 0
    - 0
    blendCornerPointsTransformed:
    - {x: 185.72849, y: 136.64238, z: 0}
    - {x: 185.72849, y: 136.64238, z: 0}
    - {x: 185.72849, y: 377.9827, z: 0}
    - {x: 185.72849, y: 377.9827, z: 0}
    blendRatio: 1
    curveStrength: 0
    roadShapeVecs:
    - {x: -1.6187999, y: 0}
    - {x: 1.6187999, y: 0}
    roadShapeVecsString: -1.6, 0;1.6, 0;
    roadShapeMatchCount: 2
    roadShapeUVY:
    - 0
    - 1
    roadShapeUVY2: []
    hardEdge: 
    roadShapeMaterialInts: 0000000000000000
    sidewalkLeftVecs: []
    sidewalkLeftUVY: []
    sidewalkLeftMaterialInts: 
    sidewalkRightVecs: []
    sidewalkRightUVY: []
    sidewalkRightMaterialInts: 
    connectionVecs: []
    connectionVecInts: 0f0000001d000000
    fullConnectionVecInts: 0f00000022000000
    sidewalkLeftConnectionVecInts: 
    sidewalkRightConnectionVecInts: 
    doConnectionTri: 
    outerVecInts: 
    rotationPriority: 0
    centerPointAngle: 1000
    connectedRoad: {fileID: 0}
    connectedMarker: -1
    connectedRoadGO: {fileID: 0}
    includeLeftSidewalk: 1
    includeRightSidewalk: 1
    roadMaterial: {fileID: 2100000, guid: adc944e9dc23e0e4eb2afafd0fb54df3, type: 2}
    roadMaterials:
    - {fileID: 2100000, guid: adc944e9dc23e0e4eb2afafd0fb54df3, type: 2}
    centerPointPercentage: 0.5
    leftIndent: -1
    rightIndent: -1
    leftSurrounding: -1
    rightSurrounding: -1
    leftIndentV3: {x: 0, y: 0, z: 0}
    leftSurroundingV3: {x: 0, y: 0, z: 0}
    rightIndentV3: {x: 0, y: 0, z: 0}
    rightSurroundingV3: {x: 0, y: 0, z: 0}
    leftCornerInt: -1
    rightCornerInt: -1
    leftIndentInt: 0
    rightIndentInt: 13
    leftInt: 0
    rightInt: 0
    leftIntFull: 0
    rightIntFull: 0
    alignmentHandleVec: {x: 0, y: 0, z: 0}
    additionalIndentDistance: 0
    connectionAngle: 0
    alignmentHandleVecRotationGizmo: {x: 0, y: 0, z: 0}
    roadType: 0
    roadTypeTimestamp: 0
  - centerPoint: {x: -0.09169996, y: 0, z: 2.8877}
    tmpCenterPoint: {x: -0.09169996, y: 0, z: 2.8877}
    stageCenterPoint: {x: -0.09169996, y: 0, z: 0}
    tmpStageCenterPoint: {x: -0.09169996, y: 0, z: 0}
    blendData: []
    controlPointV3: {x: -0.1479319, y: 0, z: -5.112103}
    controlPoint: {x: -0.1479319, y: -5.112103}
    blendDistance: 0
    extendBounds: 0
    blendCornerPoints:
    - {x: 1.3594, y: 2.8775, z: 0}
    - {x: 1.3594, y: 2.8775, z: 0}
    - {x: -1.5428, y: 2.8979, z: 0}
    - {x: -1.5428, y: 2.8979, z: 0}
    blendCornerPointInts: 0b0000000a00000023000000010000002600000008000000
    blendCornerPointWeights:
    - 0
    - 0
    - 0
    - 0
    - 0
    - 0
    blendCornerPointsTransformed:
    - {x: 518.93555, y: 42.248604, z: 0}
    - {x: 518.93555, y: 42.248604, z: 0}
    - {x: 302.59695, y: 40.727924, z: 0}
    - {x: 302.59695, y: 40.727924, z: 0}
    blendRatio: 1
    curveStrength: 0
    roadShapeVecs:
    - {x: -1.4511358, y: -0.0003}
    - {x: -1.4120355, y: 0.038}
    - {x: 1.4161371, y: 0.0383}
    - {x: 1.4511358, y: 0}
    roadShapeVecsString: -1.5, 0;-1.4, 0;1.4, 0;1.5, 0;
    roadShapeMatchCount: 4
    roadShapeUVY:
    - 0
    - 0.018649792
    - 0.98232156
    - 1
    roadShapeUVY2: []
    hardEdge: 
    roadShapeMaterialInts: 00000000000000000000000000000000
    sidewalkLeftVecs: []
    sidewalkLeftUVY: []
    sidewalkLeftMaterialInts: 
    sidewalkRightVecs: []
    sidewalkRightUVY: []
    sidewalkRightMaterialInts: 
    connectionVecs: []
    connectionVecInts: 0b0000000a0000000100000008000000
    fullConnectionVecInts: 0b0000000a00000023000000010000002600000008000000
    sidewalkLeftConnectionVecInts: 
    sidewalkRightConnectionVecInts: 
    doConnectionTri: 
    outerVecInts: 
    rotationPriority: 0
    centerPointAngle: 1000
    connectedRoad: {fileID: 0}
    connectedMarker: -1
    connectedRoadGO: {fileID: 0}
    includeLeftSidewalk: 1
    includeRightSidewalk: 1
    roadMaterial: {fileID: 2100000, guid: 457721ffb8c406d439987407c3c4d818, type: 2}
    roadMaterials:
    - {fileID: 2100000, guid: 457721ffb8c406d439987407c3c4d818, type: 2}
    centerPointPercentage: 0.5
    leftIndent: -1
    rightIndent: -1
    leftSurrounding: -1
    rightSurrounding: -1
    leftIndentV3: {x: 0, y: 0, z: 0}
    leftSurroundingV3: {x: 0, y: 0, z: 0}
    rightIndentV3: {x: 0, y: 0, z: 0}
    rightSurroundingV3: {x: 0, y: 0, z: 0}
    leftCornerInt: -1
    rightCornerInt: -1
    leftIndentInt: 6
    rightIndentInt: 5
    leftInt: 0
    rightInt: 0
    leftIntFull: 0
    rightIntFull: 0
    alignmentHandleVec: {x: 0, y: 0, z: 0}
    additionalIndentDistance: 0
    connectionAngle: 0
    alignmentHandleVecRotationGizmo: {x: 0, y: 0, z: 0}
    roadType: 0
    roadTypeTimestamp: 0
  sidewalkControlElements: []
  meshVecs:
  - {x: -1.5472, y: 0, z: -3.012}
  - {x: -1.5078, y: 0.0383, z: 2.8979}
  - {x: -1.5027, y: 0.0372, z: -3.012}
  - {x: -1.5469, y: 0, z: -2.3277}
  - {x: -1.546, y: 0, z: -1.1666}
  - {x: -1.5463, y: 0, z: -0.0076}
  - {x: -1.5443, y: 0, z: 1.1563}
  - {x: -1.5437, y: 0, z: 2.3118}
  - {x: -1.5428, y: 0, z: 2.8979}
  - {x: 1.3589, y: 0, z: -3.0101}
  - {x: 1.3203, y: 0.038, z: 2.8775}
  - {x: 1.3594, y: -0.0003, z: 2.8775}
  - {x: 1.3193, y: 0.0372, z: -3.0101}
  - {x: -2.7201, y: 0, z: 1.6306}
  - {x: -2.7201, y: 0, z: 0.8115}
  - {x: -3.1106, y: 0, z: 1.6112}
  - {x: -2.3297, y: 0, z: 1.6745}
  - {x: -2.3297, y: 0, z: 0.8334}
  - {x: -2.7201, y: 0, z: -0.0076}
  - {x: -2.3297, y: 0, z: -0.0076}
  - {x: -2.7201, y: 0, z: -0.8267}
  - {x: -2.3297, y: 0, z: -0.8486}
  - {x: -2.7201, y: 0, z: -1.6458}
  - {x: -2.3297, y: 0, z: -1.6897}
  - {x: -1.9392, y: 0, z: 1.8499}
  - {x: -1.9392, y: 0, z: 0.9211}
  - {x: -1.9392, y: 0, z: -0.0076}
  - {x: -1.9392, y: 0, z: -0.9363}
  - {x: -1.9392, y: 0, z: -1.8651}
  - {x: -3.1106, y: 0, z: -1.6264}
  fullMeshVecs:
  - {x: -1.5472, y: 0, z: -3.012}
  - {x: -1.5078, y: 0.0383, z: 2.8979}
  - {x: -1.5027, y: 0.0372, z: -3.012}
  - {x: -1.5469, y: 0, z: -2.3277}
  - {x: -1.546, y: 0, z: -1.1666}
  - {x: -1.5463, y: 0, z: -0.0076}
  - {x: -1.5443, y: 0, z: 1.1563}
  - {x: -1.5437, y: 0, z: 2.3118}
  - {x: -1.5428, y: 0, z: 2.8979}
  - {x: 1.3589, y: 0, z: -3.0101}
  - {x: 1.3203, y: 0.038, z: 2.8775}
  - {x: 1.3594, y: -0.0003, z: 2.8775}
  - {x: 1.3193, y: 0.0372, z: -3.0101}
  - {x: -2.7201, y: 0, z: 1.6306}
  - {x: -2.7201, y: 0, z: 0.8115}
  - {x: -3.1106, y: 0, z: 1.6112}
  - {x: -2.3297, y: 0, z: 1.6745}
  - {x: -2.3297, y: 0, z: 0.8334}
  - {x: -2.7201, y: 0, z: -0.0076}
  - {x: -2.3297, y: 0, z: -0.0076}
  - {x: -2.7201, y: 0, z: -0.8267}
  - {x: -2.3297, y: 0, z: -0.8486}
  - {x: -2.7201, y: 0, z: -1.6458}
  - {x: -2.3297, y: 0, z: -1.6897}
  - {x: -1.9392, y: 0, z: 1.8499}
  - {x: -1.9392, y: 0, z: 0.9211}
  - {x: -1.9392, y: 0, z: -0.0076}
  - {x: -1.9392, y: 0, z: -0.9363}
  - {x: -1.9392, y: 0, z: -1.8651}
  - {x: -1.5437, y: 0, z: 2.3118}
  - {x: -1.5443, y: 0, z: 1.1563}
  - {x: -1.5463, y: 0, z: -0.0076}
  - {x: -1.546, y: 0, z: -1.1666}
  - {x: -1.5469, y: 0, z: -2.3277}
  - {x: -3.1106, y: 0, z: -1.6264}
  - {x: 1.3203, y: 0.038, z: 2.8775}
  - {x: 1.3193, y: 0.0372, z: -3.0101}
  - {x: -1.5027, y: 0.0372, z: -3.012}
  - {x: -1.5078, y: 0.0383, z: 2.8979}
  tmpMeshVecs:
  - {x: -1.5472, y: 0, z: -3.012}
  - {x: -1.5078, y: 0.0383, z: 2.8979}
  - {x: -1.5027, y: 0.0372, z: -3.012}
  - {x: -1.5469, y: 0, z: -2.3277}
  - {x: -1.546, y: 0, z: -1.1666}
  - {x: -1.5463, y: 0, z: -0.0076}
  - {x: -1.5443, y: 0, z: 1.1563}
  - {x: -1.5437, y: 0, z: 2.3118}
  - {x: -1.5428, y: 0, z: 2.8979}
  - {x: 1.3589, y: 0, z: -3.0101}
  - {x: 1.3203, y: 0.038, z: 2.8775}
  - {x: 1.3594, y: -0.0003, z: 2.8775}
  - {x: 1.3193, y: 0.0372, z: -3.0101}
  - {x: -2.7201, y: 0, z: 1.6306}
  - {x: -2.7201, y: 0, z: 0.8115}
  - {x: -3.1106, y: 0, z: 1.6112}
  - {x: -2.3297, y: 0, z: 1.6745}
  - {x: -2.3297, y: 0, z: 0.8334}
  - {x: -2.7201, y: 0, z: -0.0076}
  - {x: -2.3297, y: 0, z: -0.0076}
  - {x: -2.7201, y: 0, z: -0.8267}
  - {x: -2.3297, y: 0, z: -0.8486}
  - {x: -2.7201, y: 0, z: -1.6458}
  - {x: -2.3297, y: 0, z: -1.6897}
  - {x: -1.9392, y: 0, z: 1.8499}
  - {x: -1.9392, y: 0, z: 0.9211}
  - {x: -1.9392, y: 0, z: -0.0076}
  - {x: -1.9392, y: 0, z: -0.9363}
  - {x: -1.9392, y: 0, z: -1.8651}
  - {x: -3.1106, y: 0, z: -1.6264}
  tmpFullMeshVecs:
  - {x: -1.5472, y: 0, z: -3.012}
  - {x: -1.5078, y: 0.0383, z: 2.8979}
  - {x: -1.5027, y: 0.0372, z: -3.012}
  - {x: -1.5469, y: 0, z: -2.3277}
  - {x: -1.546, y: 0, z: -1.1666}
  - {x: -1.5463, y: 0, z: -0.0076}
  - {x: -1.5443, y: 0, z: 1.1563}
  - {x: -1.5437, y: 0, z: 2.3118}
  - {x: -1.5428, y: 0, z: 2.8979}
  - {x: 1.3589, y: 0, z: -3.0101}
  - {x: 1.3203, y: 0.038, z: 2.8775}
  - {x: 1.3594, y: -0.0003, z: 2.8775}
  - {x: 1.3193, y: 0.0372, z: -3.0101}
  - {x: -2.7201, y: 0, z: 1.6306}
  - {x: -2.7201, y: 0, z: 0.8115}
  - {x: -3.1106, y: 0, z: 1.6112}
  - {x: -2.3297, y: 0, z: 1.6745}
  - {x: -2.3297, y: 0, z: 0.8334}
  - {x: -2.7201, y: 0, z: -0.0076}
  - {x: -2.3297, y: 0, z: -0.0076}
  - {x: -2.7201, y: 0, z: -0.8267}
  - {x: -2.3297, y: 0, z: -0.8486}
  - {x: -2.7201, y: 0, z: -1.6458}
  - {x: -2.3297, y: 0, z: -1.6897}
  - {x: -1.9392, y: 0, z: 1.8499}
  - {x: -1.9392, y: 0, z: 0.9211}
  - {x: -1.9392, y: 0, z: -0.0076}
  - {x: -1.9392, y: 0, z: -0.9363}
  - {x: -1.9392, y: 0, z: -1.8651}
  - {x: -1.5437, y: 0, z: 2.3118}
  - {x: -1.5443, y: 0, z: 1.1563}
  - {x: -1.5463, y: 0, z: -0.0076}
  - {x: -1.546, y: 0, z: -1.1666}
  - {x: -1.5469, y: 0, z: -2.3277}
  - {x: -3.1106, y: 0, z: -1.6264}
  - {x: 1.3203, y: 0.038, z: 2.8775}
  - {x: 1.3193, y: 0.0372, z: -3.0101}
  - {x: -1.5027, y: 0.0372, z: -3.012}
  - {x: -1.5078, y: 0.0383, z: 2.8979}
  tCrossingTmpFullMeshVecs: []
  outerVecInts: 
  surfaceVecs:
  - {x: -3.1106, y: 0, z: 1.6112}
  - {x: -2.7201, y: 0, z: 1.6306}
  - {x: -2.3297, y: 0, z: 1.6745}
  - {x: -1.9392, y: 0, z: 1.8499}
  - {x: -1.5437, y: 0, z: 2.3118}
  - {x: -1.5428, y: 0, z: 2.8979}
  - {x: 1.3594, y: 0, z: 2.8775}
  - {x: 1.3589, y: 0, z: -3.0101}
  - {x: -1.5472, y: 0, z: -3.012}
  - {x: -1.5469, y: 0, z: -2.3277}
  - {x: -1.9392, y: 0, z: -1.8651}
  - {x: -2.3297, y: 0, z: -1.6897}
  - {x: -2.7201, y: 0, z: -1.6458}
  - {x: -3.1106, y: 0, z: -1.6264}
  surfaceVecType: 0100000000000000000000000000000000000000020000000100000002000000010000000000000000000000000000000000000002000000
  surfaceConnectionInt: 0100000001000000010000000100000001000000020000000200000000000000000000000000000000000000000000000000000001000000
  tCrossingBlendData: []
  indentVecs: []
  sourcePrefab: {fileID: 0}
  prefabId: 8
  prioritySegments: 
  minNodeDistance: 3
  nodeWithinRange: -1
  sourceObject: {fileID: 100002, guid: 32fb90a5d267dc549bd3dc97b9cb7f63, type: 2}
  meshInstance: 0
  selectedConnection: -1
  QDOOOQOOQQQQD: []
  deformTerrain: 1
  isRoundabout: 0
  isERCrossing: 0
  isIConnector: 0
  roundaboutScript: {fileID: 0}
  crossingsScript: {fileID: 0}
  isCustomPrefab: 1
  customPrefabVersion: 0
  recalculateNormals: 0
  planarUVs: 0
  planarTiling: 1
  lastVecRoadIndex: 0
  isSceneObject: 1
  surfaceObject: {fileID: 0}
  surfaceMeshVecs: []
  tmpSurfaceMeshVecs: []
  tmpSurfaceVecsTCrossings: []
  surfaceInts: 
  leftBottomCorner: {x: 0, y: 0, z: 0}
  leftTopCorner: {x: 0, y: 0, z: 0}
  rightBottomCorner: {x: 0, y: 0, z: 0}
  rightTopCorner: {x: 0, y: 0, z: 0}
  tCrossing: 0
  tStraightBending: 1
  tCrossingLeftRight: 1
  tMainRoadWidth: 0
  tConnectionRoadWidth: 0
  bottomLeftSidewalkWidth: 0
  bottomLeftSidewalkOuterOffset: 0
  bottomLeftSidewalkCurbDepth: 0
  bottomRightSidewalkWidth: 0
  bottomRightSidewalkOuterOffset: 0
  bottomRightSidewalkCurbDepth: 0
  topLeftSidewalkWidth: 0
  topLeftSidewalkOuterOffset: 0
  topLeftSidewalkCurbDepth: 0
  topRightSidewalkWidth: 0
  topRightSidewalkOuterOffset: 0
  topRightSidewalkCurbDepth: 0
  testVec: {x: 0, y: 0, z: 0}
  surfaceSurroundingInts: 
  rotationPriorityElement: -1
  cornerPos: {x: 0, y: 0, z: 0}
  mainCorner: {x: 0, y: 0, z: 0}
  connectedCorner: {x: 0, y: 0, z: 0}
  mainVecOuter: {x: 0, y: 0, z: 0}
  connectionVecOuter: {x: 0, y: 0, z: 0}
  indentTopVec: {x: 0, y: 0, z: 0}
  indentRightVec: {x: 0, y: 0, z: 0}
  mainIndent: {x: 0, y: 0, z: 0}
  connectionIndent: {x: 0, y: 0, z: 0}
  selectedRotationConnection: 0
  bottomVec: {x: 0, y: 0, z: 0}
  rightVec: {x: 0, y: 0, z: 0}
  bottomIndent: {x: 0, y: 0, z: 0}
  rightIndent: {x: 0, y: 0, z: 0}
  sAngle: 90
  baseScript: {fileID: 0}
  QDQDQOOQQDQOQQ: 0
  tp1: {x: 0, y: 0, z: 0}
  tp2: {x: 0, y: 0, z: 0}
  doTerrainDeformation: 1
  includeOuterVertices: 1
  surroundingDistance: 0
  surfaceMesh: {fileID: 0}
  debugVecs1: []
  debugVecs2: []
  lightmapAdjusted: 0
--- !u!1001 &100100000
Prefab:
  m_ObjectHideFlags: 1
  serializedVersion: 2
  m_Modification:
    m_TransformParent: {fileID: 0}
    m_Modifications:
    - target: {fileID: 0}
      propertyPath: prefabId
      value: 8
      objectReference: {fileID: 0}
    m_RemovedComponents: []
  m_ParentPrefab: {fileID: 0}
  m_RootGameObject: {fileID: 117192}
  m_IsPrefabParent: 1
