%YAML 1.1
%TAG !u! tag:unity3d.com,2011:
--- !u!1 &157808
GameObject:
  m_ObjectHideFlags: 0
  m_PrefabParentObject: {fileID: 0}
  m_PrefabInternal: {fileID: 100100000}
  serializedVersion: 5
  m_Component:
  - component: {fileID: 461436}
  - component: {fileID: 11486300}
  - component: {fileID: 3396664}
  - component: {fileID: 2306732}
  - component: {fileID: 6401796}
  m_Layer: 0
  m_Name: single lane sidewalk switch prefab
  m_TagString: Untagged
  m_Icon: {fileID: 0}
  m_NavMeshLayer: 0
  m_StaticEditorFlags: 0
  m_IsActive: 1
--- !u!4 &461436
Transform:
  m_ObjectHideFlags: 1
  m_PrefabParentObject: {fileID: 0}
  m_PrefabInternal: {fileID: 100100000}
  m_GameObject: {fileID: 157808}
  m_LocalRotation: {x: 0, y: 0, z: 0, w: 1}
  m_LocalPosition: {x: 0, y: 0, z: 0}
  m_LocalScale: {x: 1, y: 1, z: 1}
  m_Children: []
  m_Father: {fileID: 0}
  m_RootOrder: 0
  m_LocalEulerAnglesHint: {x: 0, y: 0, z: 0}
--- !u!23 &2306732
MeshRenderer:
  m_ObjectHideFlags: 1
  m_PrefabParentObject: {fileID: 0}
  m_PrefabInternal: {fileID: 100100000}
  m_GameObject: {fileID: 157808}
  m_Enabled: 1
  m_CastShadows: 1
  m_ReceiveShadows: 1
  m_MotionVectors: 1
  m_LightProbeUsage: 0
  m_ReflectionProbeUsage: 1
  m_Materials:
  - {fileID: 2100000, guid: c6a03ff679a561c46a80405576b314c7, type: 2}
  m_StaticBatchInfo:
    firstSubMesh: 0
    subMeshCount: 0
  m_StaticBatchRoot: {fileID: 0}
  m_ProbeAnchor: {fileID: 0}
  m_LightProbeVolumeOverride: {fileID: 0}
  m_ScaleInLightmap: 1
  m_PreserveUVs: 0
  m_IgnoreNormalsForChartDetection: 0
  m_ImportantGI: 0
  m_SelectedEditorRenderState: 3
  m_MinimumChartSize: 4
  m_AutoUVMaxDistance: 0.5
  m_AutoUVMaxAngle: 89
  m_LightmapParameters: {fileID: 0}
  m_SortingLayerID: 0
  m_SortingLayer: 0
  m_SortingOrder: 0
--- !u!33 &3396664
MeshFilter:
  m_ObjectHideFlags: 1
  m_PrefabParentObject: {fileID: 0}
  m_PrefabInternal: {fileID: 100100000}
  m_GameObject: {fileID: 157808}
  m_Mesh: {fileID: 4300000, guid: e6e43e283e056034695a1107f56c85ad, type: 2}
--- !u!64 &6401796
MeshCollider:
  m_ObjectHideFlags: 1
  m_PrefabParentObject: {fileID: 0}
  m_PrefabInternal: {fileID: 100100000}
  m_GameObject: {fileID: 157808}
  m_Material: {fileID: 0}
  m_IsTrigger: 0
  m_Enabled: 1
  serializedVersion: 2
  m_Convex: 0
  m_InflateMesh: 0
  m_SkinWidth: 0.01
  m_Mesh: {fileID: 4300000, guid: e6e43e283e056034695a1107f56c85ad, type: 2}
--- !u!114 &11486300
MonoBehaviour:
  m_ObjectHideFlags: 1
  m_PrefabParentObject: {fileID: 0}
  m_PrefabInternal: {fileID: 100100000}
  m_GameObject: {fileID: 157808}
  m_Enabled: 1
  m_EditorHideFlags: 0
  m_Script: {fileID: -2039104457, guid: f56d46228aee4734f9114056c53bb57e, type: 3}
  m_Name: 
  m_EditorClassIdentifier: 
  crossingElements:
  - centerPoint: {x: 0.061500013, y: 0, z: -3.8271499}
    tmpCenterPoint: {x: 0.061500013, y: 0, z: -3.8271499}
    stageCenterPoint: {x: 0.061500013, y: 0, z: 0}
    tmpStageCenterPoint: {x: 0.061500013, y: 0, z: 0}
    blendData: []
    controlPointV3: {x: 0.056269933, y: 0, z: 4.1728487}
    controlPoint: {x: 0.056269933, y: 4.1728487}
    blendDistance: 0
    extendBounds: 0
    blendCornerPoints:
    - {x: -1.3916, y: -3.8281, z: 0}
    - {x: -1.3916, y: -3.8281, z: 0}
    - {x: 1.5146, y: -3.8262, z: 0}
    - {x: 1.5146, y: -3.8262, z: 0}
    blendCornerPointInts: 45000000010000004400000003000000410000003f000000
    blendCornerPointWeights:
    - 0
    - 0
    - 0
    - 0
    - 0
    - 0
    blendCornerPointsTransformed:
    - {x: 284.19165, y: 491.61804, z: 0}
    - {x: 284.19165, y: 491.61804, z: 0}
    - {x: 417.18506, y: 491.5311, z: 0}
    - {x: 417.18506, y: 491.5311, z: 0}
    blendRatio: 1
    curveStrength: 0
    roadShapeVecs:
    - {x: -1.4531003, y: 0}
    - {x: -1.4086003, y: 0.0372}
    - {x: 1.3957001, y: 0.0372}
    - {x: 1.4530998, y: 0}
    roadShapeVecsString: -1.5, 0;-1.4, 0;1.4, 0;1.5, 0;
    roadShapeMatchCount: 4
    roadShapeUVY:
    - 0
    - 0.019790748
    - 0.97666085
    - 1
    roadShapeUVY2: []
    hardEdge: 
    roadShapeMaterialInts: 00000000000000000000000000000000
    sidewalkLeftVecs: []
    sidewalkLeftUVY: []
    sidewalkLeftMaterialInts: 
    sidewalkRightVecs: []
    sidewalkRightUVY: []
    sidewalkRightMaterialInts: 
    connectionVecs: []
    connectionVecInts: 27000000010000000300000026000000
    fullConnectionVecInts: 45000000010000004400000003000000410000003f000000
    sidewalkLeftConnectionVecInts: 
    sidewalkRightConnectionVecInts: 
    doConnectionTri: 
    outerVecInts: 
    rotationPriority: 0
    centerPointAngle: 1000
    connectedRoad: {fileID: 0}
    connectedMarker: -1
    connectedRoadGO: {fileID: 0}
    includeLeftSidewalk: 1
    includeRightSidewalk: 1
    roadMaterial: {fileID: 2100000, guid: 457721ffb8c406d439987407c3c4d818, type: 2}
    roadMaterials:
    - {fileID: 2100000, guid: 457721ffb8c406d439987407c3c4d818, type: 2}
    centerPointPercentage: 0.5
    leftIndent: -1
    rightIndent: -1
    leftSurrounding: -1
    rightSurrounding: -1
    leftIndentV3: {x: 0, y: 0, z: 0}
    leftSurroundingV3: {x: 0, y: 0, z: 0}
    rightIndentV3: {x: 0, y: 0, z: 0}
    rightSurroundingV3: {x: 0, y: 0, z: 0}
    leftCornerInt: -1
    rightCornerInt: -1
    leftIndentInt: 10
    rightIndentInt: 9
    leftInt: 0
    rightInt: 0
    leftIntFull: 0
    rightIntFull: 0
    alignmentHandleVec: {x: 0.059538733, y: 0, z: -0.82715034}
    additionalIndentDistance: 0
    connectionAngle: 0
    alignmentHandleVecRotationGizmo: {x: 0, y: 0, z: 0}
    roadType: 0
    roadTypeTimestamp: 0
  - centerPoint: {x: 0.08424997, y: 0, z: 2.44135}
    tmpCenterPoint: {x: 0.08424997, y: 0, z: 2.44135}
    stageCenterPoint: {x: 0.08424997, y: 0, z: 0}
    tmpStageCenterPoint: {x: 0.08424997, y: 0, z: 0}
    blendData: []
    controlPointV3: {x: 0.07226478, y: 0, z: -5.558641}
    controlPoint: {x: 0.07226478, y: -5.558641}
    blendDistance: 0
    extendBounds: 0
    blendCornerPoints:
    - {x: 5.324, y: 2.4335, z: 0}
    - {x: 5.324, y: 2.4335, z: 0}
    - {x: -5.1555, y: 2.4492, z: 0}
    - {x: -5.1555, y: 2.4492, z: 0}
    blendCornerPointInts: 210000001f0000001d000000060000000a0000001b000000080000000e00000017000000150000001300000018000000
    blendCornerPointWeights:
    - 0
    - 0
    - 0
    - 0
    - 0
    - 0
    - 0
    - 0
    - 0
    - 0
    - 0
    - 0
    blendCornerPointsTransformed:
    - {x: 591.5106, y: 205.07498, z: 0}
    - {x: 591.5106, y: 205.07498, z: 0}
    - {x: 111.948235, y: 204.35654, z: 0}
    - {x: 111.948235, y: 204.35654, z: 0}
    blendRatio: 1
    curveStrength: 0
    roadShapeVecs:
    - {x: -5.2397556, y: 0.0766}
    - {x: -2.364941, y: 0.0857}
    - {x: -2.1147234, y: 0.0745}
    - {x: -1.8511925, y: 0.0047}
    - {x: 1.8687811, y: 0.005}
    - {x: 2.1173658, y: 0.0938}
    - {x: 2.3300571, y: 0.0938}
    - {x: 5.240036, y: 0.0938}
    roadShapeVecsString: -5.2, 0.1;-2.4, 0.1;-2.1, 0.1;-1.9, 0;1.9, 0;2.1, 0.1;2.3,
      0.1;5.2, 0.1;
    roadShapeMatchCount: 8
    roadShapeUVY:
    - 0
    - 0.27367523
    - 0.29751903
    - 0.32347146
    - 0.67760193
    - 0.702731
    - 0.7229786
    - 1
    roadShapeUVY2: []
    hardEdge: 
    roadShapeMaterialInts: 0000000000000000000000000000000000000000000000000000000000000000
    sidewalkLeftVecs: []
    sidewalkLeftUVY: []
    sidewalkLeftMaterialInts: 
    sidewalkRightVecs: []
    sidewalkRightUVY: []
    sidewalkRightMaterialInts: 
    connectionVecs: []
    connectionVecInts: 1900000017000000150000000600000007000000110000000f00000012000000
    fullConnectionVecInts: 210000001f0000001d000000060000000a0000001b000000080000000e00000017000000150000001300000018000000
    sidewalkLeftConnectionVecInts: 
    sidewalkRightConnectionVecInts: 
    doConnectionTri: 
    outerVecInts: 
    rotationPriority: 0
    centerPointAngle: 1000
    connectedRoad: {fileID: 0}
    connectedMarker: -1
    connectedRoadGO: {fileID: 0}
    includeLeftSidewalk: 1
    includeRightSidewalk: 1
    roadMaterial: {fileID: 2100000, guid: c6a03ff679a561c46a80405576b314c7, type: 2}
    roadMaterials:
    - {fileID: 2100000, guid: c6a03ff679a561c46a80405576b314c7, type: 2}
    centerPointPercentage: 0.5
    leftIndent: -1
    rightIndent: -1
    leftSurrounding: -1
    rightSurrounding: -1
    leftIndentV3: {x: 0, y: 0, z: 0}
    leftSurroundingV3: {x: 0, y: 0, z: 0}
    rightIndentV3: {x: 0, y: 0, z: 0}
    rightSurroundingV3: {x: 0, y: 0, z: 0}
    leftCornerInt: -1
    rightCornerInt: -1
    leftIndentInt: 1
    rightIndentInt: 0
    leftInt: 0
    rightInt: 0
    leftIntFull: 0
    rightIntFull: 0
    alignmentHandleVec: {x: 0, y: 0, z: 0}
    additionalIndentDistance: 0
    connectionAngle: 0
    alignmentHandleVecRotationGizmo: {x: 0, y: 0, z: 0}
    roadType: 0
    roadTypeTimestamp: 0
  sidewalkControlElements: []
  meshVecs:
  - {x: 1.4855, y: 0.0212, z: -2.3058}
  - {x: -1.3471, y: 0.0372, z: -3.8281}
  - {x: -1.3547, y: 0.0215, z: -2.3107}
  - {x: 1.4572, y: 0.0372, z: -3.8262}
  - {x: 1.5408, y: 0.0047, z: 2.0614}
  - {x: -1.3425, y: 0.005, z: 2.0818}
  - {x: 1.9363, y: 0.0047, z: 2.434}
  - {x: -1.7841, y: 0.005, z: 2.4545}
  - {x: 1.9761, y: 0.0021, z: -1.8997}
  - {x: 1.5146, y: 0, z: -2.3082}
  - {x: 1.9761, y: 0.002, z: -2.3011}
  - {x: -1.7728, y: 0.0021, z: -1.9011}
  - {x: -1.3916, y: 0, z: -2.3101}
  - {x: -1.7743, y: 0.0021, z: -2.3097}
  - {x: -2.2511, y: 0.0877, z: -1.9039}
  - {x: -2.2454, y: 0.0938, z: 2.4554}
  - {x: -2.0188, y: 0.0868, z: -1.9039}
  - {x: -2.0327, y: 0.0938, z: 2.4537}
  - {x: -5.1555, y: 0.0938, z: 2.4492}
  - {x: -5.1553, y: 0.0921, z: -1.9036}
  - {x: 2.2238, y: 0.0921, z: -1.8986}
  - {x: 2.1999, y: 0.0745, z: 2.4312}
  - {x: 2.438, y: 0.0921, z: -1.8985}
  - {x: 2.4502, y: 0.0857, z: 2.4316}
  - {x: 5.3467, y: 0.0921, z: -1.9002}
  - {x: 5.324, y: 0.0766, z: 2.4335}
  - {x: 5.3467, y: 0.0921, z: -2.1076}
  - {x: 2.438, y: 0.0921, z: -2.1059}
  - {x: 5.3467, y: 0.005, z: -2.3016}
  - {x: 2.438, y: 0.005, z: -2.2999}
  - {x: 2.2238, y: 0.0921, z: -2.106}
  - {x: 2.2238, y: 0.005, z: -2.3}
  - {x: -2.2511, y: 0.0877, z: -2.1185}
  - {x: -5.1553, y: 0.0921, z: -2.1182}
  - {x: -5.1553, y: 0.005, z: -2.3122}
  - {x: -2.2511, y: 0.0006, z: -2.3124}
  - {x: -2.0188, y: 0.0868, z: -2.1185}
  - {x: -2.0188, y: -0.0003, z: -2.3124}
  - {x: 1.5146, y: 0, z: -3.8262}
  - {x: -1.3916, y: 0, z: -3.8281}
  fullMeshVecs:
  - {x: 1.4855, y: 0.0212, z: -2.3058}
  - {x: -1.3471, y: 0.0372, z: -3.8281}
  - {x: -1.3547, y: 0.0215, z: -2.3107}
  - {x: 1.4572, y: 0.0372, z: -3.8262}
  - {x: 1.5408, y: 0.0047, z: 2.0614}
  - {x: -1.3425, y: 0.005, z: 2.0818}
  - {x: 1.9363, y: 0.0047, z: 2.434}
  - {x: -1.3425, y: 0.005, z: 2.0818}
  - {x: -1.7841, y: 0.005, z: 2.4545}
  - {x: 1.5408, y: 0.0047, z: 2.0614}
  - {x: 1.9363, y: 0.0047, z: 2.434}
  - {x: 1.9761, y: 0.0021, z: -1.8997}
  - {x: 1.5146, y: 0, z: -2.3082}
  - {x: 1.9761, y: 0.002, z: -2.3011}
  - {x: -1.7841, y: 0.005, z: 2.4545}
  - {x: -1.7728, y: 0.0021, z: -1.9011}
  - {x: -1.3916, y: 0, z: -2.3101}
  - {x: -1.7743, y: 0.0021, z: -2.3097}
  - {x: -2.2511, y: 0.0877, z: -1.9039}
  - {x: -2.2454, y: 0.0938, z: 2.4554}
  - {x: -2.0188, y: 0.0868, z: -1.9039}
  - {x: -2.0327, y: 0.0938, z: 2.4537}
  - {x: -1.7728, y: 0.0021, z: -1.9011}
  - {x: -1.7841, y: 0.005, z: 2.4545}
  - {x: -5.1555, y: 0.0938, z: 2.4492}
  - {x: -5.1553, y: 0.0921, z: -1.9036}
  - {x: 1.9761, y: 0.0021, z: -1.8997}
  - {x: 1.9363, y: 0.0047, z: 2.434}
  - {x: 2.2238, y: 0.0921, z: -1.8986}
  - {x: 2.1999, y: 0.0745, z: 2.4312}
  - {x: 2.438, y: 0.0921, z: -1.8985}
  - {x: 2.4502, y: 0.0857, z: 2.4316}
  - {x: 5.3467, y: 0.0921, z: -1.9002}
  - {x: 5.324, y: 0.0766, z: 2.4335}
  - {x: 5.3467, y: 0.0921, z: -2.1076}
  - {x: 2.438, y: 0.0921, z: -1.8985}
  - {x: 5.3467, y: 0.0921, z: -1.9002}
  - {x: 2.438, y: 0.0921, z: -2.1059}
  - {x: 5.3467, y: 0.005, z: -2.3016}
  - {x: 2.438, y: 0.005, z: -2.2999}
  - {x: 2.2238, y: 0.0921, z: -2.106}
  - {x: 2.2238, y: 0.005, z: -2.3}
  - {x: 1.9761, y: 0.002, z: -2.3011}
  - {x: 2.2238, y: 0.0921, z: -2.106}
  - {x: 1.9761, y: 0.0021, z: -1.8997}
  - {x: 2.2238, y: 0.0921, z: -1.8986}
  - {x: 1.9761, y: 0.002, z: -2.3011}
  - {x: 2.438, y: 0.0921, z: -1.8985}
  - {x: -2.2511, y: 0.0877, z: -2.1185}
  - {x: -5.1553, y: 0.0921, z: -1.9036}
  - {x: -2.2511, y: 0.0877, z: -1.9039}
  - {x: -5.1553, y: 0.0921, z: -2.1182}
  - {x: -5.1553, y: 0.005, z: -2.3122}
  - {x: -2.2511, y: 0.0006, z: -2.3124}
  - {x: -2.0188, y: 0.0868, z: -2.1185}
  - {x: -2.0188, y: -0.0003, z: -2.3124}
  - {x: -1.7743, y: 0.0021, z: -2.3097}
  - {x: -2.0188, y: 0.0868, z: -2.1185}
  - {x: -2.2511, y: 0.0877, z: -1.9039}
  - {x: -2.0188, y: 0.0868, z: -1.9039}
  - {x: -1.7728, y: 0.0021, z: -1.9011}
  - {x: -1.7743, y: 0.0021, z: -2.3097}
  - {x: 1.5146, y: 0, z: -2.3082}
  - {x: 1.5146, y: 0, z: -3.8262}
  - {x: 1.4855, y: 0.0212, z: -2.3058}
  - {x: 1.4572, y: 0.0372, z: -3.8262}
  - {x: 1.5408, y: 0.0047, z: 2.0614}
  - {x: -1.3916, y: 0, z: -2.3101}
  - {x: -1.3471, y: 0.0372, z: -3.8281}
  - {x: -1.3916, y: 0, z: -3.8281}
  - {x: -1.3547, y: 0.0215, z: -2.3107}
  - {x: -1.3425, y: 0.005, z: 2.0818}
  tmpMeshVecs:
  - {x: 1.4855, y: 0.0212, z: -2.3058}
  - {x: -1.3471, y: 0.0372, z: -3.8281}
  - {x: -1.3547, y: 0.0215, z: -2.3107}
  - {x: 1.4572, y: 0.0372, z: -3.8262}
  - {x: 1.5408, y: 0.0047, z: 2.0614}
  - {x: -1.3425, y: 0.005, z: 2.0818}
  - {x: 1.9363, y: 0.0047, z: 2.434}
  - {x: -1.7841, y: 0.005, z: 2.4545}
  - {x: 1.9761, y: 0.0021, z: -1.8997}
  - {x: 1.5146, y: 0, z: -2.3082}
  - {x: 1.9761, y: 0.002, z: -2.3011}
  - {x: -1.7728, y: 0.0021, z: -1.9011}
  - {x: -1.3916, y: 0, z: -2.3101}
  - {x: -1.7743, y: 0.0021, z: -2.3097}
  - {x: -2.2511, y: 0.0877, z: -1.9039}
  - {x: -2.2454, y: 0.0938, z: 2.4554}
  - {x: -2.0188, y: 0.0868, z: -1.9039}
  - {x: -2.0327, y: 0.0938, z: 2.4537}
  - {x: -5.1555, y: 0.0938, z: 2.4492}
  - {x: -5.1553, y: 0.0921, z: -1.9036}
  - {x: 2.2238, y: 0.0921, z: -1.8986}
  - {x: 2.1999, y: 0.0745, z: 2.4312}
  - {x: 2.438, y: 0.0921, z: -1.8985}
  - {x: 2.4502, y: 0.0857, z: 2.4316}
  - {x: 5.3467, y: 0.0921, z: -1.9002}
  - {x: 5.324, y: 0.0766, z: 2.4335}
  - {x: 5.3467, y: 0.0921, z: -2.1076}
  - {x: 2.438, y: 0.0921, z: -2.1059}
  - {x: 5.3467, y: 0.005, z: -2.3016}
  - {x: 2.438, y: 0.005, z: -2.2999}
  - {x: 2.2238, y: 0.0921, z: -2.106}
  - {x: 2.2238, y: 0.005, z: -2.3}
  - {x: -2.2511, y: 0.0877, z: -2.1185}
  - {x: -5.1553, y: 0.0921, z: -2.1182}
  - {x: -5.1553, y: 0.005, z: -2.3122}
  - {x: -2.2511, y: 0.0006, z: -2.3124}
  - {x: -2.0188, y: 0.0868, z: -2.1185}
  - {x: -2.0188, y: -0.0003, z: -2.3124}
  - {x: 1.5146, y: 0, z: -3.8262}
  - {x: -1.3916, y: 0, z: -3.8281}
  tmpFullMeshVecs:
  - {x: 1.4855, y: 0.0212, z: -2.3058}
  - {x: -1.3471, y: 0.0372, z: -3.8281}
  - {x: -1.3547, y: 0.0215, z: -2.3107}
  - {x: 1.4572, y: 0.0372, z: -3.8262}
  - {x: 1.5408, y: 0.0047, z: 2.0614}
  - {x: -1.3425, y: 0.005, z: 2.0818}
  - {x: 1.9363, y: 0.0047, z: 2.434}
  - {x: -1.3425, y: 0.005, z: 2.0818}
  - {x: -1.7841, y: 0.005, z: 2.4545}
  - {x: 1.5408, y: 0.0047, z: 2.0614}
  - {x: 1.9363, y: 0.0047, z: 2.434}
  - {x: 1.9761, y: 0.0021, z: -1.8997}
  - {x: 1.5146, y: 0, z: -2.3082}
  - {x: 1.9761, y: 0.002, z: -2.3011}
  - {x: -1.7841, y: 0.005, z: 2.4545}
  - {x: -1.7728, y: 0.0021, z: -1.9011}
  - {x: -1.3916, y: 0, z: -2.3101}
  - {x: -1.7743, y: 0.0021, z: -2.3097}
  - {x: -2.2511, y: 0.0877, z: -1.9039}
  - {x: -2.2454, y: 0.0938, z: 2.4554}
  - {x: -2.0188, y: 0.0868, z: -1.9039}
  - {x: -2.0327, y: 0.0938, z: 2.4537}
  - {x: -1.7728, y: 0.0021, z: -1.9011}
  - {x: -1.7841, y: 0.005, z: 2.4545}
  - {x: -5.1555, y: 0.0938, z: 2.4492}
  - {x: -5.1553, y: 0.0921, z: -1.9036}
  - {x: 1.9761, y: 0.0021, z: -1.8997}
  - {x: 1.9363, y: 0.0047, z: 2.434}
  - {x: 2.2238, y: 0.0921, z: -1.8986}
  - {x: 2.1999, y: 0.0745, z: 2.4312}
  - {x: 2.438, y: 0.0921, z: -1.8985}
  - {x: 2.4502, y: 0.0857, z: 2.4316}
  - {x: 5.3467, y: 0.0921, z: -1.9002}
  - {x: 5.324, y: 0.0766, z: 2.4335}
  - {x: 5.3467, y: 0.0921, z: -2.1076}
  - {x: 2.438, y: 0.0921, z: -1.8985}
  - {x: 5.3467, y: 0.0921, z: -1.9002}
  - {x: 2.438, y: 0.0921, z: -2.1059}
  - {x: 5.3467, y: 0.005, z: -2.3016}
  - {x: 2.438, y: 0.005, z: -2.2999}
  - {x: 2.2238, y: 0.0921, z: -2.106}
  - {x: 2.2238, y: 0.005, z: -2.3}
  - {x: 1.9761, y: 0.002, z: -2.3011}
  - {x: 2.2238, y: 0.0921, z: -2.106}
  - {x: 1.9761, y: 0.0021, z: -1.8997}
  - {x: 2.2238, y: 0.0921, z: -1.8986}
  - {x: 1.9761, y: 0.002, z: -2.3011}
  - {x: 2.438, y: 0.0921, z: -1.8985}
  - {x: -2.2511, y: 0.0877, z: -2.1185}
  - {x: -5.1553, y: 0.0921, z: -1.9036}
  - {x: -2.2511, y: 0.0877, z: -1.9039}
  - {x: -5.1553, y: 0.0921, z: -2.1182}
  - {x: -5.1553, y: 0.005, z: -2.3122}
  - {x: -2.2511, y: 0.0006, z: -2.3124}
  - {x: -2.0188, y: 0.0868, z: -2.1185}
  - {x: -2.0188, y: -0.0003, z: -2.3124}
  - {x: -1.7743, y: 0.0021, z: -2.3097}
  - {x: -2.0188, y: 0.0868, z: -2.1185}
  - {x: -2.2511, y: 0.0877, z: -1.9039}
  - {x: -2.0188, y: 0.0868, z: -1.9039}
  - {x: -1.7728, y: 0.0021, z: -1.9011}
  - {x: -1.7743, y: 0.0021, z: -2.3097}
  - {x: 1.5146, y: 0, z: -2.3082}
  - {x: 1.5146, y: 0, z: -3.8262}
  - {x: 1.4855, y: 0.0212, z: -2.3058}
  - {x: 1.4572, y: 0.0372, z: -3.8262}
  - {x: 1.5408, y: 0.0047, z: 2.0614}
  - {x: -1.3916, y: 0, z: -2.3101}
  - {x: -1.3471, y: 0.0372, z: -3.8281}
  - {x: -1.3916, y: 0, z: -3.8281}
  - {x: -1.3547, y: 0.0215, z: -2.3107}
  - {x: -1.3425, y: 0.005, z: 2.0818}
  tCrossingTmpFullMeshVecs: []
  outerVecInts: 
  surfaceVecs:
  - {x: -5.1555, y: 0, z: 2.4492}
  - {x: 5.324, y: 0, z: 2.4335}
  - {x: 5.3467, y: 0, z: -1.9002}
  - {x: 5.3467, y: 0, z: -2.1076}
  - {x: 5.3467, y: 0, z: -2.3016}
  - {x: 2.438, y: 0, z: -2.2999}
  - {x: 2.2238, y: 0, z: -2.3}
  - {x: 1.9761, y: 0, z: -2.3011}
  - {x: 1.5146, y: 0, z: -2.3082}
  - {x: 1.5146, y: 0, z: -3.8262}
  - {x: -1.3916, y: 0, z: -3.8281}
  - {x: -1.3916, y: 0, z: -2.3101}
  - {x: -1.7743, y: 0, z: -2.3097}
  - {x: -2.0188, y: 0, z: -2.3124}
  - {x: -2.2511, y: 0, z: -2.3124}
  - {x: -5.1553, y: 0, z: -2.3122}
  - {x: -5.1553, y: 0, z: -2.1182}
  - {x: -5.1553, y: 0, z: -1.9036}
  surfaceVecType: 020000000100000000000000000000000000000000000000000000000000000000000000020000000100000000000000000000000000000000000000000000000000000000000000
  surfaceConnectionInt: 010000000100000001000000010000000100000001000000010000000100000001000000000000000000000000000000000000000000000000000000000000000000000000000000
  tCrossingBlendData: []
  indentVecs: []
  sourcePrefab: {fileID: 0}
  prefabId: 9
  prioritySegments: 
  minNodeDistance: 3
  nodeWithinRange: -1
  sourceObject: {fileID: 100002, guid: 41417c235b418574a9a1dc4f7842c466, type: 2}
  meshInstance: 0
  selectedConnection: -1
  QDOOOQOOQQQQD: []
  deformTerrain: 1
  isRoundabout: 0
  isERCrossing: 0
  isIConnector: 0
  roundaboutScript: {fileID: 0}
  crossingsScript: {fileID: 0}
  isCustomPrefab: 1
  customPrefabVersion: 0
  recalculateNormals: 0
  planarUVs: 0
  planarTiling: 1
  lastVecRoadIndex: 0
  isSceneObject: 1
  surfaceObject: {fileID: 0}
  surfaceMeshVecs: []
  tmpSurfaceMeshVecs: []
  tmpSurfaceVecsTCrossings: []
  surfaceInts: 
  leftBottomCorner: {x: 0, y: 0, z: 0}
  leftTopCorner: {x: 0, y: 0, z: 0}
  rightBottomCorner: {x: 0, y: 0, z: 0}
  rightTopCorner: {x: 0, y: 0, z: 0}
  tCrossing: 0
  tStraightBending: 1
  tCrossingLeftRight: 1
  tMainRoadWidth: 0
  tConnectionRoadWidth: 0
  bottomLeftSidewalkWidth: 0
  bottomLeftSidewalkOuterOffset: 0
  bottomLeftSidewalkCurbDepth: 0
  bottomRightSidewalkWidth: 0
  bottomRightSidewalkOuterOffset: 0
  bottomRightSidewalkCurbDepth: 0
  topLeftSidewalkWidth: 0
  topLeftSidewalkOuterOffset: 0
  topLeftSidewalkCurbDepth: 0
  topRightSidewalkWidth: 0
  topRightSidewalkOuterOffset: 0
  topRightSidewalkCurbDepth: 0
  testVec: {x: 0, y: 0, z: 0}
  surfaceSurroundingInts: 
  rotationPriorityElement: -1
  cornerPos: {x: 0, y: 0, z: 0}
  mainCorner: {x: 0, y: 0, z: 0}
  connectedCorner: {x: 0, y: 0, z: 0}
  mainVecOuter: {x: 0, y: 0, z: 0}
  connectionVecOuter: {x: 0, y: 0, z: 0}
  indentTopVec: {x: 0, y: 0, z: 0}
  indentRightVec: {x: 0, y: 0, z: 0}
  mainIndent: {x: 0, y: 0, z: 0}
  connectionIndent: {x: 0, y: 0, z: 0}
  selectedRotationConnection: 0
  bottomVec: {x: 0, y: 0, z: 0}
  rightVec: {x: 0, y: 0, z: 0}
  bottomIndent: {x: 0, y: 0, z: 0}
  rightIndent: {x: 0, y: 0, z: 0}
  sAngle: 90
  baseScript: {fileID: 0}
  QDQDQOOQQDQOQQ: 0
  tp1: {x: 0, y: 0, z: 0}
  tp2: {x: 0, y: 0, z: 0}
  doTerrainDeformation: 1
  includeOuterVertices: 1
  surroundingDistance: 0
  surfaceMesh: {fileID: 0}
  debugVecs1: []
  debugVecs2: []
  lightmapAdjusted: 0
--- !u!1001 &100100000
Prefab:
  m_ObjectHideFlags: 1
  serializedVersion: 2
  m_Modification:
    m_TransformParent: {fileID: 0}
    m_Modifications:
    - target: {fileID: 0}
      propertyPath: prefabId
      value: 9
      objectReference: {fileID: 0}
    m_RemovedComponents: []
  m_ParentPrefab: {fileID: 0}
  m_RootGameObject: {fileID: 157808}
  m_IsPrefabParent: 1
