%YAML 1.1
%TAG !u! tag:unity3d.com,2011:
--- !u!1 &117048
GameObject:
  m_ObjectHideFlags: 1
  m_PrefabParentObject: {fileID: 0}
  m_PrefabInternal: {fileID: 100100000}
  serializedVersion: 5
  m_Component:
  - component: {fileID: 434482}
  - component: {fileID: 3378520}
  - component: {fileID: 2312200}
  m_Layer: 0
  m_Name: Signal
  m_TagString: Untagged
  m_Icon: {fileID: 0}
  m_NavMeshLayer: 0
  m_StaticEditorFlags: 0
  m_IsActive: 1
--- !u!1 &121830
GameObject:
  m_ObjectHideFlags: 1
  m_PrefabParentObject: {fileID: 0}
  m_PrefabInternal: {fileID: 100100000}
  serializedVersion: 5
  m_Component:
  - component: {fileID: 435206}
  - component: {fileID: 3370602}
  - component: {fileID: 2331882}
  m_Layer: 0
  m_Name: Signal Arm
  m_TagString: Untagged
  m_Icon: {fileID: 0}
  m_NavMeshLayer: 0
  m_StaticEditorFlags: 0
  m_IsActive: 1
--- !u!1 &122070
GameObject:
  m_ObjectHideFlags: 1
  m_PrefabParentObject: {fileID: 0}
  m_PrefabInternal: {fileID: 100100000}
  serializedVersion: 5
  m_Component:
  - component: {fileID: 449140}
  - component: {fileID: 3383398}
  - component: {fileID: 2359486}
  m_Layer: 0
  m_Name: Signal Arm
  m_TagString: Untagged
  m_Icon: {fileID: 0}
  m_NavMeshLayer: 0
  m_StaticEditorFlags: 0
  m_IsActive: 1
--- !u!1 &153468
GameObject:
  m_ObjectHideFlags: 0
  m_PrefabParentObject: {fileID: 0}
  m_PrefabInternal: {fileID: 100100000}
  serializedVersion: 5
  m_Component:
  - component: {fileID: 423448}
  - component: {fileID: 9582826}
  m_Layer: 0
  m_Name: RailRoadCrossingSignal (1)
  m_TagString: Untagged
  m_Icon: {fileID: 0}
  m_NavMeshLayer: 0
  m_StaticEditorFlags: 0
  m_IsActive: 1
--- !u!1 &184538
GameObject:
  m_ObjectHideFlags: 0
  m_PrefabParentObject: {fileID: 0}
  m_PrefabInternal: {fileID: 100100000}
  serializedVersion: 5
  m_Component:
  - component: {fileID: 431114}
  - component: {fileID: 11466006}
  - component: {fileID: 3322544}
  - component: {fileID: 2359898}
  - component: {fileID: 6426042}
  m_Layer: 0
  m_Name: Train Crossing Single Lane
  m_TagString: Untagged
  m_Icon: {fileID: 0}
  m_NavMeshLayer: 0
  m_StaticEditorFlags: 0
  m_IsActive: 1
--- !u!1 &186486
GameObject:
  m_ObjectHideFlags: 1
  m_PrefabParentObject: {fileID: 0}
  m_PrefabInternal: {fileID: 100100000}
  serializedVersion: 5
  m_Component:
  - component: {fileID: 439228}
  - component: {fileID: 3325072}
  - component: {fileID: 2327626}
  m_Layer: 0
  m_Name: Signal
  m_TagString: Untagged
  m_Icon: {fileID: 0}
  m_NavMeshLayer: 0
  m_StaticEditorFlags: 0
  m_IsActive: 1
--- !u!1 &188192
GameObject:
  m_ObjectHideFlags: 0
  m_PrefabParentObject: {fileID: 0}
  m_PrefabInternal: {fileID: 100100000}
  serializedVersion: 5
  m_Component:
  - component: {fileID: 453550}
  - component: {fileID: 9510342}
  m_Layer: 0
  m_Name: RailRoadCrossingSignal
  m_TagString: Untagged
  m_Icon: {fileID: 0}
  m_NavMeshLayer: 0
  m_StaticEditorFlags: 0
  m_IsActive: 1
--- !u!4 &423448
Transform:
  m_ObjectHideFlags: 1
  m_PrefabParentObject: {fileID: 0}
  m_PrefabInternal: {fileID: 100100000}
  m_GameObject: {fileID: 153468}
  m_LocalRotation: {x: 0, y: -0.7071068, z: 0, w: 0.7071068}
  m_LocalPosition: {x: -3, y: 0, z: -3}
  m_LocalScale: {x: 1, y: 1, z: 1}
  m_Children:
  - {fileID: 439228}
  - {fileID: 449140}
  m_Father: {fileID: 431114}
  m_RootOrder: 1
  m_LocalEulerAnglesHint: {x: 0, y: 0, z: 0}
--- !u!4 &431114
Transform:
  m_ObjectHideFlags: 1
  m_PrefabParentObject: {fileID: 0}
  m_PrefabInternal: {fileID: 100100000}
  m_GameObject: {fileID: 184538}
  m_LocalRotation: {x: 0, y: 0, z: 0, w: 1}
  m_LocalPosition: {x: 0, y: 0, z: 0}
  m_LocalScale: {x: 1, y: 1, z: 1}
  m_Children:
  - {fileID: 453550}
  - {fileID: 423448}
  m_Father: {fileID: 0}
  m_RootOrder: 0
  m_LocalEulerAnglesHint: {x: 0, y: 0, z: 0}
--- !u!4 &434482
Transform:
  m_ObjectHideFlags: 1
  m_PrefabParentObject: {fileID: 0}
  m_PrefabInternal: {fileID: 100100000}
  m_GameObject: {fileID: 117048}
  m_LocalRotation: {x: 0.000017552786, y: -0.000017479131, z: -0.70519215, w: 0.70901626}
  m_LocalPosition: {x: -0.19130202, y: 1.3885685, z: 0.19988327}
  m_LocalScale: {x: 1, y: 1, z: 1}
  m_Children: []
  m_Father: {fileID: 453550}
  m_RootOrder: 0
  m_LocalEulerAnglesHint: {x: 0, y: 0, z: 0}
--- !u!4 &435206
Transform:
  m_ObjectHideFlags: 1
  m_PrefabParentObject: {fileID: 0}
  m_PrefabInternal: {fileID: 100100000}
  m_GameObject: {fileID: 121830}
  m_LocalRotation: {x: -0.4952243, y: -0.5047306, z: 0.5047306, w: 0.4952243}
  m_LocalPosition: {x: -0.191302, y: 1.3885685, z: 0.19988327}
  m_LocalScale: {x: 1, y: 1, z: 1}
  m_Children: []
  m_Father: {fileID: 453550}
  m_RootOrder: 1
  m_LocalEulerAnglesHint: {x: 0, y: 0, z: 0}
--- !u!4 &439228
Transform:
  m_ObjectHideFlags: 1
  m_PrefabParentObject: {fileID: 0}
  m_PrefabInternal: {fileID: 100100000}
  m_GameObject: {fileID: 186486}
  m_LocalRotation: {x: 0.000017552786, y: -0.000017479131, z: -0.70519215, w: 0.70901626}
  m_LocalPosition: {x: -0.19130202, y: 1.3885685, z: 0.19988327}
  m_LocalScale: {x: 1, y: 1, z: 1}
  m_Children: []
  m_Father: {fileID: 423448}
  m_RootOrder: 0
  m_LocalEulerAnglesHint: {x: 0, y: 0, z: 0}
--- !u!4 &449140
Transform:
  m_ObjectHideFlags: 1
  m_PrefabParentObject: {fileID: 0}
  m_PrefabInternal: {fileID: 100100000}
  m_GameObject: {fileID: 122070}
  m_LocalRotation: {x: -0.4952243, y: -0.5047306, z: 0.5047306, w: 0.4952243}
  m_LocalPosition: {x: -0.191302, y: 1.3885685, z: 0.19988327}
  m_LocalScale: {x: 1, y: 1, z: 1}
  m_Children: []
  m_Father: {fileID: 423448}
  m_RootOrder: 1
  m_LocalEulerAnglesHint: {x: 0, y: 0, z: 0}
--- !u!4 &453550
Transform:
  m_ObjectHideFlags: 1
  m_PrefabParentObject: {fileID: 0}
  m_PrefabInternal: {fileID: 100100000}
  m_GameObject: {fileID: 188192}
  m_LocalRotation: {x: 0, y: 0.7071068, z: 0, w: 0.7071068}
  m_LocalPosition: {x: 3, y: 0, z: 3}
  m_LocalScale: {x: 1, y: 1, z: 1}
  m_Children:
  - {fileID: 434482}
  - {fileID: 435206}
  m_Father: {fileID: 431114}
  m_RootOrder: 0
  m_LocalEulerAnglesHint: {x: 0, y: 0, z: 0}
--- !u!23 &2312200
MeshRenderer:
  m_ObjectHideFlags: 1
  m_PrefabParentObject: {fileID: 0}
  m_PrefabInternal: {fileID: 100100000}
  m_GameObject: {fileID: 117048}
  m_Enabled: 1
  m_CastShadows: 1
  m_ReceiveShadows: 1
  m_MotionVectors: 1
  m_LightProbeUsage: 1
  m_ReflectionProbeUsage: 1
  m_Materials:
  - {fileID: 2100000, guid: a4ca209867f05624d9495dcec7718687, type: 2}
  m_StaticBatchInfo:
    firstSubMesh: 0
    subMeshCount: 0
  m_StaticBatchRoot: {fileID: 0}
  m_ProbeAnchor: {fileID: 0}
  m_LightProbeVolumeOverride: {fileID: 0}
  m_ScaleInLightmap: 1
  m_PreserveUVs: 0
  m_IgnoreNormalsForChartDetection: 0
  m_ImportantGI: 0
  m_SelectedEditorRenderState: 3
  m_MinimumChartSize: 4
  m_AutoUVMaxDistance: 0.5
  m_AutoUVMaxAngle: 89
  m_LightmapParameters: {fileID: 0}
  m_SortingLayerID: 0
  m_SortingLayer: 0
  m_SortingOrder: 0
--- !u!23 &2327626
MeshRenderer:
  m_ObjectHideFlags: 1
  m_PrefabParentObject: {fileID: 0}
  m_PrefabInternal: {fileID: 100100000}
  m_GameObject: {fileID: 186486}
  m_Enabled: 1
  m_CastShadows: 1
  m_ReceiveShadows: 1
  m_MotionVectors: 1
  m_LightProbeUsage: 1
  m_ReflectionProbeUsage: 1
  m_Materials:
  - {fileID: 2100000, guid: a4ca209867f05624d9495dcec7718687, type: 2}
  m_StaticBatchInfo:
    firstSubMesh: 0
    subMeshCount: 0
  m_StaticBatchRoot: {fileID: 0}
  m_ProbeAnchor: {fileID: 0}
  m_LightProbeVolumeOverride: {fileID: 0}
  m_ScaleInLightmap: 1
  m_PreserveUVs: 0
  m_IgnoreNormalsForChartDetection: 0
  m_ImportantGI: 0
  m_SelectedEditorRenderState: 3
  m_MinimumChartSize: 4
  m_AutoUVMaxDistance: 0.5
  m_AutoUVMaxAngle: 89
  m_LightmapParameters: {fileID: 0}
  m_SortingLayerID: 0
  m_SortingLayer: 0
  m_SortingOrder: 0
--- !u!23 &2331882
MeshRenderer:
  m_ObjectHideFlags: 1
  m_PrefabParentObject: {fileID: 0}
  m_PrefabInternal: {fileID: 100100000}
  m_GameObject: {fileID: 121830}
  m_Enabled: 1
  m_CastShadows: 1
  m_ReceiveShadows: 1
  m_MotionVectors: 1
  m_LightProbeUsage: 1
  m_ReflectionProbeUsage: 1
  m_Materials:
  - {fileID: 2100000, guid: a4ca209867f05624d9495dcec7718687, type: 2}
  m_StaticBatchInfo:
    firstSubMesh: 0
    subMeshCount: 0
  m_StaticBatchRoot: {fileID: 0}
  m_ProbeAnchor: {fileID: 0}
  m_LightProbeVolumeOverride: {fileID: 0}
  m_ScaleInLightmap: 1
  m_PreserveUVs: 0
  m_IgnoreNormalsForChartDetection: 0
  m_ImportantGI: 0
  m_SelectedEditorRenderState: 3
  m_MinimumChartSize: 4
  m_AutoUVMaxDistance: 0.5
  m_AutoUVMaxAngle: 89
  m_LightmapParameters: {fileID: 0}
  m_SortingLayerID: 0
  m_SortingLayer: 0
  m_SortingOrder: 0
--- !u!23 &2359486
MeshRenderer:
  m_ObjectHideFlags: 1
  m_PrefabParentObject: {fileID: 0}
  m_PrefabInternal: {fileID: 100100000}
  m_GameObject: {fileID: 122070}
  m_Enabled: 1
  m_CastShadows: 1
  m_ReceiveShadows: 1
  m_MotionVectors: 1
  m_LightProbeUsage: 1
  m_ReflectionProbeUsage: 1
  m_Materials:
  - {fileID: 2100000, guid: a4ca209867f05624d9495dcec7718687, type: 2}
  m_StaticBatchInfo:
    firstSubMesh: 0
    subMeshCount: 0
  m_StaticBatchRoot: {fileID: 0}
  m_ProbeAnchor: {fileID: 0}
  m_LightProbeVolumeOverride: {fileID: 0}
  m_ScaleInLightmap: 1
  m_PreserveUVs: 0
  m_IgnoreNormalsForChartDetection: 0
  m_ImportantGI: 0
  m_SelectedEditorRenderState: 3
  m_MinimumChartSize: 4
  m_AutoUVMaxDistance: 0.5
  m_AutoUVMaxAngle: 89
  m_LightmapParameters: {fileID: 0}
  m_SortingLayerID: 0
  m_SortingLayer: 0
  m_SortingOrder: 0
--- !u!23 &2359898
MeshRenderer:
  m_ObjectHideFlags: 1
  m_PrefabParentObject: {fileID: 0}
  m_PrefabInternal: {fileID: 100100000}
  m_GameObject: {fileID: 184538}
  m_Enabled: 1
  m_CastShadows: 1
  m_ReceiveShadows: 1
  m_MotionVectors: 1
  m_LightProbeUsage: 1
  m_ReflectionProbeUsage: 1
  m_Materials:
  - {fileID: 2100000, guid: a23fdcdd49a84ee468cfd8d09d135601, type: 2}
  - {fileID: 2100000, guid: c8f45209bcca8b14385e7fa436e1046b, type: 2}
  m_StaticBatchInfo:
    firstSubMesh: 0
    subMeshCount: 0
  m_StaticBatchRoot: {fileID: 0}
  m_ProbeAnchor: {fileID: 0}
  m_LightProbeVolumeOverride: {fileID: 0}
  m_ScaleInLightmap: 1
  m_PreserveUVs: 0
  m_IgnoreNormalsForChartDetection: 0
  m_ImportantGI: 0
  m_SelectedEditorRenderState: 3
  m_MinimumChartSize: 4
  m_AutoUVMaxDistance: 0.5
  m_AutoUVMaxAngle: 89
  m_LightmapParameters: {fileID: 0}
  m_SortingLayerID: 0
  m_SortingLayer: 0
  m_SortingOrder: 0
--- !u!33 &3322544
MeshFilter:
  m_ObjectHideFlags: 1
  m_PrefabParentObject: {fileID: 0}
  m_PrefabInternal: {fileID: 100100000}
  m_GameObject: {fileID: 184538}
  m_Mesh: {fileID: 4300000, guid: f7e401e140d7c3b4ebdd34660975d694, type: 2}
--- !u!33 &3325072
MeshFilter:
  m_ObjectHideFlags: 1
  m_PrefabParentObject: {fileID: 0}
  m_PrefabInternal: {fileID: 100100000}
  m_GameObject: {fileID: 186486}
  m_Mesh: {fileID: 4300000, guid: 15ed638dcb80a204880433d5c80fe2b0, type: 3}
--- !u!33 &3370602
MeshFilter:
  m_ObjectHideFlags: 1
  m_PrefabParentObject: {fileID: 0}
  m_PrefabInternal: {fileID: 100100000}
  m_GameObject: {fileID: 121830}
  m_Mesh: {fileID: 4300002, guid: 15ed638dcb80a204880433d5c80fe2b0, type: 3}
--- !u!33 &3378520
MeshFilter:
  m_ObjectHideFlags: 1
  m_PrefabParentObject: {fileID: 0}
  m_PrefabInternal: {fileID: 100100000}
  m_GameObject: {fileID: 117048}
  m_Mesh: {fileID: 4300000, guid: 15ed638dcb80a204880433d5c80fe2b0, type: 3}
--- !u!33 &3383398
MeshFilter:
  m_ObjectHideFlags: 1
  m_PrefabParentObject: {fileID: 0}
  m_PrefabInternal: {fileID: 100100000}
  m_GameObject: {fileID: 122070}
  m_Mesh: {fileID: 4300002, guid: 15ed638dcb80a204880433d5c80fe2b0, type: 3}
--- !u!64 &6426042
MeshCollider:
  m_ObjectHideFlags: 1
  m_PrefabParentObject: {fileID: 0}
  m_PrefabInternal: {fileID: 100100000}
  m_GameObject: {fileID: 184538}
  m_Material: {fileID: 0}
  m_IsTrigger: 0
  m_Enabled: 1
  serializedVersion: 2
  m_Convex: 0
  m_InflateMesh: 0
  m_SkinWidth: 0.01
  m_Mesh: {fileID: 4300000, guid: f7e401e140d7c3b4ebdd34660975d694, type: 2}
--- !u!95 &9510342
Animator:
  serializedVersion: 3
  m_ObjectHideFlags: 1
  m_PrefabParentObject: {fileID: 0}
  m_PrefabInternal: {fileID: 100100000}
  m_GameObject: {fileID: 188192}
  m_Enabled: 1
  m_Avatar: {fileID: 9000000, guid: 15ed638dcb80a204880433d5c80fe2b0, type: 3}
  m_Controller: {fileID: 0}
  m_CullingMode: 0
  m_UpdateMode: 0
  m_ApplyRootMotion: 0
  m_LinearVelocityBlending: 0
  m_WarningMessage: 
  m_HasTransformHierarchy: 1
  m_AllowConstantClipSamplingOptimization: 1
--- !u!95 &9582826
Animator:
  serializedVersion: 3
  m_ObjectHideFlags: 1
  m_PrefabParentObject: {fileID: 0}
  m_PrefabInternal: {fileID: 100100000}
  m_GameObject: {fileID: 153468}
  m_Enabled: 1
  m_Avatar: {fileID: 9000000, guid: 15ed638dcb80a204880433d5c80fe2b0, type: 3}
  m_Controller: {fileID: 0}
  m_CullingMode: 0
  m_UpdateMode: 0
  m_ApplyRootMotion: 0
  m_LinearVelocityBlending: 0
  m_WarningMessage: 
  m_HasTransformHierarchy: 1
  m_AllowConstantClipSamplingOptimization: 1
--- !u!114 &11466006
MonoBehaviour:
  m_ObjectHideFlags: 1
  m_PrefabParentObject: {fileID: 0}
  m_PrefabInternal: {fileID: 100100000}
  m_GameObject: {fileID: 184538}
  m_Enabled: 1
  m_EditorHideFlags: 0
  m_Script: {fileID: -2039104457, guid: f56d46228aee4734f9114056c53bb57e, type: 3}
  m_Name: 
  m_EditorClassIdentifier: 
  crossingElements:
  - centerPoint: {x: -0.004000008, y: 0, z: -1.9502}
    tmpCenterPoint: {x: -0.004000008, y: 0, z: -1.9502}
    stageCenterPoint: {x: -0.004000008, y: 0, z: 0}
    tmpStageCenterPoint: {x: -0.004000008, y: 0, z: 0}
    blendData: []
    controlPointV3: {x: -0.004000008, y: 0, z: 6.0498}
    controlPoint: {x: -0.004000008, y: 6.0498}
    blendDistance: 0
    extendBounds: 0
    blendCornerPoints:
    - {x: -0.7113, y: -1.9502, z: 0}
    - {x: -0.7113, y: -1.9502, z: 0}
    - {x: 0.7033, y: -1.9502, z: 0}
    - {x: 0.7033, y: -1.9502, z: 0}
    blendCornerPointInts: 770000007600000071000000700000006b0000006a00000065000000640000005f0000005e0000005d0000005c00000053000000520000004d0000004c000000470000004600000041000000400000003b0000003a00000035000000340000002f0000002e000000290000002800000023000000220000002100000020000000170000001600000011000000100000000b0000000a0000000500000004000000
    blendCornerPointWeights:
    - 0
    - 0
    - 0
    - 0
    - 0
    - 0
    - 0
    - 0
    - 0
    - 0
    - 0
    - 0
    - 0
    - 0
    - 0
    - 0
    - 0
    - 0
    - 0
    - 0
    - 0
    - 0
    - 0
    - 0
    - 0
    - 0
    - 0
    - 0
    - 0
    - 0
    - 0
    - 0
    - 0
    - 0
    - 0
    - 0
    - 0
    - 0
    - 0
    - 0
    blendCornerPointsTransformed:
    - {x: 392.62048, y: 495.7999, z: 0}
    - {x: 392.62048, y: 495.7999, z: 0}
    - {x: 457.7061, y: 495.7999, z: 0}
    - {x: 457.7061, y: 495.7999, z: 0}
    blendRatio: 1
    curveStrength: 0
    roadShapeVecs:
    - {x: -0.7073, y: 0.0562}
    - {x: -0.6838, y: 0.0705}
    - {x: -0.6833, y: 0.1017}
    - {x: -0.70199996, y: 0.1197}
    - {x: -0.7021, y: 0.1398}
    - {x: -0.6826, y: 0.1567}
    - {x: -0.64059997, y: 0.1567}
    - {x: -0.6211, y: 0.1398}
    - {x: -0.6211, y: 0.1197}
    - {x: -0.63989997, y: 0.1017}
    - {x: -0.64, y: 0.0705}
    - {x: -0.6165, y: 0.0562}
    - {x: 0.6165001, y: 0.0562}
    - {x: 0.64000005, y: 0.0705}
    - {x: 0.6405, y: 0.1017}
    - {x: 0.6217, y: 0.1197}
    - {x: 0.6217, y: 0.1398}
    - {x: 0.6412, y: 0.1567}
    - {x: 0.68320006, y: 0.1567}
    - {x: 0.7027001, y: 0.1398}
    - {x: 0.70259994, y: 0.1197}
    - {x: 0.68390006, y: 0.1017}
    - {x: 0.6837999, y: 0.0705}
    - {x: 0.7073, y: 0.0562}
    roadShapeVecsString: -0.7, 0.1;-0.7, 0.1;-0.7, 0.1;-0.7, 0.1;-0.7, 0.1;-0.7, 0.2;-0.6,
      0.2;-0.6, 0.1;-0.6, 0.1;-0.6, 0.1;-0.6, 0.1;-0.6, 0.1;0.6, 0.1;0.6, 0.1;0.6,
      0.1;0.6, 0.1;0.6, 0.1;0.6, 0.2;0.7, 0.2;0.7, 0.1;0.7, 0.1;0.7, 0.1;0.7, 0.1;0.7,
      0.1;
    roadShapeMatchCount: 24
    roadShapeUVY:
    - 0
    - 0.0907245
    - 0.19363536
    - 0.27923664
    - 0.3455273
    - 0.43062973
    - 0.569146
    - 0.6542484
    - 0.72053826
    - 0.8063775
    - 0.90927565
    - 1
    - 0
    - 0.09072424
    - 0.19363502
    - 0.27947435
    - 0.34576416
    - 0.43086672
    - 0.56938297
    - 0.6544855
    - 0.7207761
    - 0.8063772
    - 0.90927535
    - 1
    roadShapeUVY2: []
    hardEdge: 000101010100000101010100000101010100000101010100
    roadShapeMaterialInts: 000000000000000000000000000000000000000000000000000000000000000000000000000000000000000000000000000000000000000000000000000000000000000000000000000000000000000000000000000000000000000000000000
    sidewalkLeftVecs: []
    sidewalkLeftUVY: []
    sidewalkLeftMaterialInts: 
    sidewalkRightVecs: []
    sidewalkRightUVY: []
    sidewalkRightMaterialInts: 
    connectionVecs: []
    connectionVecInts: 4700000044000000410000003e0000003b0000003a00000039000000320000002f0000002c000000290000002800000023000000200000001d0000001a0000001700000016000000150000000e0000000b000000080000000500000004000000
    fullConnectionVecInts: 770000007600000071000000700000006b0000006a00000065000000640000005f0000005e0000005d0000005c00000053000000520000004d0000004c000000470000004600000041000000400000003b0000003a00000035000000340000002f0000002e000000290000002800000023000000220000002100000020000000170000001600000011000000100000000b0000000a0000000500000004000000
    sidewalkLeftConnectionVecInts: 
    sidewalkRightConnectionVecInts: 
    doConnectionTri: 010101010101010101010100010101010101010101010101
    outerVecInts: 
    rotationPriority: 0
    centerPointAngle: 1000
    connectedRoad: {fileID: 0}
    connectedMarker: -1
    connectedRoadGO: {fileID: 0}
    includeLeftSidewalk: 1
    includeRightSidewalk: 1
    roadMaterial: {fileID: 2100000, guid: b0b9bbb45b92784478c59fc5550e6770, type: 2}
    roadMaterials:
    - {fileID: 2100000, guid: b0b9bbb45b92784478c59fc5550e6770, type: 2}
    centerPointPercentage: 0.5
    leftIndent: -1
    rightIndent: -1
    leftSurrounding: -1
    rightSurrounding: -1
    leftIndentV3: {x: 0, y: 0, z: 0}
    leftSurroundingV3: {x: 0, y: 0, z: 0}
    rightIndentV3: {x: 0, y: 0, z: 0}
    rightSurroundingV3: {x: 0, y: 0, z: 0}
    leftCornerInt: -1
    rightCornerInt: -1
    leftIndentInt: 0
    rightIndentInt: 0
    leftInt: 0
    rightInt: 23
    leftIntFull: 0
    rightIntFull: 39
    alignmentHandleVec: {x: -0.004000008, y: 0, z: -2.9502}
    additionalIndentDistance: 0
    connectionAngle: 0
    alignmentHandleVecRotationGizmo: {x: 0, y: 0, z: 0}
    roadType: 1438710071.382592
    roadTypeTimestamp: 0
  - centerPoint: {x: -7.0669, y: 0, z: 0.0024499893}
    tmpCenterPoint: {x: -7.0669, y: 0, z: 0.0024499893}
    stageCenterPoint: {x: -7.0669, y: 0, z: 0}
    tmpStageCenterPoint: {x: -7.0669, y: 0, z: 0}
    blendData: []
    controlPointV3: {x: 0.9331002, y: 0, z: 0.0024499893}
    controlPoint: {x: 0.9331002, y: 0.0024499893}
    blendDistance: 0
    extendBounds: 0
    blendCornerPoints:
    - {x: -7.0669, y: 1.4552, z: 0}
    - {x: -7.0669, y: 1.4552, z: 0}
    - {x: -7.0669, y: -1.4503, z: 0}
    - {x: -7.0669, y: -1.4503, z: 0}
    blendCornerPointInts: 9c0000009b000000a2000000a1000000a8000000a9000000a7000000
    blendCornerPointWeights:
    - 0
    - 0
    - 0
    - 0
    - 0
    - 0
    - 0
    blendCornerPointsTransformed:
    - {x: 92.20006, y: 275.11783, z: 0}
    - {x: 92.20006, y: 275.11783, z: 0}
    - {x: 92.20006, y: 408.79956, z: 0}
    - {x: 92.20006, y: 408.79956, z: 0}
    blendRatio: 1
    curveStrength: 0
    roadShapeVecs:
    - {x: -1.45275, y: 0.0027}
    - {x: -1.41315, y: 0.0399}
    - {x: 1.40815, y: 0.0399}
    - {x: 1.45275, y: 0.0027}
    roadShapeVecsString: -1.5, 0;-1.4, 0;1.4, 0;1.5, 0;
    roadShapeMatchCount: 4
    roadShapeUVY:
    - 0
    - 0.018520005
    - 0.9802034
    - 1
    roadShapeUVY2: []
    hardEdge: 
    roadShapeMaterialInts: 00000000000000000000000000000000
    sidewalkLeftVecs: []
    sidewalkLeftUVY: []
    sidewalkLeftMaterialInts: 
    sidewalkRightVecs: []
    sidewalkRightUVY: []
    sidewalkRightMaterialInts: 
    connectionVecs: []
    connectionVecInts: 5e0000005d0000006300000066000000
    fullConnectionVecInts: 9c0000009b000000a2000000a1000000a8000000a9000000a7000000
    sidewalkLeftConnectionVecInts: 
    sidewalkRightConnectionVecInts: 
    doConnectionTri: 01010101
    outerVecInts: 
    rotationPriority: 0
    centerPointAngle: 1000
    connectedRoad: {fileID: 0}
    connectedMarker: -1
    connectedRoadGO: {fileID: 0}
    includeLeftSidewalk: 1
    includeRightSidewalk: 1
    roadMaterial: {fileID: 2100000, guid: 457721ffb8c406d439987407c3c4d818, type: 2}
    roadMaterials:
    - {fileID: 2100000, guid: 457721ffb8c406d439987407c3c4d818, type: 2}
    centerPointPercentage: 0.5
    leftIndent: -1
    rightIndent: -1
    leftSurrounding: -1
    rightSurrounding: -1
    leftIndentV3: {x: 0, y: 0, z: 0}
    leftSurroundingV3: {x: 0, y: 0, z: 0}
    rightIndentV3: {x: 0, y: 0, z: 0}
    rightSurroundingV3: {x: 0, y: 0, z: 0}
    leftCornerInt: -1
    rightCornerInt: -1
    leftIndentInt: 0
    rightIndentInt: 0
    leftInt: 0
    rightInt: 3
    leftIntFull: 0
    rightIntFull: 6
    alignmentHandleVec: {x: 0, y: 0, z: 0}
    additionalIndentDistance: 0
    connectionAngle: 0
    alignmentHandleVecRotationGizmo: {x: 0, y: 0, z: 0}
    roadType: 1438710104.7024977
    roadTypeTimestamp: 0
  - centerPoint: {x: -0.004000008, y: 0, z: 1.8712}
    tmpCenterPoint: {x: -0.004000008, y: 0, z: 1.8712}
    stageCenterPoint: {x: -0.004000008, y: 0, z: 0}
    tmpStageCenterPoint: {x: -0.004000008, y: 0, z: 0}
    blendData: []
    controlPointV3: {x: -0.004000008, y: 0, z: -6.1288}
    controlPoint: {x: -0.004000008, y: -6.1288}
    blendDistance: 0
    extendBounds: 0
    blendCornerPoints:
    - {x: 0.7033, y: 1.8712, z: 0}
    - {x: 0.7033, y: 1.8712, z: 0}
    - {x: -0.7113, y: 1.8712, z: 0}
    - {x: -0.7113, y: 1.8712, z: 0}
    blendCornerPointInts: 020000000100000008000000070000000e0000000d00000014000000130000001a000000190000001c0000001e00000026000000250000002c0000002b000000320000003100000038000000370000003e0000003d00000044000000430000004a00000049000000500000004f0000005600000055000000580000005a000000620000006100000068000000670000006e0000006d0000007400000073000000
    blendCornerPointWeights:
    - 0
    - 0
    - 0
    - 0
    - 0
    - 0
    - 0
    - 0
    - 0
    - 0
    - 0
    - 0
    - 0
    - 0
    - 0
    - 0
    - 0
    - 0
    - 0
    - 0
    - 0
    - 0
    - 0
    - 0
    - 0
    - 0
    - 0
    - 0
    - 0
    - 0
    - 0
    - 0
    - 0
    - 0
    - 0
    - 0
    - 0
    - 0
    - 0
    - 0
    blendCornerPointsTransformed:
    - {x: 457.7061, y: 319.97772, z: 0}
    - {x: 457.7061, y: 319.97772, z: 0}
    - {x: 392.62048, y: 319.97772, z: 0}
    - {x: 392.62048, y: 319.97772, z: 0}
    blendRatio: 1
    curveStrength: 0
    roadShapeVecs:
    - {x: -0.7073, y: 0.0562}
    - {x: -0.6838, y: 0.0705}
    - {x: -0.6839, y: 0.1017}
    - {x: -0.7026, y: 0.1197}
    - {x: -0.7027, y: 0.1398}
    - {x: -0.6832, y: 0.1567}
    - {x: -0.6412, y: 0.1567}
    - {x: -0.6217, y: 0.1398}
    - {x: -0.6217, y: 0.1197}
    - {x: -0.6405, y: 0.1017}
    - {x: -0.64, y: 0.0705}
    - {x: -0.6165, y: 0.0562}
    - {x: 0.6165001, y: 0.0562}
    - {x: 0.64000005, y: 0.0705}
    - {x: 0.6398999, y: 0.1017}
    - {x: 0.6211, y: 0.1197}
    - {x: 0.6211, y: 0.1398}
    - {x: 0.6405999, y: 0.1567}
    - {x: 0.68259996, y: 0.1567}
    - {x: 0.7021, y: 0.1398}
    - {x: 0.70199996, y: 0.1197}
    - {x: 0.68329996, y: 0.1017}
    - {x: 0.6837999, y: 0.0705}
    - {x: 0.7073, y: 0.0562}
    roadShapeVecsString: -0.7, 0.1;-0.7, 0.1;-0.7, 0.1;-0.7, 0.1;-0.7, 0.1;-0.7, 0.2;-0.6,
      0.2;-0.6, 0.1;-0.6, 0.1;-0.6, 0.1;-0.6, 0.1;-0.6, 0.1;0.6, 0.1;0.6, 0.1;0.6,
      0.1;0.6, 0.1;0.6, 0.1;0.6, 0.2;0.7, 0.2;0.7, 0.1;0.7, 0.1;0.7, 0.1;0.7, 0.1;0.7,
      0.1;
    roadShapeMatchCount: 24
    roadShapeUVY:
    - 0
    - 0.0907245
    - 0.19363536
    - 0.27923664
    - 0.3455273
    - 0.43062973
    - 0.569146
    - 0.6542484
    - 0.72053826
    - 0.8063775
    - 0.90927565
    - 1
    - 0
    - 0.09072424
    - 0.19363502
    - 0.27947435
    - 0.34576416
    - 0.43086672
    - 0.56938297
    - 0.6544855
    - 0.7207761
    - 0.8063772
    - 0.90927535
    - 1
    roadShapeUVY2: []
    hardEdge: 000101010100000101010100000101010100000101010100
    roadShapeMaterialInts: 000000000000000000000000000000000000000000000000000000000000000000000000000000000000000000000000000000000000000000000000000000000000000000000000000000000000000000000000000000000000000000000000
    sidewalkLeftVecs: []
    sidewalkLeftUVY: []
    sidewalkLeftMaterialInts: 
    sidewalkRightVecs: []
    sidewalkRightUVY: []
    sidewalkRightMaterialInts: 
    connectionVecs: []
    connectionVecInts: 020000000100000006000000090000000c0000000f0000001100000013000000180000001b0000001e0000002100000026000000250000002a0000002d000000300000003300000035000000370000003c0000003f0000004200000045000000
    fullConnectionVecInts: 020000000100000008000000070000000e0000000d00000014000000130000001a000000190000001c0000001e00000026000000250000002c0000002b000000320000003100000038000000370000003e0000003d00000044000000430000004a00000049000000500000004f0000005600000055000000580000005a000000620000006100000068000000670000006e0000006d0000007400000073000000
    sidewalkLeftConnectionVecInts: 
    sidewalkRightConnectionVecInts: 
    doConnectionTri: 010101010101010101010100010101010101010101010101
    outerVecInts: 
    rotationPriority: 0
    centerPointAngle: 1000
    connectedRoad: {fileID: 0}
    connectedMarker: -1
    connectedRoadGO: {fileID: 0}
    includeLeftSidewalk: 1
    includeRightSidewalk: 1
    roadMaterial: {fileID: 2100000, guid: b0b9bbb45b92784478c59fc5550e6770, type: 2}
    roadMaterials:
    - {fileID: 2100000, guid: b0b9bbb45b92784478c59fc5550e6770, type: 2}
    centerPointPercentage: 0.5
    leftIndent: -1
    rightIndent: -1
    leftSurrounding: -1
    rightSurrounding: -1
    leftIndentV3: {x: 0, y: 0, z: 0}
    leftSurroundingV3: {x: 0, y: 0, z: 0}
    rightIndentV3: {x: 0, y: 0, z: 0}
    rightSurroundingV3: {x: 0, y: 0, z: 0}
    leftCornerInt: -1
    rightCornerInt: -1
    leftIndentInt: 0
    rightIndentInt: 0
    leftInt: 0
    rightInt: 23
    leftIntFull: 0
    rightIntFull: 39
    alignmentHandleVec: {x: 0, y: 0, z: 0}
    additionalIndentDistance: 0
    connectionAngle: 0
    alignmentHandleVecRotationGizmo: {x: 0, y: 0, z: 0}
    roadType: 1438710071.382592
    roadTypeTimestamp: 0
  - centerPoint: {x: 7.0518, y: 0, z: 0.0024499893}
    tmpCenterPoint: {x: 7.0518, y: 0, z: 0.0024499893}
    stageCenterPoint: {x: 7.0518, y: 0, z: 0}
    tmpStageCenterPoint: {x: 7.0518, y: 0, z: 0}
    blendData: []
    controlPointV3: {x: -0.9482002, y: 0, z: 0.0024499893}
    controlPoint: {x: -0.9482002, y: 0.0024499893}
    blendDistance: 0
    extendBounds: 0
    blendCornerPoints:
    - {x: 7.0518, y: -1.4503, z: 0}
    - {x: 7.0518, y: -1.4503, z: 0}
    - {x: 7.0518, y: 1.4552, z: 0}
    - {x: 7.0518, y: 1.4552, z: 0}
    blendCornerPointInts: 8800000086000000800000008700000081000000
    blendCornerPointWeights:
    - 0
    - 0
    - 0
    - 0
    - 0
    blendCornerPointsTransformed:
    - {x: 687.6281, y: 620.729, z: 0}
    - {x: 687.6281, y: 620.729, z: 0}
    - {x: 687.6281, y: 499.2596, z: 0}
    - {x: 687.6281, y: 499.2596, z: 0}
    blendRatio: 1
    curveStrength: 0
    roadShapeVecs:
    - {x: -1.45275, y: 0.0021}
    - {x: -1.40815, y: 0.0393}
    - {x: 1.4131501, y: 0.0393}
    - {x: 1.45275, y: 0.0021}
    roadShapeVecsString: -1.5, 0;-1.4, 0;1.4, 0;1.5, 0;
    roadShapeMatchCount: 4
    roadShapeUVY:
    - 0
    - 0.019796621
    - 0.98148
    - 1
    roadShapeUVY2: []
    hardEdge: 
    roadShapeMaterialInts: 00000000000000000000000000000000
    sidewalkLeftVecs: []
    sidewalkLeftUVY: []
    sidewalkLeftMaterialInts: 
    sidewalkRightVecs: []
    sidewalkRightUVY: []
    sidewalkRightMaterialInts: 
    connectionVecs: []
    connectionVecInts: 52000000510000004e0000004f000000
    fullConnectionVecInts: 8800000086000000800000008700000081000000
    sidewalkLeftConnectionVecInts: 
    sidewalkRightConnectionVecInts: 
    doConnectionTri: 01010101
    outerVecInts: 
    rotationPriority: 0
    centerPointAngle: 1000
    connectedRoad: {fileID: 0}
    connectedMarker: -1
    connectedRoadGO: {fileID: 0}
    includeLeftSidewalk: 1
    includeRightSidewalk: 1
    roadMaterial: {fileID: 2100000, guid: 457721ffb8c406d439987407c3c4d818, type: 2}
    roadMaterials:
    - {fileID: 2100000, guid: 457721ffb8c406d439987407c3c4d818, type: 2}
    centerPointPercentage: 0.5
    leftIndent: -1
    rightIndent: -1
    leftSurrounding: -1
    rightSurrounding: -1
    leftIndentV3: {x: 0, y: 0, z: 0}
    leftSurroundingV3: {x: 0, y: 0, z: 0}
    rightIndentV3: {x: 0, y: 0, z: 0}
    rightSurroundingV3: {x: 0, y: 0, z: 0}
    leftCornerInt: -1
    rightCornerInt: -1
    leftIndentInt: 0
    rightIndentInt: 0
    leftInt: 0
    rightInt: 3
    leftIntFull: 0
    rightIntFull: 4
    alignmentHandleVec: {x: 0, y: 0, z: 0}
    additionalIndentDistance: 0
    connectionAngle: 0
    alignmentHandleVecRotationGizmo: {x: 0, y: 0, z: 0}
    roadType: 1438710104.7024977
    roadTypeTimestamp: 0
  sidewalkControlElements: []
  meshVecs:
  - {x: 0.7033, y: 0.0562, z: 0.1256}
  - {x: 0.6798, y: 0.0705, z: 1.8712}
  - {x: 0.7033, y: 0.0562, z: 1.8712}
  - {x: 0.6798, y: 0.0705, z: 0.1256}
  - {x: 0.7033, y: 0.0562, z: -1.9502}
  - {x: 0.6798, y: 0.0705, z: -1.9502}
  - {x: 0.6799, y: 0.1017, z: 1.8712}
  - {x: 0.6799, y: 0.1017, z: 0.1256}
  - {x: 0.6799, y: 0.1017, z: -1.9502}
  - {x: 0.6986, y: 0.1197, z: 1.8712}
  - {x: 0.6986, y: 0.1197, z: 0.1256}
  - {x: 0.6986, y: 0.1197, z: -1.9502}
  - {x: 0.6987, y: 0.1398, z: 1.8712}
  - {x: 0.6987, y: 0.1398, z: 0.1256}
  - {x: 0.6987, y: 0.1398, z: -1.9502}
  - {x: 0.6792, y: 0.1567, z: 1.8712}
  - {x: 0.6792, y: 0.1567, z: 0.1256}
  - {x: 0.6372, y: 0.1567, z: 1.8712}
  - {x: 0.6372, y: 0.1567, z: 0.1256}
  - {x: 0.6177, y: 0.1398, z: 1.8712}
  - {x: 0.6177, y: 0.1398, z: 0.1256}
  - {x: 0.6792, y: 0.1567, z: -1.9502}
  - {x: 0.6372, y: 0.1567, z: -1.9502}
  - {x: 0.6177, y: 0.1398, z: -1.9502}
  - {x: 0.6177, y: 0.1197, z: 1.8712}
  - {x: 0.6177, y: 0.1197, z: 0.1256}
  - {x: 0.6177, y: 0.1197, z: -1.9502}
  - {x: 0.6365, y: 0.1017, z: 1.8712}
  - {x: 0.6365, y: 0.1017, z: 0.1256}
  - {x: 0.6365, y: 0.1017, z: -1.9502}
  - {x: 0.636, y: 0.0705, z: 1.8712}
  - {x: 0.636, y: 0.0705, z: 0.1256}
  - {x: 0.636, y: 0.0705, z: -1.9502}
  - {x: 0.6125, y: 0.0562, z: 1.8712}
  - {x: 0.6125, y: 0.0562, z: 0.1256}
  - {x: 0.6125, y: 0.0562, z: -1.9502}
  - {x: -0.6205, y: 0.0562, z: 0.1256}
  - {x: -0.644, y: 0.0705, z: 1.8712}
  - {x: -0.6205, y: 0.0562, z: 1.8712}
  - {x: -0.644, y: 0.0705, z: 0.1256}
  - {x: -0.6205, y: 0.0562, z: -1.9502}
  - {x: -0.644, y: 0.0705, z: -1.9502}
  - {x: -0.6439, y: 0.1017, z: 1.8712}
  - {x: -0.6439, y: 0.1017, z: 0.1256}
  - {x: -0.6439, y: 0.1017, z: -1.9502}
  - {x: -0.6251, y: 0.1197, z: 1.8712}
  - {x: -0.6251, y: 0.1197, z: 0.1256}
  - {x: -0.6251, y: 0.1197, z: -1.9502}
  - {x: -0.6251, y: 0.1398, z: 1.8712}
  - {x: -0.6251, y: 0.1398, z: 0.1256}
  - {x: -0.6251, y: 0.1398, z: -1.9502}
  - {x: -0.6446, y: 0.1567, z: 1.8712}
  - {x: -0.6446, y: 0.1567, z: 0.1256}
  - {x: -0.6866, y: 0.1567, z: 1.8712}
  - {x: -0.6866, y: 0.1567, z: 0.1256}
  - {x: -0.7061, y: 0.1398, z: 1.8712}
  - {x: -0.7061, y: 0.1398, z: 0.1256}
  - {x: -0.6446, y: 0.1567, z: -1.9502}
  - {x: -0.6866, y: 0.1567, z: -1.9502}
  - {x: -0.7061, y: 0.1398, z: -1.9502}
  - {x: -0.706, y: 0.1197, z: 1.8712}
  - {x: -0.706, y: 0.1197, z: 0.1256}
  - {x: -0.706, y: 0.1197, z: -1.9502}
  - {x: -0.6873, y: 0.1017, z: 1.8712}
  - {x: -0.6873, y: 0.1017, z: 0.1256}
  - {x: -0.6873, y: 0.1017, z: -1.9502}
  - {x: -0.6878, y: 0.0705, z: 1.8712}
  - {x: -0.6878, y: 0.0705, z: 0.1256}
  - {x: -0.6878, y: 0.0705, z: -1.9502}
  - {x: -0.7113, y: 0.0562, z: 1.8712}
  - {x: -0.7113, y: 0.0562, z: 0.1256}
  - {x: -0.7113, y: 0.0562, z: -1.9502}
  - {x: 0.7291, y: 0.1332, z: 1.4156}
  - {x: 0.709, y: 0.0032, z: -1.4503}
  - {x: 0.7073, y: 0.0032, z: 1.4552}
  - {x: 0.7291, y: 0.1332, z: -1.4057}
  - {x: 3.8809, y: 0.1007, z: 1.4156}
  - {x: 3.8809, y: 0.0038, z: 1.4552}
  - {x: 7.0518, y: 0.0393, z: 1.4156}
  - {x: 7.0518, y: 0.0021, z: 1.4552}
  - {x: 3.8809, y: 0.1007, z: -1.4057}
  - {x: 7.0518, y: 0.0393, z: -1.4057}
  - {x: 7.0518, y: 0.0021, z: -1.4503}
  - {x: 3.8809, y: 0.0038, z: -1.4503}
  - {x: 0.5919, y: 0.1384, z: 1.4156}
  - {x: -0.5843, y: 0.1385, z: 1.4156}
  - {x: -0.6126, y: 0.0023, z: 1.4552}
  - {x: 0.6056, y: 0.0022, z: 1.4552}
  - {x: 0.5919, y: 0.1384, z: -1.4057}
  - {x: -0.5843, y: 0.1385, z: -1.4057}
  - {x: 0.6065, y: 0.0022, z: -1.4503}
  - {x: -0.608, y: 0.0023, z: -1.4503}
  - {x: -3.9358, y: 0.1054, z: 1.4156}
  - {x: -7.0669, y: 0.0399, z: 1.4156}
  - {x: -7.0669, y: 0.0027, z: 1.4552}
  - {x: -3.9358, y: 0.0023, z: 1.4552}
  - {x: -0.7447, y: 0.1384, z: 1.4156}
  - {x: -0.7183, y: 0.0022, z: 1.4552}
  - {x: -3.9358, y: 0.1054, z: -1.4057}
  - {x: -7.0669, y: 0.0399, z: -1.4057}
  - {x: -0.7447, y: 0.1384, z: -1.4057}
  - {x: -3.9358, y: 0.0023, z: -1.4503}
  - {x: -7.0669, y: 0.0027, z: -1.4503}
  - {x: -0.723, y: 0.0022, z: -1.4503}
  fullMeshVecs:
  - {x: 0.7033, y: 0.0562, z: 0.1256}
  - {x: 0.6798, y: 0.0705, z: 1.8712}
  - {x: 0.7033, y: 0.0562, z: 1.8712}
  - {x: 0.6798, y: 0.0705, z: 0.1256}
  - {x: 0.7033, y: 0.0562, z: -1.9502}
  - {x: 0.6798, y: 0.0705, z: -1.9502}
  - {x: 0.6798, y: 0.0705, z: 0.1256}
  - {x: 0.6799, y: 0.1017, z: 1.8712}
  - {x: 0.6798, y: 0.0705, z: 1.8712}
  - {x: 0.6799, y: 0.1017, z: 0.1256}
  - {x: 0.6798, y: 0.0705, z: -1.9502}
  - {x: 0.6799, y: 0.1017, z: -1.9502}
  - {x: 0.6799, y: 0.1017, z: 0.1256}
  - {x: 0.6986, y: 0.1197, z: 1.8712}
  - {x: 0.6799, y: 0.1017, z: 1.8712}
  - {x: 0.6986, y: 0.1197, z: 0.1256}
  - {x: 0.6799, y: 0.1017, z: -1.9502}
  - {x: 0.6986, y: 0.1197, z: -1.9502}
  - {x: 0.6986, y: 0.1197, z: 0.1256}
  - {x: 0.6987, y: 0.1398, z: 1.8712}
  - {x: 0.6986, y: 0.1197, z: 1.8712}
  - {x: 0.6987, y: 0.1398, z: 0.1256}
  - {x: 0.6986, y: 0.1197, z: -1.9502}
  - {x: 0.6987, y: 0.1398, z: -1.9502}
  - {x: 0.6987, y: 0.1398, z: 0.1256}
  - {x: 0.6792, y: 0.1567, z: 1.8712}
  - {x: 0.6987, y: 0.1398, z: 1.8712}
  - {x: 0.6792, y: 0.1567, z: 0.1256}
  - {x: 0.6372, y: 0.1567, z: 1.8712}
  - {x: 0.6372, y: 0.1567, z: 0.1256}
  - {x: 0.6177, y: 0.1398, z: 1.8712}
  - {x: 0.6177, y: 0.1398, z: 0.1256}
  - {x: 0.6987, y: 0.1398, z: -1.9502}
  - {x: 0.6792, y: 0.1567, z: -1.9502}
  - {x: 0.6372, y: 0.1567, z: -1.9502}
  - {x: 0.6177, y: 0.1398, z: -1.9502}
  - {x: 0.6177, y: 0.1398, z: 0.1256}
  - {x: 0.6177, y: 0.1197, z: 1.8712}
  - {x: 0.6177, y: 0.1398, z: 1.8712}
  - {x: 0.6177, y: 0.1197, z: 0.1256}
  - {x: 0.6177, y: 0.1398, z: -1.9502}
  - {x: 0.6177, y: 0.1197, z: -1.9502}
  - {x: 0.6177, y: 0.1197, z: 0.1256}
  - {x: 0.6365, y: 0.1017, z: 1.8712}
  - {x: 0.6177, y: 0.1197, z: 1.8712}
  - {x: 0.6365, y: 0.1017, z: 0.1256}
  - {x: 0.6177, y: 0.1197, z: -1.9502}
  - {x: 0.6365, y: 0.1017, z: -1.9502}
  - {x: 0.6365, y: 0.1017, z: 0.1256}
  - {x: 0.636, y: 0.0705, z: 1.8712}
  - {x: 0.6365, y: 0.1017, z: 1.8712}
  - {x: 0.636, y: 0.0705, z: 0.1256}
  - {x: 0.6365, y: 0.1017, z: -1.9502}
  - {x: 0.636, y: 0.0705, z: -1.9502}
  - {x: 0.636, y: 0.0705, z: 0.1256}
  - {x: 0.6125, y: 0.0562, z: 1.8712}
  - {x: 0.636, y: 0.0705, z: 1.8712}
  - {x: 0.6125, y: 0.0562, z: 0.1256}
  - {x: 0.636, y: 0.0705, z: -1.9502}
  - {x: 0.6125, y: 0.0562, z: -1.9502}
  - {x: -0.6205, y: 0.0562, z: 0.1256}
  - {x: -0.644, y: 0.0705, z: 1.8712}
  - {x: -0.6205, y: 0.0562, z: 1.8712}
  - {x: -0.644, y: 0.0705, z: 0.1256}
  - {x: -0.6205, y: 0.0562, z: -1.9502}
  - {x: -0.644, y: 0.0705, z: -1.9502}
  - {x: -0.644, y: 0.0705, z: 0.1256}
  - {x: -0.6439, y: 0.1017, z: 1.8712}
  - {x: -0.644, y: 0.0705, z: 1.8712}
  - {x: -0.6439, y: 0.1017, z: 0.1256}
  - {x: -0.644, y: 0.0705, z: -1.9502}
  - {x: -0.6439, y: 0.1017, z: -1.9502}
  - {x: -0.6439, y: 0.1017, z: 0.1256}
  - {x: -0.6251, y: 0.1197, z: 1.8712}
  - {x: -0.6439, y: 0.1017, z: 1.8712}
  - {x: -0.6251, y: 0.1197, z: 0.1256}
  - {x: -0.6439, y: 0.1017, z: -1.9502}
  - {x: -0.6251, y: 0.1197, z: -1.9502}
  - {x: -0.6251, y: 0.1197, z: 0.1256}
  - {x: -0.6251, y: 0.1398, z: 1.8712}
  - {x: -0.6251, y: 0.1197, z: 1.8712}
  - {x: -0.6251, y: 0.1398, z: 0.1256}
  - {x: -0.6251, y: 0.1197, z: -1.9502}
  - {x: -0.6251, y: 0.1398, z: -1.9502}
  - {x: -0.6251, y: 0.1398, z: 0.1256}
  - {x: -0.6446, y: 0.1567, z: 1.8712}
  - {x: -0.6251, y: 0.1398, z: 1.8712}
  - {x: -0.6446, y: 0.1567, z: 0.1256}
  - {x: -0.6866, y: 0.1567, z: 1.8712}
  - {x: -0.6866, y: 0.1567, z: 0.1256}
  - {x: -0.7061, y: 0.1398, z: 1.8712}
  - {x: -0.7061, y: 0.1398, z: 0.1256}
  - {x: -0.6251, y: 0.1398, z: -1.9502}
  - {x: -0.6446, y: 0.1567, z: -1.9502}
  - {x: -0.6866, y: 0.1567, z: -1.9502}
  - {x: -0.7061, y: 0.1398, z: -1.9502}
  - {x: -0.7061, y: 0.1398, z: 0.1256}
  - {x: -0.706, y: 0.1197, z: 1.8712}
  - {x: -0.7061, y: 0.1398, z: 1.8712}
  - {x: -0.706, y: 0.1197, z: 0.1256}
  - {x: -0.7061, y: 0.1398, z: -1.9502}
  - {x: -0.706, y: 0.1197, z: -1.9502}
  - {x: -0.706, y: 0.1197, z: 0.1256}
  - {x: -0.6873, y: 0.1017, z: 1.8712}
  - {x: -0.706, y: 0.1197, z: 1.8712}
  - {x: -0.6873, y: 0.1017, z: 0.1256}
  - {x: -0.706, y: 0.1197, z: -1.9502}
  - {x: -0.6873, y: 0.1017, z: -1.9502}
  - {x: -0.6873, y: 0.1017, z: 0.1256}
  - {x: -0.6878, y: 0.0705, z: 1.8712}
  - {x: -0.6873, y: 0.1017, z: 1.8712}
  - {x: -0.6878, y: 0.0705, z: 0.1256}
  - {x: -0.6873, y: 0.1017, z: -1.9502}
  - {x: -0.6878, y: 0.0705, z: -1.9502}
  - {x: -0.6878, y: 0.0705, z: 0.1256}
  - {x: -0.7113, y: 0.0562, z: 1.8712}
  - {x: -0.6878, y: 0.0705, z: 1.8712}
  - {x: -0.7113, y: 0.0562, z: 0.1256}
  - {x: -0.6878, y: 0.0705, z: -1.9502}
  - {x: -0.7113, y: 0.0562, z: -1.9502}
  - {x: 0.7291, y: 0.1332, z: 1.4156}
  - {x: 0.709, y: 0.0032, z: -1.4503}
  - {x: 0.7073, y: 0.0032, z: 1.4552}
  - {x: 0.7291, y: 0.1332, z: -1.4057}
  - {x: 3.8809, y: 0.1007, z: 1.4156}
  - {x: 0.7291, y: 0.1332, z: 1.4156}
  - {x: 0.7073, y: 0.0032, z: 1.4552}
  - {x: 3.8809, y: 0.0038, z: 1.4552}
  - {x: 7.0518, y: 0.0393, z: 1.4156}
  - {x: 7.0518, y: 0.0021, z: 1.4552}
  - {x: 3.8809, y: 0.1007, z: -1.4057}
  - {x: 0.7291, y: 0.1332, z: -1.4057}
  - {x: 0.7291, y: 0.1332, z: 1.4156}
  - {x: 3.8809, y: 0.1007, z: 1.4156}
  - {x: 7.0518, y: 0.0393, z: -1.4057}
  - {x: 7.0518, y: 0.0393, z: 1.4156}
  - {x: 7.0518, y: 0.0021, z: -1.4503}
  - {x: 3.8809, y: 0.1007, z: -1.4057}
  - {x: 3.8809, y: 0.0038, z: -1.4503}
  - {x: 3.8809, y: 0.1007, z: -1.4057}
  - {x: 0.7291, y: 0.1332, z: -1.4057}
  - {x: 0.709, y: 0.0032, z: -1.4503}
  - {x: 0.5919, y: 0.1384, z: 1.4156}
  - {x: -0.5843, y: 0.1385, z: 1.4156}
  - {x: -0.6126, y: 0.0023, z: 1.4552}
  - {x: 0.6056, y: 0.0022, z: 1.4552}
  - {x: 0.5919, y: 0.1384, z: -1.4057}
  - {x: -0.5843, y: 0.1385, z: -1.4057}
  - {x: -0.5843, y: 0.1385, z: 1.4156}
  - {x: 0.5919, y: 0.1384, z: 1.4156}
  - {x: 0.6065, y: 0.0022, z: -1.4503}
  - {x: -0.608, y: 0.0023, z: -1.4503}
  - {x: -0.5843, y: 0.1385, z: -1.4057}
  - {x: 0.5919, y: 0.1384, z: -1.4057}
  - {x: -3.9358, y: 0.1054, z: 1.4156}
  - {x: -7.0669, y: 0.0399, z: 1.4156}
  - {x: -7.0669, y: 0.0027, z: 1.4552}
  - {x: -3.9358, y: 0.0023, z: 1.4552}
  - {x: -0.7447, y: 0.1384, z: 1.4156}
  - {x: -0.7183, y: 0.0022, z: 1.4552}
  - {x: -3.9358, y: 0.1054, z: -1.4057}
  - {x: -7.0669, y: 0.0399, z: -1.4057}
  - {x: -7.0669, y: 0.0399, z: 1.4156}
  - {x: -3.9358, y: 0.1054, z: 1.4156}
  - {x: -0.7447, y: 0.1384, z: -1.4057}
  - {x: -0.7447, y: 0.1384, z: 1.4156}
  - {x: -3.9358, y: 0.0023, z: -1.4503}
  - {x: -7.0669, y: 0.0027, z: -1.4503}
  - {x: -7.0669, y: 0.0399, z: -1.4057}
  - {x: -7.0669, y: 0.0399, z: -1.4057}
  - {x: -3.9358, y: 0.1054, z: -1.4057}
  - {x: -0.723, y: 0.0022, z: -1.4503}
  - {x: -0.7447, y: 0.1384, z: -1.4057}
  - {x: -0.5843, y: 0.1385, z: 1.4156}
  - {x: -0.608, y: 0.0023, z: -1.4503}
  - {x: -0.6126, y: 0.0023, z: 1.4552}
  - {x: -0.5843, y: 0.1385, z: -1.4057}
  - {x: 0.5919, y: 0.1384, z: -1.4057}
  - {x: 0.6056, y: 0.0022, z: 1.4552}
  - {x: 0.6065, y: 0.0022, z: -1.4503}
  - {x: 0.5919, y: 0.1384, z: 1.4156}
  - {x: -0.7447, y: 0.1384, z: -1.4057}
  - {x: -0.7183, y: 0.0022, z: 1.4552}
  - {x: -0.723, y: 0.0022, z: -1.4503}
  - {x: -0.7447, y: 0.1384, z: 1.4156}
  tmpMeshVecs:
  - {x: 0.7033, y: 0.0562, z: 0.1256}
  - {x: 0.6798, y: 0.0705, z: 1.8712}
  - {x: 0.7033, y: 0.0562, z: 1.8712}
  - {x: 0.6798, y: 0.0705, z: 0.1256}
  - {x: 0.7033, y: 0.0562, z: -1.9502}
  - {x: 0.6798, y: 0.0705, z: -1.9502}
  - {x: 0.6799, y: 0.1017, z: 1.8712}
  - {x: 0.6799, y: 0.1017, z: 0.1256}
  - {x: 0.6799, y: 0.1017, z: -1.9502}
  - {x: 0.6986, y: 0.1197, z: 1.8712}
  - {x: 0.6986, y: 0.1197, z: 0.1256}
  - {x: 0.6986, y: 0.1197, z: -1.9502}
  - {x: 0.6987, y: 0.1398, z: 1.8712}
  - {x: 0.6987, y: 0.1398, z: 0.1256}
  - {x: 0.6987, y: 0.1398, z: -1.9502}
  - {x: 0.6792, y: 0.1567, z: 1.8712}
  - {x: 0.6792, y: 0.1567, z: 0.1256}
  - {x: 0.6372, y: 0.1567, z: 1.8712}
  - {x: 0.6372, y: 0.1567, z: 0.1256}
  - {x: 0.6177, y: 0.1398, z: 1.8712}
  - {x: 0.6177, y: 0.1398, z: 0.1256}
  - {x: 0.6792, y: 0.1567, z: -1.9502}
  - {x: 0.6372, y: 0.1567, z: -1.9502}
  - {x: 0.6177, y: 0.1398, z: -1.9502}
  - {x: 0.6177, y: 0.1197, z: 1.8712}
  - {x: 0.6177, y: 0.1197, z: 0.1256}
  - {x: 0.6177, y: 0.1197, z: -1.9502}
  - {x: 0.6365, y: 0.1017, z: 1.8712}
  - {x: 0.6365, y: 0.1017, z: 0.1256}
  - {x: 0.6365, y: 0.1017, z: -1.9502}
  - {x: 0.636, y: 0.0705, z: 1.8712}
  - {x: 0.636, y: 0.0705, z: 0.1256}
  - {x: 0.636, y: 0.0705, z: -1.9502}
  - {x: 0.6125, y: 0.0562, z: 1.8712}
  - {x: 0.6125, y: 0.0562, z: 0.1256}
  - {x: 0.6125, y: 0.0562, z: -1.9502}
  - {x: -0.6205, y: 0.0562, z: 0.1256}
  - {x: -0.644, y: 0.0705, z: 1.8712}
  - {x: -0.6205, y: 0.0562, z: 1.8712}
  - {x: -0.644, y: 0.0705, z: 0.1256}
  - {x: -0.6205, y: 0.0562, z: -1.9502}
  - {x: -0.644, y: 0.0705, z: -1.9502}
  - {x: -0.6439, y: 0.1017, z: 1.8712}
  - {x: -0.6439, y: 0.1017, z: 0.1256}
  - {x: -0.6439, y: 0.1017, z: -1.9502}
  - {x: -0.6251, y: 0.1197, z: 1.8712}
  - {x: -0.6251, y: 0.1197, z: 0.1256}
  - {x: -0.6251, y: 0.1197, z: -1.9502}
  - {x: -0.6251, y: 0.1398, z: 1.8712}
  - {x: -0.6251, y: 0.1398, z: 0.1256}
  - {x: -0.6251, y: 0.1398, z: -1.9502}
  - {x: -0.6446, y: 0.1567, z: 1.8712}
  - {x: -0.6446, y: 0.1567, z: 0.1256}
  - {x: -0.6866, y: 0.1567, z: 1.8712}
  - {x: -0.6866, y: 0.1567, z: 0.1256}
  - {x: -0.7061, y: 0.1398, z: 1.8712}
  - {x: -0.7061, y: 0.1398, z: 0.1256}
  - {x: -0.6446, y: 0.1567, z: -1.9502}
  - {x: -0.6866, y: 0.1567, z: -1.9502}
  - {x: -0.7061, y: 0.1398, z: -1.9502}
  - {x: -0.706, y: 0.1197, z: 1.8712}
  - {x: -0.706, y: 0.1197, z: 0.1256}
  - {x: -0.706, y: 0.1197, z: -1.9502}
  - {x: -0.6873, y: 0.1017, z: 1.8712}
  - {x: -0.6873, y: 0.1017, z: 0.1256}
  - {x: -0.6873, y: 0.1017, z: -1.9502}
  - {x: -0.6878, y: 0.0705, z: 1.8712}
  - {x: -0.6878, y: 0.0705, z: 0.1256}
  - {x: -0.6878, y: 0.0705, z: -1.9502}
  - {x: -0.7113, y: 0.0562, z: 1.8712}
  - {x: -0.7113, y: 0.0562, z: 0.1256}
  - {x: -0.7113, y: 0.0562, z: -1.9502}
  - {x: 0.7291, y: 0.1332, z: 1.4156}
  - {x: 0.709, y: 0.0032, z: -1.4503}
  - {x: 0.7073, y: 0.0032, z: 1.4552}
  - {x: 0.7291, y: 0.1332, z: -1.4057}
  - {x: 3.8809, y: 0.1007, z: 1.4156}
  - {x: 3.8809, y: 0.0038, z: 1.4552}
  - {x: 7.0518, y: 0.0393, z: 1.4156}
  - {x: 7.0518, y: 0.0021, z: 1.4552}
  - {x: 3.8809, y: 0.1007, z: -1.4057}
  - {x: 7.0518, y: 0.0393, z: -1.4057}
  - {x: 7.0518, y: 0.0021, z: -1.4503}
  - {x: 3.8809, y: 0.0038, z: -1.4503}
  - {x: 0.5919, y: 0.1384, z: 1.4156}
  - {x: -0.5843, y: 0.1385, z: 1.4156}
  - {x: -0.6126, y: 0.0023, z: 1.4552}
  - {x: 0.6056, y: 0.0022, z: 1.4552}
  - {x: 0.5919, y: 0.1384, z: -1.4057}
  - {x: -0.5843, y: 0.1385, z: -1.4057}
  - {x: 0.6065, y: 0.0022, z: -1.4503}
  - {x: -0.608, y: 0.0023, z: -1.4503}
  - {x: -3.9358, y: 0.1054, z: 1.4156}
  - {x: -7.0669, y: 0.0399, z: 1.4156}
  - {x: -7.0669, y: 0.0027, z: 1.4552}
  - {x: -3.9358, y: 0.0023, z: 1.4552}
  - {x: -0.7447, y: 0.1384, z: 1.4156}
  - {x: -0.7183, y: 0.0022, z: 1.4552}
  - {x: -3.9358, y: 0.1054, z: -1.4057}
  - {x: -7.0669, y: 0.0399, z: -1.4057}
  - {x: -0.7447, y: 0.1384, z: -1.4057}
  - {x: -3.9358, y: 0.0023, z: -1.4503}
  - {x: -7.0669, y: 0.0027, z: -1.4503}
  - {x: -0.723, y: 0.0022, z: -1.4503}
  tmpFullMeshVecs:
  - {x: 0.7033, y: 0.0562, z: 0.1256}
  - {x: 0.6798, y: 0.0705, z: 1.8712}
  - {x: 0.7033, y: 0.0562, z: 1.8712}
  - {x: 0.6798, y: 0.0705, z: 0.1256}
  - {x: 0.7033, y: 0.0562, z: -1.9502}
  - {x: 0.6798, y: 0.0705, z: -1.9502}
  - {x: 0.6798, y: 0.0705, z: 0.1256}
  - {x: 0.6799, y: 0.1017, z: 1.8712}
  - {x: 0.6798, y: 0.0705, z: 1.8712}
  - {x: 0.6799, y: 0.1017, z: 0.1256}
  - {x: 0.6798, y: 0.0705, z: -1.9502}
  - {x: 0.6799, y: 0.1017, z: -1.9502}
  - {x: 0.6799, y: 0.1017, z: 0.1256}
  - {x: 0.6986, y: 0.1197, z: 1.8712}
  - {x: 0.6799, y: 0.1017, z: 1.8712}
  - {x: 0.6986, y: 0.1197, z: 0.1256}
  - {x: 0.6799, y: 0.1017, z: -1.9502}
  - {x: 0.6986, y: 0.1197, z: -1.9502}
  - {x: 0.6986, y: 0.1197, z: 0.1256}
  - {x: 0.6987, y: 0.1398, z: 1.8712}
  - {x: 0.6986, y: 0.1197, z: 1.8712}
  - {x: 0.6987, y: 0.1398, z: 0.1256}
  - {x: 0.6986, y: 0.1197, z: -1.9502}
  - {x: 0.6987, y: 0.1398, z: -1.9502}
  - {x: 0.6987, y: 0.1398, z: 0.1256}
  - {x: 0.6792, y: 0.1567, z: 1.8712}
  - {x: 0.6987, y: 0.1398, z: 1.8712}
  - {x: 0.6792, y: 0.1567, z: 0.1256}
  - {x: 0.6372, y: 0.1567, z: 1.8712}
  - {x: 0.6372, y: 0.1567, z: 0.1256}
  - {x: 0.6177, y: 0.1398, z: 1.8712}
  - {x: 0.6177, y: 0.1398, z: 0.1256}
  - {x: 0.6987, y: 0.1398, z: -1.9502}
  - {x: 0.6792, y: 0.1567, z: -1.9502}
  - {x: 0.6372, y: 0.1567, z: -1.9502}
  - {x: 0.6177, y: 0.1398, z: -1.9502}
  - {x: 0.6177, y: 0.1398, z: 0.1256}
  - {x: 0.6177, y: 0.1197, z: 1.8712}
  - {x: 0.6177, y: 0.1398, z: 1.8712}
  - {x: 0.6177, y: 0.1197, z: 0.1256}
  - {x: 0.6177, y: 0.1398, z: -1.9502}
  - {x: 0.6177, y: 0.1197, z: -1.9502}
  - {x: 0.6177, y: 0.1197, z: 0.1256}
  - {x: 0.6365, y: 0.1017, z: 1.8712}
  - {x: 0.6177, y: 0.1197, z: 1.8712}
  - {x: 0.6365, y: 0.1017, z: 0.1256}
  - {x: 0.6177, y: 0.1197, z: -1.9502}
  - {x: 0.6365, y: 0.1017, z: -1.9502}
  - {x: 0.6365, y: 0.1017, z: 0.1256}
  - {x: 0.636, y: 0.0705, z: 1.8712}
  - {x: 0.6365, y: 0.1017, z: 1.8712}
  - {x: 0.636, y: 0.0705, z: 0.1256}
  - {x: 0.6365, y: 0.1017, z: -1.9502}
  - {x: 0.636, y: 0.0705, z: -1.9502}
  - {x: 0.636, y: 0.0705, z: 0.1256}
  - {x: 0.6125, y: 0.0562, z: 1.8712}
  - {x: 0.636, y: 0.0705, z: 1.8712}
  - {x: 0.6125, y: 0.0562, z: 0.1256}
  - {x: 0.636, y: 0.0705, z: -1.9502}
  - {x: 0.6125, y: 0.0562, z: -1.9502}
  - {x: -0.6205, y: 0.0562, z: 0.1256}
  - {x: -0.644, y: 0.0705, z: 1.8712}
  - {x: -0.6205, y: 0.0562, z: 1.8712}
  - {x: -0.644, y: 0.0705, z: 0.1256}
  - {x: -0.6205, y: 0.0562, z: -1.9502}
  - {x: -0.644, y: 0.0705, z: -1.9502}
  - {x: -0.644, y: 0.0705, z: 0.1256}
  - {x: -0.6439, y: 0.1017, z: 1.8712}
  - {x: -0.644, y: 0.0705, z: 1.8712}
  - {x: -0.6439, y: 0.1017, z: 0.1256}
  - {x: -0.644, y: 0.0705, z: -1.9502}
  - {x: -0.6439, y: 0.1017, z: -1.9502}
  - {x: -0.6439, y: 0.1017, z: 0.1256}
  - {x: -0.6251, y: 0.1197, z: 1.8712}
  - {x: -0.6439, y: 0.1017, z: 1.8712}
  - {x: -0.6251, y: 0.1197, z: 0.1256}
  - {x: -0.6439, y: 0.1017, z: -1.9502}
  - {x: -0.6251, y: 0.1197, z: -1.9502}
  - {x: -0.6251, y: 0.1197, z: 0.1256}
  - {x: -0.6251, y: 0.1398, z: 1.8712}
  - {x: -0.6251, y: 0.1197, z: 1.8712}
  - {x: -0.6251, y: 0.1398, z: 0.1256}
  - {x: -0.6251, y: 0.1197, z: -1.9502}
  - {x: -0.6251, y: 0.1398, z: -1.9502}
  - {x: -0.6251, y: 0.1398, z: 0.1256}
  - {x: -0.6446, y: 0.1567, z: 1.8712}
  - {x: -0.6251, y: 0.1398, z: 1.8712}
  - {x: -0.6446, y: 0.1567, z: 0.1256}
  - {x: -0.6866, y: 0.1567, z: 1.8712}
  - {x: -0.6866, y: 0.1567, z: 0.1256}
  - {x: -0.7061, y: 0.1398, z: 1.8712}
  - {x: -0.7061, y: 0.1398, z: 0.1256}
  - {x: -0.6251, y: 0.1398, z: -1.9502}
  - {x: -0.6446, y: 0.1567, z: -1.9502}
  - {x: -0.6866, y: 0.1567, z: -1.9502}
  - {x: -0.7061, y: 0.1398, z: -1.9502}
  - {x: -0.7061, y: 0.1398, z: 0.1256}
  - {x: -0.706, y: 0.1197, z: 1.8712}
  - {x: -0.7061, y: 0.1398, z: 1.8712}
  - {x: -0.706, y: 0.1197, z: 0.1256}
  - {x: -0.7061, y: 0.1398, z: -1.9502}
  - {x: -0.706, y: 0.1197, z: -1.9502}
  - {x: -0.706, y: 0.1197, z: 0.1256}
  - {x: -0.6873, y: 0.1017, z: 1.8712}
  - {x: -0.706, y: 0.1197, z: 1.8712}
  - {x: -0.6873, y: 0.1017, z: 0.1256}
  - {x: -0.706, y: 0.1197, z: -1.9502}
  - {x: -0.6873, y: 0.1017, z: -1.9502}
  - {x: -0.6873, y: 0.1017, z: 0.1256}
  - {x: -0.6878, y: 0.0705, z: 1.8712}
  - {x: -0.6873, y: 0.1017, z: 1.8712}
  - {x: -0.6878, y: 0.0705, z: 0.1256}
  - {x: -0.6873, y: 0.1017, z: -1.9502}
  - {x: -0.6878, y: 0.0705, z: -1.9502}
  - {x: -0.6878, y: 0.0705, z: 0.1256}
  - {x: -0.7113, y: 0.0562, z: 1.8712}
  - {x: -0.6878, y: 0.0705, z: 1.8712}
  - {x: -0.7113, y: 0.0562, z: 0.1256}
  - {x: -0.6878, y: 0.0705, z: -1.9502}
  - {x: -0.7113, y: 0.0562, z: -1.9502}
  - {x: 0.7291, y: 0.1332, z: 1.4156}
  - {x: 0.709, y: 0.0032, z: -1.4503}
  - {x: 0.7073, y: 0.0032, z: 1.4552}
  - {x: 0.7291, y: 0.1332, z: -1.4057}
  - {x: 3.8809, y: 0.1007, z: 1.4156}
  - {x: 0.7291, y: 0.1332, z: 1.4156}
  - {x: 0.7073, y: 0.0032, z: 1.4552}
  - {x: 3.8809, y: 0.0038, z: 1.4552}
  - {x: 7.0518, y: 0.0393, z: 1.4156}
  - {x: 7.0518, y: 0.0021, z: 1.4552}
  - {x: 3.8809, y: 0.1007, z: -1.4057}
  - {x: 0.7291, y: 0.1332, z: -1.4057}
  - {x: 0.7291, y: 0.1332, z: 1.4156}
  - {x: 3.8809, y: 0.1007, z: 1.4156}
  - {x: 7.0518, y: 0.0393, z: -1.4057}
  - {x: 7.0518, y: 0.0393, z: 1.4156}
  - {x: 7.0518, y: 0.0021, z: -1.4503}
  - {x: 3.8809, y: 0.1007, z: -1.4057}
  - {x: 3.8809, y: 0.0038, z: -1.4503}
  - {x: 3.8809, y: 0.1007, z: -1.4057}
  - {x: 0.7291, y: 0.1332, z: -1.4057}
  - {x: 0.709, y: 0.0032, z: -1.4503}
  - {x: 0.5919, y: 0.1384, z: 1.4156}
  - {x: -0.5843, y: 0.1385, z: 1.4156}
  - {x: -0.6126, y: 0.0023, z: 1.4552}
  - {x: 0.6056, y: 0.0022, z: 1.4552}
  - {x: 0.5919, y: 0.1384, z: -1.4057}
  - {x: -0.5843, y: 0.1385, z: -1.4057}
  - {x: -0.5843, y: 0.1385, z: 1.4156}
  - {x: 0.5919, y: 0.1384, z: 1.4156}
  - {x: 0.6065, y: 0.0022, z: -1.4503}
  - {x: -0.608, y: 0.0023, z: -1.4503}
  - {x: -0.5843, y: 0.1385, z: -1.4057}
  - {x: 0.5919, y: 0.1384, z: -1.4057}
  - {x: -3.9358, y: 0.1054, z: 1.4156}
  - {x: -7.0669, y: 0.0399, z: 1.4156}
  - {x: -7.0669, y: 0.0027, z: 1.4552}
  - {x: -3.9358, y: 0.0023, z: 1.4552}
  - {x: -0.7447, y: 0.1384, z: 1.4156}
  - {x: -0.7183, y: 0.0022, z: 1.4552}
  - {x: -3.9358, y: 0.1054, z: -1.4057}
  - {x: -7.0669, y: 0.0399, z: -1.4057}
  - {x: -7.0669, y: 0.0399, z: 1.4156}
  - {x: -3.9358, y: 0.1054, z: 1.4156}
  - {x: -0.7447, y: 0.1384, z: -1.4057}
  - {x: -0.7447, y: 0.1384, z: 1.4156}
  - {x: -3.9358, y: 0.0023, z: -1.4503}
  - {x: -7.0669, y: 0.0027, z: -1.4503}
  - {x: -7.0669, y: 0.0399, z: -1.4057}
  - {x: -7.0669, y: 0.0399, z: -1.4057}
  - {x: -3.9358, y: 0.1054, z: -1.4057}
  - {x: -0.723, y: 0.0022, z: -1.4503}
  - {x: -0.7447, y: 0.1384, z: -1.4057}
  - {x: -0.5843, y: 0.1385, z: 1.4156}
  - {x: -0.608, y: 0.0023, z: -1.4503}
  - {x: -0.6126, y: 0.0023, z: 1.4552}
  - {x: -0.5843, y: 0.1385, z: -1.4057}
  - {x: 0.5919, y: 0.1384, z: -1.4057}
  - {x: 0.6056, y: 0.0022, z: 1.4552}
  - {x: 0.6065, y: 0.0022, z: -1.4503}
  - {x: 0.5919, y: 0.1384, z: 1.4156}
  - {x: -0.7447, y: 0.1384, z: -1.4057}
  - {x: -0.7183, y: 0.0022, z: 1.4552}
  - {x: -0.723, y: 0.0022, z: -1.4503}
  - {x: -0.7447, y: 0.1384, z: 1.4156}
  tCrossingTmpFullMeshVecs: []
  outerVecInts: 
  surfaceVecs:
  - {x: -0.7113, y: 0, z: -1.9502}
  - {x: -7.0669, y: 0, z: -1.4503}
  - {x: -7.0669, y: 0, z: 1.4552}
  - {x: -0.7113, y: 0, z: 1.8712}
  - {x: 0.7033, y: 0, z: 1.8712}
  - {x: 7.0518, y: 0, z: 1.4552}
  - {x: 7.0518, y: 0, z: -1.4503}
  - {x: 0.7033, y: 0, z: -1.9502}
  surfaceVecType: 0100000002000000010000000200000001000000020000000100000002000000
  surfaceConnectionInt: 0000000001000000010000000200000002000000030000000300000000000000
  tCrossingBlendData: []
  indentVecs: []
  sourcePrefab: {fileID: 0}
  prefabId: 10
  prioritySegments: 
  minNodeDistance: 3
  nodeWithinRange: -1
  sourceObject: {fileID: 100004, guid: 99888445deb6bd74590df0a3c8bf08c5, type: 3}
  meshInstance: 0
  selectedConnection: -1
  QDOOOQOOQQQQD: []
  deformTerrain: 1
  isRoundabout: 0
  isERCrossing: 0
  isIConnector: 0
  roundaboutScript: {fileID: 0}
  crossingsScript: {fileID: 0}
  isCustomPrefab: 1
  customPrefabVersion: 1
  recalculateNormals: 0
  planarUVs: 0
  planarTiling: 1
  lastVecRoadIndex: 0
  isSceneObject: 1
  surfaceObject: {fileID: 0}
  surfaceMeshVecs: []
  tmpSurfaceMeshVecs: []
  tmpSurfaceVecsTCrossings: []
  surfaceInts: 
  leftBottomCorner: {x: 0, y: 0, z: 0}
  leftTopCorner: {x: 0, y: 0, z: 0}
  rightBottomCorner: {x: 0, y: 0, z: 0}
  rightTopCorner: {x: 0, y: 0, z: 0}
  tCrossing: 0
  tStraightBending: 1
  tCrossingLeftRight: 1
  tMainRoadWidth: 0
  tConnectionRoadWidth: 0
  bottomLeftSidewalkWidth: 0
  bottomLeftSidewalkOuterOffset: 0
  bottomLeftSidewalkCurbDepth: 0
  bottomRightSidewalkWidth: 0
  bottomRightSidewalkOuterOffset: 0
  bottomRightSidewalkCurbDepth: 0
  topLeftSidewalkWidth: 0
  topLeftSidewalkOuterOffset: 0
  topLeftSidewalkCurbDepth: 0
  topRightSidewalkWidth: 0
  topRightSidewalkOuterOffset: 0
  topRightSidewalkCurbDepth: 0
  testVec: {x: 0, y: 0, z: 0}
  surfaceSurroundingInts: 
  rotationPriorityElement: -1
  cornerPos: {x: 0, y: 0, z: 0}
  mainCorner: {x: 0, y: 0, z: 0}
  connectedCorner: {x: 0, y: 0, z: 0}
  mainVecOuter: {x: 0, y: 0, z: 0}
  connectionVecOuter: {x: 0, y: 0, z: 0}
  indentTopVec: {x: 0, y: 0, z: 0}
  indentRightVec: {x: 0, y: 0, z: 0}
  mainIndent: {x: 0, y: 0, z: 0}
  connectionIndent: {x: 0, y: 0, z: 0}
  selectedRotationConnection: 0
  bottomVec: {x: 0, y: 0, z: 0}
  rightVec: {x: 0, y: 0, z: 0}
  bottomIndent: {x: 0, y: 0, z: 0}
  rightIndent: {x: 0, y: 0, z: 0}
  sAngle: 90
  baseScript: {fileID: 0}
  QDQDQOOQQDQOQQ: 0
  tp1: {x: 0, y: 0, z: 0}
  tp2: {x: 0, y: 0, z: 0}
  doTerrainDeformation: 1
  includeOuterVertices: 1
  surroundingDistance: 0
  surfaceMesh: {fileID: 0}
  debugVecs1: []
  debugVecs2: []
  lightmapAdjusted: 0
--- !u!1001 &100100000
Prefab:
  m_ObjectHideFlags: 1
  serializedVersion: 2
  m_Modification:
    m_TransformParent: {fileID: 0}
    m_Modifications: []
    m_RemovedComponents: []
  m_ParentPrefab: {fileID: 0}
  m_RootGameObject: {fileID: 184538}
  m_IsPrefabParent: 1
