%YAML 1.1
%TAG !u! tag:unity3d.com,2011:
--- !u!1 &100000
GameObject:
  m_ObjectHideFlags: 0
  m_PrefabParentObject: {fileID: 0}
  m_PrefabInternal: {fileID: 100100000}
  serializedVersion: 5
  m_Component:
  - component: {fileID: 400000}
  m_Layer: 0
  m_Name: Road Objects
  m_TagString: Untagged
  m_Icon: {fileID: 0}
  m_NavMeshLayer: 0
  m_StaticEditorFlags: 0
  m_IsActive: 1
--- !u!1 &100002
GameObject:
  m_ObjectHideFlags: 0
  m_PrefabParentObject: {fileID: 0}
  m_PrefabInternal: {fileID: 100100000}
  serializedVersion: 5
  m_Component:
  - component: {fileID: 400002}
  - component: {fileID: 11400002}
  m_Layer: 0
  m_Name: Connection Objects
  m_TagString: Untagged
  m_Icon: {fileID: 0}
  m_NavMeshLayer: 0
  m_StaticEditorFlags: 0
  m_IsActive: 1
--- !u!1 &100004
GameObject:
  m_ObjectHideFlags: 0
  m_PrefabParentObject: {fileID: 0}
  m_PrefabInternal: {fileID: 100100000}
  serializedVersion: 5
  m_Component:
  - component: {fileID: 400004}
  - component: {fileID: 11400000}
  m_Layer: 0
  m_Name: ER Road Network
  m_TagString: Untagged
  m_Icon: {fileID: 0}
  m_NavMeshLayer: 0
  m_StaticEditorFlags: 0
  m_IsActive: 1
--- !u!4 &400000
Transform:
  m_ObjectHideFlags: 1
  m_PrefabParentObject: {fileID: 0}
  m_PrefabInternal: {fileID: 100100000}
  m_GameObject: {fileID: 100000}
  m_LocalRotation: {x: 0, y: 0, z: 0, w: 1}
  m_LocalPosition: {x: 0, y: 0, z: 0}
  m_LocalScale: {x: 1, y: 1, z: 1}
  m_Children: []
  m_Father: {fileID: 400004}
  m_RootOrder: 1
  m_LocalEulerAnglesHint: {x: 0, y: 0, z: 0}
--- !u!4 &400002
Transform:
  m_ObjectHideFlags: 1
  m_PrefabParentObject: {fileID: 0}
  m_PrefabInternal: {fileID: 100100000}
  m_GameObject: {fileID: 100002}
  m_LocalRotation: {x: 0, y: 0, z: 0, w: 1}
  m_LocalPosition: {x: 0, y: 0, z: 0}
  m_LocalScale: {x: 1, y: 1, z: 1}
  m_Children: []
  m_Father: {fileID: 400004}
  m_RootOrder: 0
  m_LocalEulerAnglesHint: {x: 0, y: 0, z: 0}
--- !u!4 &400004
Transform:
  m_ObjectHideFlags: 1
  m_PrefabParentObject: {fileID: 0}
  m_PrefabInternal: {fileID: 100100000}
  m_GameObject: {fileID: 100004}
  m_LocalRotation: {x: 0, y: 0, z: 0, w: 1}
  m_LocalPosition: {x: 0, y: 0, z: 0}
  m_LocalScale: {x: 1, y: 1, z: 1}
  m_Children:
  - {fileID: 400002}
  - {fileID: 400000}
  m_Father: {fileID: 0}
  m_RootOrder: 0
  m_LocalEulerAnglesHint: {x: 0, y: 0, z: 0}
--- !u!114 &11400000
MonoBehaviour:
  m_ObjectHideFlags: 1
  m_PrefabParentObject: {fileID: 0}
  m_PrefabInternal: {fileID: 100100000}
  m_GameObject: {fileID: 100004}
  m_Enabled: 1
  m_EditorHideFlags: 0
  m_Script: {fileID: 365290288, guid: f56d46228aee4734f9114056c53bb57e, type: 3}
  m_Name: 
  m_EditorClassIdentifier: 
  updateInt: 7
  newSplatMapRestoreCode: 0
  toolbarInt: 5
  roadToolbarInt: 0
  markerToolbarInt: 0
  menuTexs:
  - {fileID: 2800000, guid: 34aed1010b525bf4c9cfd7da35361a90, type: 3}
  - {fileID: 2800000, guid: 32e963efb91d19147842f8bd95d6ac56, type: 3}
  - {fileID: 2800000, guid: ffc15be4bded7b34f9f406cde082a4a2, type: 3}
  - {fileID: 2800000, guid: 881f73f964cf5104abc91a5f657615a8, type: 3}
  - {fileID: 2800000, guid: b2f9adc22d0fa0647880b18b89bf0872, type: 3}
  - {fileID: 2800000, guid: 8583bfb2058e94a48801d7212430d8d1, type: 3}
  - {fileID: 2800000, guid: a734eccac0ad8bc49950dd4fbee58611, type: 3}
  subMenuTexs: []
  cprefab: {fileID: 0}
  nodeHandleTexture: {fileID: 0}
  lockedTexture: {fileID: 2800000, guid: 95bcc58da45020345aeaaaf89ea8a000, type: 3}
  unLockedTexture: {fileID: 2800000, guid: 8b70bdf1ef68d1f429183b0746cc82be, type: 3}
  roadObjectsParent: {fileID: 400000}
  connectionObjectsParent: {fileID: 400002}
  ODQODOQQDD: {fileID: 0}
  roadTypes:
  - roadTypeName: Default Road
    id: 11
    timestamp: 0
    roadWidth: 6
    faceDistance: 2
    angleTreshold: 45
    uvTiling: 1
    planarUVs: 0
    outerIndent: 0
    roadShape: []
    doConnectionTri: 
    roadShapeUVs: []
    roadShapeUVs2: []
    hardEdge: 
    roadShapeVecsString: 
    sidewalks: 0
    sidewalkHeight: 0.2
    sidewalkWidth: 2
    roadMaterial: {fileID: 2100000, guid: f182e2714eb8a714a99ed091081ce16c, type: 2}
    roadMaterials: []
    roadPhysicsMaterial: {fileID: 0}
    roadPhysicsMaterials: []
    connectionMaterial: {fileID: 2100000, guid: 3c555588afad81d428ad1704d5d015a7,
      type: 2}
    isSideObject: 0
    isCustomRoad: 0
    subSegments: 0
    soData: []
    soDataExt:
    - {fileID: 0}
    soDataLog: []
    layer: 0
    tag: 
    splatMapActive: 0
    splatIndex: 0
    expandLevel: 0
    smoothLevel: 0
    splatOpacity: 0
    terrainDeformation: 1
    castShadow: 0
    randomnessFlag: 0
    randomYPosition: 0
    randomMinYPosition: 0
    randomMaxYPosition: 0
    minRandomYPositionDistance: 0
    maxRandomYPositionDistance: 0
    randomMinRotation: 0
    randomMaxRotation: 0
    minRandomRotationDistance: 0
    maxRandomRotationDistance: 0
  selectedRoadType: 0
  selectedNewRoadType: 0
  roadWidth: 5
  roadMaterial: {fileID: 2100000, guid: f182e2714eb8a714a99ed091081ce16c, type: 2}
  crossingMaterial: {fileID: 2100000, guid: f182e2714eb8a714a99ed091081ce16c, type: 2}
  roundAboutMaterial: {fileID: 2100000, guid: 55e19257e99adea4380d1160ee92af9f, type: 2}
  roundAboutConnectionMaterial: {fileID: 2100000, guid: ce8bb957aa39a384eb46fd561e66303f,
    type: 2}
  roundAboutRoadMaterial: {fileID: 2100000, guid: f182e2714eb8a714a99ed091081ce16c,
    type: 2}
  sidewalkMaterial: {fileID: 0}
  targetMaterial: {fileID: 0}
  sourceTerrain: {fileID: 0}
  roadMaterials:
  - 1laneRampMat
  - 2laneHighway
  - 2x2 lane road
  - 3 lane road
  - Blend asphalt - dirt
  - blue material
  - bridge_01_1_laneMat
  - bridge_01_2_laneMat
  - crosswalk 3 road
  - dirt material cutout
  - dirt material
  - motorway 2 lanes
  - race track material
  - road material
  - road medieval
  - road sidewalks
  - single lane sides
  - single lane
  - train rail
  connectionMaterials:
  - crossing material
  - road X sidewalks
  selectedMaterial: 0
  selectedConnectionMaterial: 0
  materials: []
  selectedRoadRoadType: 0
  selectedRoadMaterial: 0
  roadTextureInfoIndex: 0
  selectedRoadTexture: {fileID: 0}
  selectedRoadWidth: 0
  selectedRoadLeftOffset: 0
  selectedRoadRightOffset: 0
  selectedRoadLeftInnerOffset: 0
  selectedRoadRightInnerOffset: 0
  selectedCrossingMaterial: 0
  crossingTextureInfoIndex: 0
  handleSelection: 0
  positionHandleSelection: 1
  defaultCrossing: {fileID: 100000, guid: 82d1055f236419543a306cf502974500, type: 2}
  defaultTCrossing: {fileID: 100000, guid: 3c97eb06152ef28429cd0dcca2b0f38d, type: 2}
  defaultCulDeSac: {fileID: 100000, guid: d362836e6197c7149be4673adcd855aa, type: 2}
  defaultRoundabout: {fileID: 100000, guid: 58cba8b24d27c6649b59cafd71c631e8, type: 2}
  tex: {fileID: 0}
  showAllPrefabs: 1
  standardPrefabsFlag: 0
  sceneSettingsFoldOut: 0
  sceneRoadsFoldOut: 1
  scenePrefabsFoldOut: 0
  terrainManagementFoldOut: 0
  importRoadDataFoldOut: 0
  lodGroupsFoldOut: 0
  defaultMaterialsFoldOut: 0
  kmlFlag: 0
  osmFlag: 0
  useOSMHeights: 0
  heightRatio: 1
  dynamicPrefabsFoldOut: 1
  customPrefabsFoldOut: 1
  prefabsDisplayType: 0
  showRoadSideObjects: 0
  osmTerrainTopLon: 0
  osmTerrainBottomLon: 0
  osmTerrainLeftLat: 0
  osmTerrainRightLat: 0
  terrainMinIndent: 3
  minIndent: 3
  minSurrounding: 5
  terrainY: 0
  terrainDetailSplatX: 0.5
  terrainDetailSplatY: 0.5
  detailOffsetVec: {x: 0.5, y: 0, z: 0.5}
  raise: 0.02
  baseVector: {x: 0, y: 0, z: 0}
  mirrorCrossings: 1
  terrainNames:
  - All Terrains
  - Terrain_0_0-20170606-205308
  terrainObjects:
  - {fileID: 0}
  - {fileID: 0}
  terrainSplatTextures:
  - Splat 1 - ground_desertSandDuneless_2k_alb_s
  - Splat 2 - Ground_ScrubGrassField_2k_alb_s
  - Splat 3 - Ground_MountainTerrain_2k_alb_s
  - Splat 4 - Rock_GuiMossyRock_2k_alb_s
  activeTerrain: {fileID: 0}
  activeTerrainY: 0
  selectedTerrain: 0
  selectedRoadsOnly: 0
  terrainDone: 0
  enableBackWithoutRestore: 0
  detailDistance: 3
  treeDistance: 5
  doHeightmap: 1
  doTrees: 1
  soTrees: 1
  doDetail: 1
  terrainRect:
    serializedVersion: 2
    x: 0
    y: 0
    width: 0
    height: 0
  surfaceObjects: []
  preserveTerrainFloat: 1
  terrainSmoothIndentDistance: 1
  terrainSmoothSurroundingDistance: 1
  indentSmoothStep: 0
  surroundingSmoothStep: 0
  doTangents: 1
  doLightmapUVs: 0
  doLODGroups: 0
  doSplatmaps: 0
  terrainHits: []
  osmCrossingPoints: []
  cornerPresets: []
  sidewalkPresets: []
  osmMotorway: 0
  osmTrunk: 0
  osmPrimary: 0
  osmSecondary: 0
  osmTertiary: 0
  osmUnclassified: 0
  osmResidential: 0
  osmService: 0
  osmTrack: 0
  osmPath: 0
  osmMotorwayFlag: 1
  osmTrunkFlag: 1
  osmPrimaryFlag: 1
  osmSecondaryFlag: 1
  osmTertiaryFlag: 1
  osmUnclassifiedFlag: 1
  osmResidentialFlag: 1
  osmServiceFlag: 1
  osmTrackFlag: 1
  osmPathFlag: 1
  lodGroups: 0
  LODLevels: 4
  LODLevelValues:
  - 0.6
  - 0.4
  - 0.2
  - 0
  LODLevelResolution:
  - 0.9
  - 0.8
  - 0.6
  - 0.4
  embedRoadShape: 0
  hideSurfaces: 0
  useLightProbes: 0
  hideLockedObjects: 0
  OCDDOQOCCD: 0
  isInBuildMode: 0
  QOQDQOOQDDQOOQ:
  - {fileID: 0}
  sideObjectNames:
  - Side Object 1
  selSideObject: 0
  selSubSideObject: 0
  soID: 
  sideObjectName: 
  sideObjectType: 0
  sideObjectSource: {fileID: 0}
  soEndObject: {fileID: 0}
  sideObjectTerrainVegetationInt: 0
  prefabChildHandling: 0
  sideObjectDistance: 1
  soYAxisRotation: 0
  soSidewaysDistance: 0
  soSidewaysDistanceHandling: 0
  soDensity: 1
  soOffset: 0
  soTerrainAligment: 0
  soCombine: 0
  soWeld: 0
  soControllerType: 0
  soMaterial: {fileID: 0}
  soXPosition: 0
  soYPosition: 0
  soMarkerActive: 1
  enableSOHandles: 1
  enableShapeNodeHandles: 0
  enableSOShapeNodeHandles: 0
  displayCriticalPoints: 1
  highlightRoad: 1
  highlightIndents: 1
  highlightSurroundings: 1
  highlightSideObject: 1
  soDeformationObjects: []
  soSplatmapObjects: []
  buildSOinEditMode: 1
  tangentsInEditMode: 1
  importSideObjectsAlert: 1
  importRoadPresetsAlert: 0
  importCrossingPresetsAlert: 0
  importSidewalkPresetsAlert: 0
  updateSideObjectsAlert: 1
  updateRoadPresetsAlert: 0
  updateCrossingPresetsAlert: 0
  updateSidewalkPresetsAlert: 0
  waypointDistance: 10
  RoadObjectsSoUpdates: []
  assetsFolderID: 
  meshSurface: {fileID: 0}
  meshTerrainCollider: {fileID: 0}
  markerScale: 1
  markerDistance: 200
  debugFlag: 0
  roadNetworkY: 0
  ignoreMinIndents: 0
  zoomStart: {x: 0, y: 0, z: 0}
  zoomEnd: {x: 0, y: 0, z: 0}
  lookAtStart: {x: 0, y: 0, z: 0}
  lookAtEnd: {x: 0, y: 0, z: 0}
  zoomRot: {x: 0, y: 0, z: 0, w: 0}
  zoomStartTime: 0
  hideSurfaceHandles: 0
  dirtyBool: 0
  dirtyOnSceneBool: 0
  ODQODOQQDDScript: {fileID: 0}
  OQODDQODQCCrossingsScript: {fileID: 0}
  OQODDQODQCScript: {fileID: 0}
  ODQODOQQDDElement: -1
  ODDDDCQDCC: -1
  OCOQOOQOOQ: {fileID: 0}
  OQOODOCDOO: -1
  selectedRoadSOMarker: -1
  selectedMarkerNode: -1
  selectedMarkerNodes: 
  selectedMarkerSONode: -1
  selectedMarkerSONodes: 
  selectedObjects: []
  roadScripts: []
  prefabScripts: []
  globalGridActive: 0
  gridGUIActive: 0
  globalGridColor: {r: 0.35, g: 0.5, b: 0.9, a: 0.9}
  globalGridSize: 10
  globalGridRotation: 0
  ggTL: {x: 0, y: 0, z: 0}
  ggBL: {x: 0, y: 0, z: 0}
  ggBR: {x: 0, y: 0, z: 0}
  localGridActive: 0
  localGrids: []
  selectedLocalGrid: 0
  roadUpdated: 0
  clampUVs: 1
  soCategoryInt: 0
  minRoadWidth: 1
  maxRoadWidth: 75
  maxCurbHeight: 0.5
  minCornerRadius: 0.5
  maxCornerRadius: 5
  SoTestObject: {fileID: 0}
--- !u!114 &11400002
MonoBehaviour:
  m_ObjectHideFlags: 1
  m_PrefabParentObject: {fileID: 0}
  m_PrefabInternal: {fileID: 100100000}
  m_GameObject: {fileID: 100002}
  m_Enabled: 1
  m_EditorHideFlags: 0
  m_Script: {fileID: 1419717442, guid: f56d46228aee4734f9114056c53bb57e, type: 3}
  m_Name: 
  m_EditorClassIdentifier: 
--- !u!1001 &100100000
Prefab:
  m_ObjectHideFlags: 1
  serializedVersion: 2
  m_Modification:
    m_TransformParent: {fileID: 0}
    m_Modifications:
    - target: {fileID: 0}
      propertyPath: buildSOinEditMode
      value: 1
      objectReference: {fileID: 0}
    - target: {fileID: 0}
      propertyPath: updateInt
      value: 7
      objectReference: {fileID: 0}
    - target: {fileID: 0}
      propertyPath: positionHandleSelection
      value: 1
      objectReference: {fileID: 0}
    - target: {fileID: 0}
      propertyPath: roadTypes.Array.data[0].uvTiling
      value: 1
      objectReference: {fileID: 0}
    - target: {fileID: 0}
      propertyPath: toolbarInt
      value: 4
      objectReference: {fileID: 0}
    - target: {fileID: 0}
      propertyPath: minIndent
      value: 1
      objectReference: {fileID: 0}
    - target: {fileID: 0}
      propertyPath: lockedTexture
      value: 
      objectReference: {fileID: 2800000, guid: 95bcc58da45020345aeaaaf89ea8a000, type: 3}
    - target: {fileID: 0}
      propertyPath: unLockedTexture
      value: 
      objectReference: {fileID: 2800000, guid: 8b70bdf1ef68d1f429183b0746cc82be, type: 3}
    - target: {fileID: 0}
      propertyPath: doTangents
      value: 1
      objectReference: {fileID: 0}
    - target: {fileID: 0}
      propertyPath: tangentsInEditMode
      value: 1
      objectReference: {fileID: 0}
    - target: {fileID: 0}
      propertyPath: raise
      value: .0199999996
      objectReference: {fileID: 0}
    - target: {fileID: 0}
      propertyPath: roadTypes.Array.data[0].id
      value: 11
      objectReference: {fileID: 0}
    - target: {fileID: 0}
      propertyPath: roadTypes.Array.data[0].terrainDeformation
      value: 1
      objectReference: {fileID: 0}
    - target: {fileID: 0}
      propertyPath: roadTypes.Array.data[0].faceDistance
      value: 2
      objectReference: {fileID: 0}
    - target: {fileID: 0}
      propertyPath: roadTypes.Array.data[0].angleTreshold
      value: 45
      objectReference: {fileID: 0}
    - target: {fileID: 0}
      propertyPath: roadTypes.Array.data[0].roadWidth
      value: 6
      objectReference: {fileID: 0}
    m_RemovedComponents: []
  m_ParentPrefab: {fileID: 0}
  m_RootGameObject: {fileID: 100004}
  m_IsPrefabParent: 1
